# pNcenT, phiNcenT
2.999999999999999542e-02,4.999999999999999562e-05
3.874534099716626934e-02,4.999999999999999562e-05
5.004004829955644579e-02,4.999999999999999562e-05
6.462729116269952390e-02,4.999999999999999562e-05
8.346688112739811261e-02,4.999999999999999562e-05
1.077984257083660635e-01,4.999999999999999562e-05
1.392228921009446008e-01,4.999999999999999562e-05
1.798079476354262352e-01,4.999999999999999562e-05
2.322240081711735571e-01,4.999999999999999562e-05
2.999199461440281711e-01,4.999999999999999562e-05
3.873500195067373086e-01,4.999999999999999562e-05
5.002669530349181937e-01,4.999999999999999562e-05
6.461004561650423028e-01,4.999999999999999562e-05
8.344460830846414101e-01,4.999999999999999562e-05
1.077696601095472939e+00,4.999999999999999562e-05
1.391857410031039022e+00,4.999999999999999562e-05
1.797599665702842797e+00,4.999999999999999562e-05
2.321620400801625017e+00,4.999999999999999562e-05
2.998399136501226359e+00,4.999999999999999562e-05
3.872466566311632441e+00,4.999999999999999562e-05
5.001334587062326698e+00,4.999999999999999562e-05
6.459280467221720556e+00,4.999999999999999562e-05
8.342234143294701809e+00,4.999999999999999562e-05
1.077409021867188166e+01,4.999999999999999562e-05
1.391485998188919204e+01,4.999999999999999562e-05
1.797119983087065620e+01,4.999999999999999562e-05
2.321000885251001122e+01,4.999999999999999562e-05
2.997599025125830607e+01,4.999999999999999562e-05
3.871433213375783566e+01,4.999999999999999562e-05
4.999999999999999289e+01,4.999999999999999562e-05
2.999999999999999542e-02,7.205460274968761639e-05
3.874534099716626934e-02,7.205460274968761639e-05
5.004004829955644579e-02,7.205460274968761639e-05
6.462729116269952390e-02,7.205460274968761639e-05
8.346688112739811261e-02,7.205460274968761639e-05
1.077984257083660635e-01,7.205460274968761639e-05
1.392228921009446008e-01,7.205460274968761639e-05
1.798079476354262352e-01,7.205460274968761639e-05
2.322240081711735571e-01,7.205460274968761639e-05
2.999199461440281711e-01,7.205460274968761639e-05
3.873500195067373086e-01,7.205460274968761639e-05
5.002669530349181937e-01,7.205460274968761639e-05
6.461004561650423028e-01,7.205460274968761639e-05
8.344460830846414101e-01,7.205460274968761639e-05
1.077696601095472939e+00,7.205460274968761639e-05
1.391857410031039022e+00,7.205460274968761639e-05
1.797599665702842797e+00,7.205460274968761639e-05
2.321620400801625017e+00,7.205460274968761639e-05
2.998399136501226359e+00,7.205460274968761639e-05
3.872466566311632441e+00,7.205460274968761639e-05
5.001334587062326698e+00,7.205460274968761639e-05
6.459280467221720556e+00,7.205460274968761639e-05
8.342234143294701809e+00,7.205460274968761639e-05
1.077409021867188166e+01,7.205460274968761639e-05
1.391485998188919204e+01,7.205460274968761639e-05
1.797119983087065620e+01,7.205460274968761639e-05
2.321000885251001122e+01,7.205460274968761639e-05
2.997599025125830607e+01,7.205460274968761639e-05
3.871433213375783566e+01,7.205460274968761639e-05
4.999999999999999289e+01,7.205460274968761639e-05
2.999999999999999542e-02,1.038373155483056267e-04
3.874534099716626934e-02,1.038373155483056267e-04
5.004004829955644579e-02,1.038373155483056267e-04
6.462729116269952390e-02,1.038373155483056267e-04
8.346688112739811261e-02,1.038373155483056267e-04
1.077984257083660635e-01,1.038373155483056267e-04
1.392228921009446008e-01,1.038373155483056267e-04
1.798079476354262352e-01,1.038373155483056267e-04
2.322240081711735571e-01,1.038373155483056267e-04
2.999199461440281711e-01,1.038373155483056267e-04
3.873500195067373086e-01,1.038373155483056267e-04
5.002669530349181937e-01,1.038373155483056267e-04
6.461004561650423028e-01,1.038373155483056267e-04
8.344460830846414101e-01,1.038373155483056267e-04
1.077696601095472939e+00,1.038373155483056267e-04
1.391857410031039022e+00,1.038373155483056267e-04
1.797599665702842797e+00,1.038373155483056267e-04
2.321620400801625017e+00,1.038373155483056267e-04
2.998399136501226359e+00,1.038373155483056267e-04
3.872466566311632441e+00,1.038373155483056267e-04
5.001334587062326698e+00,1.038373155483056267e-04
6.459280467221720556e+00,1.038373155483056267e-04
8.342234143294701809e+00,1.038373155483056267e-04
1.077409021867188166e+01,1.038373155483056267e-04
1.391485998188919204e+01,1.038373155483056267e-04
1.797119983087065620e+01,1.038373155483056267e-04
2.321000885251001122e+01,1.038373155483056267e-04
2.997599025125830607e+01,1.038373155483056267e-04
3.871433213375783566e+01,1.038373155483056267e-04
4.999999999999999289e+01,1.038373155483056267e-04
2.999999999999999542e-02,1.496391304485425065e-04
3.874534099716626934e-02,1.496391304485425065e-04
5.004004829955644579e-02,1.496391304485425065e-04
6.462729116269952390e-02,1.496391304485425065e-04
8.346688112739811261e-02,1.496391304485425065e-04
1.077984257083660635e-01,1.496391304485425065e-04
1.392228921009446008e-01,1.496391304485425065e-04
1.798079476354262352e-01,1.496391304485425065e-04
2.322240081711735571e-01,1.496391304485425065e-04
2.999199461440281711e-01,1.496391304485425065e-04
3.873500195067373086e-01,1.496391304485425065e-04
5.002669530349181937e-01,1.496391304485425065e-04
6.461004561650423028e-01,1.496391304485425065e-04
8.344460830846414101e-01,1.496391304485425065e-04
1.077696601095472939e+00,1.496391304485425065e-04
1.391857410031039022e+00,1.496391304485425065e-04
1.797599665702842797e+00,1.496391304485425065e-04
2.321620400801625017e+00,1.496391304485425065e-04
2.998399136501226359e+00,1.496391304485425065e-04
3.872466566311632441e+00,1.496391304485425065e-04
5.001334587062326698e+00,1.496391304485425065e-04
6.459280467221720556e+00,1.496391304485425065e-04
8.342234143294701809e+00,1.496391304485425065e-04
1.077409021867188166e+01,1.496391304485425065e-04
1.391485998188919204e+01,1.496391304485425065e-04
1.797119983087065620e+01,1.496391304485425065e-04
2.321000885251001122e+01,1.496391304485425065e-04
2.997599025125830607e+01,1.496391304485425065e-04
3.871433213375783566e+01,1.496391304485425065e-04
4.999999999999999289e+01,1.496391304485425065e-04
2.999999999999999542e-02,2.156437620055681097e-04
3.874534099716626934e-02,2.156437620055681097e-04
5.004004829955644579e-02,2.156437620055681097e-04
6.462729116269952390e-02,2.156437620055681097e-04
8.346688112739811261e-02,2.156437620055681097e-04
1.077984257083660635e-01,2.156437620055681097e-04
1.392228921009446008e-01,2.156437620055681097e-04
1.798079476354262352e-01,2.156437620055681097e-04
2.322240081711735571e-01,2.156437620055681097e-04
2.999199461440281711e-01,2.156437620055681097e-04
3.873500195067373086e-01,2.156437620055681097e-04
5.002669530349181937e-01,2.156437620055681097e-04
6.461004561650423028e-01,2.156437620055681097e-04
8.344460830846414101e-01,2.156437620055681097e-04
1.077696601095472939e+00,2.156437620055681097e-04
1.391857410031039022e+00,2.156437620055681097e-04
1.797599665702842797e+00,2.156437620055681097e-04
2.321620400801625017e+00,2.156437620055681097e-04
2.998399136501226359e+00,2.156437620055681097e-04
3.872466566311632441e+00,2.156437620055681097e-04
5.001334587062326698e+00,2.156437620055681097e-04
6.459280467221720556e+00,2.156437620055681097e-04
8.342234143294701809e+00,2.156437620055681097e-04
1.077409021867188166e+01,2.156437620055681097e-04
1.391485998188919204e+01,2.156437620055681097e-04
1.797119983087065620e+01,2.156437620055681097e-04
2.321000885251001122e+01,2.156437620055681097e-04
2.997599025125830607e+01,2.156437620055681097e-04
3.871433213375783566e+01,2.156437620055681097e-04
4.999999999999999289e+01,2.156437620055681097e-04
2.999999999999999542e-02,3.107625121351875199e-04
3.874534099716626934e-02,3.107625121351875199e-04
5.004004829955644579e-02,3.107625121351875199e-04
6.462729116269952390e-02,3.107625121351875199e-04
8.346688112739811261e-02,3.107625121351875199e-04
1.077984257083660635e-01,3.107625121351875199e-04
1.392228921009446008e-01,3.107625121351875199e-04
1.798079476354262352e-01,3.107625121351875199e-04
2.322240081711735571e-01,3.107625121351875199e-04
2.999199461440281711e-01,3.107625121351875199e-04
3.873500195067373086e-01,3.107625121351875199e-04
5.002669530349181937e-01,3.107625121351875199e-04
6.461004561650423028e-01,3.107625121351875199e-04
8.344460830846414101e-01,3.107625121351875199e-04
1.077696601095472939e+00,3.107625121351875199e-04
1.391857410031039022e+00,3.107625121351875199e-04
1.797599665702842797e+00,3.107625121351875199e-04
2.321620400801625017e+00,3.107625121351875199e-04
2.998399136501226359e+00,3.107625121351875199e-04
3.872466566311632441e+00,3.107625121351875199e-04
5.001334587062326698e+00,3.107625121351875199e-04
6.459280467221720556e+00,3.107625121351875199e-04
8.342234143294701809e+00,3.107625121351875199e-04
1.077409021867188166e+01,3.107625121351875199e-04
1.391485998188919204e+01,3.107625121351875199e-04
1.797119983087065620e+01,3.107625121351875199e-04
2.321000885251001122e+01,3.107625121351875199e-04
2.997599025125830607e+01,3.107625121351875199e-04
3.871433213375783566e+01,3.107625121351875199e-04
4.999999999999999289e+01,3.107625121351875199e-04
2.999999999999999542e-02,4.478373872279179453e-04
3.874534099716626934e-02,4.478373872279179453e-04
5.004004829955644579e-02,4.478373872279179453e-04
6.462729116269952390e-02,4.478373872279179453e-04
8.346688112739811261e-02,4.478373872279179453e-04
1.077984257083660635e-01,4.478373872279179453e-04
1.392228921009446008e-01,4.478373872279179453e-04
1.798079476354262352e-01,4.478373872279179453e-04
2.322240081711735571e-01,4.478373872279179453e-04
2.999199461440281711e-01,4.478373872279179453e-04
3.873500195067373086e-01,4.478373872279179453e-04
5.002669530349181937e-01,4.478373872279179453e-04
6.461004561650423028e-01,4.478373872279179453e-04
8.344460830846414101e-01,4.478373872279179453e-04
1.077696601095472939e+00,4.478373872279179453e-04
1.391857410031039022e+00,4.478373872279179453e-04
1.797599665702842797e+00,4.478373872279179453e-04
2.321620400801625017e+00,4.478373872279179453e-04
2.998399136501226359e+00,4.478373872279179453e-04
3.872466566311632441e+00,4.478373872279179453e-04
5.001334587062326698e+00,4.478373872279179453e-04
6.459280467221720556e+00,4.478373872279179453e-04
8.342234143294701809e+00,4.478373872279179453e-04
1.077409021867188166e+01,4.478373872279179453e-04
1.391485998188919204e+01,4.478373872279179453e-04
1.797119983087065620e+01,4.478373872279179453e-04
2.321000885251001122e+01,4.478373872279179453e-04
2.997599025125830607e+01,4.478373872279179453e-04
3.871433213375783566e+01,4.478373872279179453e-04
4.999999999999999289e+01,4.478373872279179453e-04
2.999999999999999542e-02,6.453749006633125850e-04
3.874534099716626934e-02,6.453749006633125850e-04
5.004004829955644579e-02,6.453749006633125850e-04
6.462729116269952390e-02,6.453749006633125850e-04
8.346688112739811261e-02,6.453749006633125850e-04
1.077984257083660635e-01,6.453749006633125850e-04
1.392228921009446008e-01,6.453749006633125850e-04
1.798079476354262352e-01,6.453749006633125850e-04
2.322240081711735571e-01,6.453749006633125850e-04
2.999199461440281711e-01,6.453749006633125850e-04
3.873500195067373086e-01,6.453749006633125850e-04
5.002669530349181937e-01,6.453749006633125850e-04
6.461004561650423028e-01,6.453749006633125850e-04
8.344460830846414101e-01,6.453749006633125850e-04
1.077696601095472939e+00,6.453749006633125850e-04
1.391857410031039022e+00,6.453749006633125850e-04
1.797599665702842797e+00,6.453749006633125850e-04
2.321620400801625017e+00,6.453749006633125850e-04
2.998399136501226359e+00,6.453749006633125850e-04
3.872466566311632441e+00,6.453749006633125850e-04
5.001334587062326698e+00,6.453749006633125850e-04
6.459280467221720556e+00,6.453749006633125850e-04
8.342234143294701809e+00,6.453749006633125850e-04
1.077409021867188166e+01,6.453749006633125850e-04
1.391485998188919204e+01,6.453749006633125850e-04
1.797119983087065620e+01,6.453749006633125850e-04
2.321000885251001122e+01,6.453749006633125850e-04
2.997599025125830607e+01,6.453749006633125850e-04
3.871433213375783566e+01,6.453749006633125850e-04
4.999999999999999289e+01,6.453749006633125850e-04
2.999999999999999542e-02,9.300446418382820549e-04
3.874534099716626934e-02,9.300446418382820549e-04
5.004004829955644579e-02,9.300446418382820549e-04
6.462729116269952390e-02,9.300446418382820549e-04
8.346688112739811261e-02,9.300446418382820549e-04
1.077984257083660635e-01,9.300446418382820549e-04
1.392228921009446008e-01,9.300446418382820549e-04
1.798079476354262352e-01,9.300446418382820549e-04
2.322240081711735571e-01,9.300446418382820549e-04
2.999199461440281711e-01,9.300446418382820549e-04
3.873500195067373086e-01,9.300446418382820549e-04
5.002669530349181937e-01,9.300446418382820549e-04
6.461004561650423028e-01,9.300446418382820549e-04
8.344460830846414101e-01,9.300446418382820549e-04
1.077696601095472939e+00,9.300446418382820549e-04
1.391857410031039022e+00,9.300446418382820549e-04
1.797599665702842797e+00,9.300446418382820549e-04
2.321620400801625017e+00,9.300446418382820549e-04
2.998399136501226359e+00,9.300446418382820549e-04
3.872466566311632441e+00,9.300446418382820549e-04
5.001334587062326698e+00,9.300446418382820549e-04
6.459280467221720556e+00,9.300446418382820549e-04
8.342234143294701809e+00,9.300446418382820549e-04
1.077409021867188166e+01,9.300446418382820549e-04
1.391485998188919204e+01,9.300446418382820549e-04
1.797119983087065620e+01,9.300446418382820549e-04
2.321000885251001122e+01,9.300446418382820549e-04
2.997599025125830607e+01,9.300446418382820549e-04
3.871433213375783566e+01,9.300446418382820549e-04
4.999999999999999289e+01,9.300446418382820549e-04
2.999999999999999542e-02,1.340279944142655760e-03
3.874534099716626934e-02,1.340279944142655760e-03
5.004004829955644579e-02,1.340279944142655760e-03
6.462729116269952390e-02,1.340279944142655760e-03
8.346688112739811261e-02,1.340279944142655760e-03
1.077984257083660635e-01,1.340279944142655760e-03
1.392228921009446008e-01,1.340279944142655760e-03
1.798079476354262352e-01,1.340279944142655760e-03
2.322240081711735571e-01,1.340279944142655760e-03
2.999199461440281711e-01,1.340279944142655760e-03
3.873500195067373086e-01,1.340279944142655760e-03
5.002669530349181937e-01,1.340279944142655760e-03
6.461004561650423028e-01,1.340279944142655760e-03
8.344460830846414101e-01,1.340279944142655760e-03
1.077696601095472939e+00,1.340279944142655760e-03
1.391857410031039022e+00,1.340279944142655760e-03
1.797599665702842797e+00,1.340279944142655760e-03
2.321620400801625017e+00,1.340279944142655760e-03
2.998399136501226359e+00,1.340279944142655760e-03
3.872466566311632441e+00,1.340279944142655760e-03
5.001334587062326698e+00,1.340279944142655760e-03
6.459280467221720556e+00,1.340279944142655760e-03
8.342234143294701809e+00,1.340279944142655760e-03
1.077409021867188166e+01,1.340279944142655760e-03
1.391485998188919204e+01,1.340279944142655760e-03
1.797119983087065620e+01,1.340279944142655760e-03
2.321000885251001122e+01,1.340279944142655760e-03
2.997599025125830607e+01,1.340279944142655760e-03
3.871433213375783566e+01,1.340279944142655760e-03
4.999999999999999289e+01,1.340279944142655760e-03
2.999999999999999542e-02,1.931466778971451968e-03
3.874534099716626934e-02,1.931466778971451968e-03
5.004004829955644579e-02,1.931466778971451968e-03
6.462729116269952390e-02,1.931466778971451968e-03
8.346688112739811261e-02,1.931466778971451968e-03
1.077984257083660635e-01,1.931466778971451968e-03
1.392228921009446008e-01,1.931466778971451968e-03
1.798079476354262352e-01,1.931466778971451968e-03
2.322240081711735571e-01,1.931466778971451968e-03
2.999199461440281711e-01,1.931466778971451968e-03
3.873500195067373086e-01,1.931466778971451968e-03
5.002669530349181937e-01,1.931466778971451968e-03
6.461004561650423028e-01,1.931466778971451968e-03
8.344460830846414101e-01,1.931466778971451968e-03
1.077696601095472939e+00,1.931466778971451968e-03
1.391857410031039022e+00,1.931466778971451968e-03
1.797599665702842797e+00,1.931466778971451968e-03
2.321620400801625017e+00,1.931466778971451968e-03
2.998399136501226359e+00,1.931466778971451968e-03
3.872466566311632441e+00,1.931466778971451968e-03
5.001334587062326698e+00,1.931466778971451968e-03
6.459280467221720556e+00,1.931466778971451968e-03
8.342234143294701809e+00,1.931466778971451968e-03
1.077409021867188166e+01,1.931466778971451968e-03
1.391485998188919204e+01,1.931466778971451968e-03
1.797119983087065620e+01,1.931466778971451968e-03
2.321000885251001122e+01,1.931466778971451968e-03
2.997599025125830607e+01,1.931466778971451968e-03
3.871433213375783566e+01,1.931466778971451968e-03
4.999999999999999289e+01,1.931466778971451968e-03
2.999999999999999542e-02,2.783421429660131157e-03
3.874534099716626934e-02,2.783421429660131157e-03
5.004004829955644579e-02,2.783421429660131157e-03
6.462729116269952390e-02,2.783421429660131157e-03
8.346688112739811261e-02,2.783421429660131157e-03
1.077984257083660635e-01,2.783421429660131157e-03
1.392228921009446008e-01,2.783421429660131157e-03
1.798079476354262352e-01,2.783421429660131157e-03
2.322240081711735571e-01,2.783421429660131157e-03
2.999199461440281711e-01,2.783421429660131157e-03
3.873500195067373086e-01,2.783421429660131157e-03
5.002669530349181937e-01,2.783421429660131157e-03
6.461004561650423028e-01,2.783421429660131157e-03
8.344460830846414101e-01,2.783421429660131157e-03
1.077696601095472939e+00,2.783421429660131157e-03
1.391857410031039022e+00,2.783421429660131157e-03
1.797599665702842797e+00,2.783421429660131157e-03
2.321620400801625017e+00,2.783421429660131157e-03
2.998399136501226359e+00,2.783421429660131157e-03
3.872466566311632441e+00,2.783421429660131157e-03
5.001334587062326698e+00,2.783421429660131157e-03
6.459280467221720556e+00,2.783421429660131157e-03
8.342234143294701809e+00,2.783421429660131157e-03
1.077409021867188166e+01,2.783421429660131157e-03
1.391485998188919204e+01,2.783421429660131157e-03
1.797119983087065620e+01,2.783421429660131157e-03
2.321000885251001122e+01,2.783421429660131157e-03
2.997599025125830607e+01,2.783421429660131157e-03
3.871433213375783566e+01,2.783421429660131157e-03
4.999999999999999289e+01,2.783421429660131157e-03
2.999999999999999542e-02,4.011166507982563169e-03
3.874534099716626934e-02,4.011166507982563169e-03
5.004004829955644579e-02,4.011166507982563169e-03
6.462729116269952390e-02,4.011166507982563169e-03
8.346688112739811261e-02,4.011166507982563169e-03
1.077984257083660635e-01,4.011166507982563169e-03
1.392228921009446008e-01,4.011166507982563169e-03
1.798079476354262352e-01,4.011166507982563169e-03
2.322240081711735571e-01,4.011166507982563169e-03
2.999199461440281711e-01,4.011166507982563169e-03
3.873500195067373086e-01,4.011166507982563169e-03
5.002669530349181937e-01,4.011166507982563169e-03
6.461004561650423028e-01,4.011166507982563169e-03
8.344460830846414101e-01,4.011166507982563169e-03
1.077696601095472939e+00,4.011166507982563169e-03
1.391857410031039022e+00,4.011166507982563169e-03
1.797599665702842797e+00,4.011166507982563169e-03
2.321620400801625017e+00,4.011166507982563169e-03
2.998399136501226359e+00,4.011166507982563169e-03
3.872466566311632441e+00,4.011166507982563169e-03
5.001334587062326698e+00,4.011166507982563169e-03
6.459280467221720556e+00,4.011166507982563169e-03
8.342234143294701809e+00,4.011166507982563169e-03
1.077409021867188166e+01,4.011166507982563169e-03
1.391485998188919204e+01,4.011166507982563169e-03
1.797119983087065620e+01,4.011166507982563169e-03
2.321000885251001122e+01,4.011166507982563169e-03
2.997599025125830607e+01,4.011166507982563169e-03
3.871433213375783566e+01,4.011166507982563169e-03
4.999999999999999289e+01,4.011166507982563169e-03
2.999999999999999542e-02,5.780460185910700315e-03
3.874534099716626934e-02,5.780460185910700315e-03
5.004004829955644579e-02,5.780460185910700315e-03
6.462729116269952390e-02,5.780460185910700315e-03
8.346688112739811261e-02,5.780460185910700315e-03
1.077984257083660635e-01,5.780460185910700315e-03
1.392228921009446008e-01,5.780460185910700315e-03
1.798079476354262352e-01,5.780460185910700315e-03
2.322240081711735571e-01,5.780460185910700315e-03
2.999199461440281711e-01,5.780460185910700315e-03
3.873500195067373086e-01,5.780460185910700315e-03
5.002669530349181937e-01,5.780460185910700315e-03
6.461004561650423028e-01,5.780460185910700315e-03
8.344460830846414101e-01,5.780460185910700315e-03
1.077696601095472939e+00,5.780460185910700315e-03
1.391857410031039022e+00,5.780460185910700315e-03
1.797599665702842797e+00,5.780460185910700315e-03
2.321620400801625017e+00,5.780460185910700315e-03
2.998399136501226359e+00,5.780460185910700315e-03
3.872466566311632441e+00,5.780460185910700315e-03
5.001334587062326698e+00,5.780460185910700315e-03
6.459280467221720556e+00,5.780460185910700315e-03
8.342234143294701809e+00,5.780460185910700315e-03
1.077409021867188166e+01,5.780460185910700315e-03
1.391485998188919204e+01,5.780460185910700315e-03
1.797119983087065620e+01,5.780460185910700315e-03
2.321000885251001122e+01,5.780460185910700315e-03
2.997599025125830607e+01,5.780460185910700315e-03
3.871433213375783566e+01,5.780460185910700315e-03
4.999999999999999289e+01,5.780460185910700315e-03
2.999999999999999542e-02,8.330175248123621035e-03
3.874534099716626934e-02,8.330175248123621035e-03
5.004004829955644579e-02,8.330175248123621035e-03
6.462729116269952390e-02,8.330175248123621035e-03
8.346688112739811261e-02,8.330175248123621035e-03
1.077984257083660635e-01,8.330175248123621035e-03
1.392228921009446008e-01,8.330175248123621035e-03
1.798079476354262352e-01,8.330175248123621035e-03
2.322240081711735571e-01,8.330175248123621035e-03
2.999199461440281711e-01,8.330175248123621035e-03
3.873500195067373086e-01,8.330175248123621035e-03
5.002669530349181937e-01,8.330175248123621035e-03
6.461004561650423028e-01,8.330175248123621035e-03
8.344460830846414101e-01,8.330175248123621035e-03
1.077696601095472939e+00,8.330175248123621035e-03
1.391857410031039022e+00,8.330175248123621035e-03
1.797599665702842797e+00,8.330175248123621035e-03
2.321620400801625017e+00,8.330175248123621035e-03
2.998399136501226359e+00,8.330175248123621035e-03
3.872466566311632441e+00,8.330175248123621035e-03
5.001334587062326698e+00,8.330175248123621035e-03
6.459280467221720556e+00,8.330175248123621035e-03
8.342234143294701809e+00,8.330175248123621035e-03
1.077409021867188166e+01,8.330175248123621035e-03
1.391485998188919204e+01,8.330175248123621035e-03
1.797119983087065620e+01,8.330175248123621035e-03
2.321000885251001122e+01,8.330175248123621035e-03
2.997599025125830607e+01,8.330175248123621035e-03
3.871433213375783566e+01,8.330175248123621035e-03
4.999999999999999289e+01,8.330175248123621035e-03
2.999999999999999542e-02,1.200454936677654988e-02
3.874534099716626934e-02,1.200454936677654988e-02
5.004004829955644579e-02,1.200454936677654988e-02
6.462729116269952390e-02,1.200454936677654988e-02
8.346688112739811261e-02,1.200454936677654988e-02
1.077984257083660635e-01,1.200454936677654988e-02
1.392228921009446008e-01,1.200454936677654988e-02
1.798079476354262352e-01,1.200454936677654988e-02
2.322240081711735571e-01,1.200454936677654988e-02
2.999199461440281711e-01,1.200454936677654988e-02
3.873500195067373086e-01,1.200454936677654988e-02
5.002669530349181937e-01,1.200454936677654988e-02
6.461004561650423028e-01,1.200454936677654988e-02
8.344460830846414101e-01,1.200454936677654988e-02
1.077696601095472939e+00,1.200454936677654988e-02
1.391857410031039022e+00,1.200454936677654988e-02
1.797599665702842797e+00,1.200454936677654988e-02
2.321620400801625017e+00,1.200454936677654988e-02
2.998399136501226359e+00,1.200454936677654988e-02
3.872466566311632441e+00,1.200454936677654988e-02
5.001334587062326698e+00,1.200454936677654988e-02
6.459280467221720556e+00,1.200454936677654988e-02
8.342234143294701809e+00,1.200454936677654988e-02
1.077409021867188166e+01,1.200454936677654988e-02
1.391485998188919204e+01,1.200454936677654988e-02
1.797119983087065620e+01,1.200454936677654988e-02
2.321000885251001122e+01,1.200454936677654988e-02
2.997599025125830607e+01,1.200454936677654988e-02
3.871433213375783566e+01,1.200454936677654988e-02
4.999999999999999289e+01,1.200454936677654988e-02
2.999999999999999542e-02,1.729966071624195259e-02
3.874534099716626934e-02,1.729966071624195259e-02
5.004004829955644579e-02,1.729966071624195259e-02
6.462729116269952390e-02,1.729966071624195259e-02
8.346688112739811261e-02,1.729966071624195259e-02
1.077984257083660635e-01,1.729966071624195259e-02
1.392228921009446008e-01,1.729966071624195259e-02
1.798079476354262352e-01,1.729966071624195259e-02
2.322240081711735571e-01,1.729966071624195259e-02
2.999199461440281711e-01,1.729966071624195259e-02
3.873500195067373086e-01,1.729966071624195259e-02
5.002669530349181937e-01,1.729966071624195259e-02
6.461004561650423028e-01,1.729966071624195259e-02
8.344460830846414101e-01,1.729966071624195259e-02
1.077696601095472939e+00,1.729966071624195259e-02
1.391857410031039022e+00,1.729966071624195259e-02
1.797599665702842797e+00,1.729966071624195259e-02
2.321620400801625017e+00,1.729966071624195259e-02
2.998399136501226359e+00,1.729966071624195259e-02
3.872466566311632441e+00,1.729966071624195259e-02
5.001334587062326698e+00,1.729966071624195259e-02
6.459280467221720556e+00,1.729966071624195259e-02
8.342234143294701809e+00,1.729966071624195259e-02
1.077409021867188166e+01,1.729966071624195259e-02
1.391485998188919204e+01,1.729966071624195259e-02
1.797119983087065620e+01,1.729966071624195259e-02
2.321000885251001122e+01,1.729966071624195259e-02
2.997599025125830607e+01,1.729966071624195259e-02
3.871433213375783566e+01,1.729966071624195259e-02
4.999999999999999289e+01,1.729966071624195259e-02
2.999999999999999542e-02,2.493040361226378510e-02
3.874534099716626934e-02,2.493040361226378510e-02
5.004004829955644579e-02,2.493040361226378510e-02
6.462729116269952390e-02,2.493040361226378510e-02
8.346688112739811261e-02,2.493040361226378510e-02
1.077984257083660635e-01,2.493040361226378510e-02
1.392228921009446008e-01,2.493040361226378510e-02
1.798079476354262352e-01,2.493040361226378510e-02
2.322240081711735571e-01,2.493040361226378510e-02
2.999199461440281711e-01,2.493040361226378510e-02
3.873500195067373086e-01,2.493040361226378510e-02
5.002669530349181937e-01,2.493040361226378510e-02
6.461004561650423028e-01,2.493040361226378510e-02
8.344460830846414101e-01,2.493040361226378510e-02
1.077696601095472939e+00,2.493040361226378510e-02
1.391857410031039022e+00,2.493040361226378510e-02
1.797599665702842797e+00,2.493040361226378510e-02
2.321620400801625017e+00,2.493040361226378510e-02
2.998399136501226359e+00,2.493040361226378510e-02
3.872466566311632441e+00,2.493040361226378510e-02
5.001334587062326698e+00,2.493040361226378510e-02
6.459280467221720556e+00,2.493040361226378510e-02
8.342234143294701809e+00,2.493040361226378510e-02
1.077409021867188166e+01,2.493040361226378510e-02
1.391485998188919204e+01,2.493040361226378510e-02
1.797119983087065620e+01,2.493040361226378510e-02
2.321000885251001122e+01,2.493040361226378510e-02
2.997599025125830607e+01,2.493040361226378510e-02
3.871433213375783566e+01,2.493040361226378510e-02
4.999999999999999289e+01,2.493040361226378510e-02
2.999999999999999542e-02,3.592700657342085685e-02
3.874534099716626934e-02,3.592700657342085685e-02
5.004004829955644579e-02,3.592700657342085685e-02
6.462729116269952390e-02,3.592700657342085685e-02
8.346688112739811261e-02,3.592700657342085685e-02
1.077984257083660635e-01,3.592700657342085685e-02
1.392228921009446008e-01,3.592700657342085685e-02
1.798079476354262352e-01,3.592700657342085685e-02
2.322240081711735571e-01,3.592700657342085685e-02
2.999199461440281711e-01,3.592700657342085685e-02
3.873500195067373086e-01,3.592700657342085685e-02
5.002669530349181937e-01,3.592700657342085685e-02
6.461004561650423028e-01,3.592700657342085685e-02
8.344460830846414101e-01,3.592700657342085685e-02
1.077696601095472939e+00,3.592700657342085685e-02
1.391857410031039022e+00,3.592700657342085685e-02
1.797599665702842797e+00,3.592700657342085685e-02
2.321620400801625017e+00,3.592700657342085685e-02
2.998399136501226359e+00,3.592700657342085685e-02
3.872466566311632441e+00,3.592700657342085685e-02
5.001334587062326698e+00,3.592700657342085685e-02
6.459280467221720556e+00,3.592700657342085685e-02
8.342234143294701809e+00,3.592700657342085685e-02
1.077409021867188166e+01,3.592700657342085685e-02
1.391485998188919204e+01,3.592700657342085685e-02
1.797119983087065620e+01,3.592700657342085685e-02
2.321000885251001122e+01,3.592700657342085685e-02
2.997599025125830607e+01,3.592700657342085685e-02
3.871433213375783566e+01,3.592700657342085685e-02
4.999999999999999289e+01,3.592700657342085685e-02
2.999999999999999542e-02,5.177412373266512130e-02
3.874534099716626934e-02,5.177412373266512130e-02
5.004004829955644579e-02,5.177412373266512130e-02
6.462729116269952390e-02,5.177412373266512130e-02
8.346688112739811261e-02,5.177412373266512130e-02
1.077984257083660635e-01,5.177412373266512130e-02
1.392228921009446008e-01,5.177412373266512130e-02
1.798079476354262352e-01,5.177412373266512130e-02
2.322240081711735571e-01,5.177412373266512130e-02
2.999199461440281711e-01,5.177412373266512130e-02
3.873500195067373086e-01,5.177412373266512130e-02
5.002669530349181937e-01,5.177412373266512130e-02
6.461004561650423028e-01,5.177412373266512130e-02
8.344460830846414101e-01,5.177412373266512130e-02
1.077696601095472939e+00,5.177412373266512130e-02
1.391857410031039022e+00,5.177412373266512130e-02
1.797599665702842797e+00,5.177412373266512130e-02
2.321620400801625017e+00,5.177412373266512130e-02
2.998399136501226359e+00,5.177412373266512130e-02
3.872466566311632441e+00,5.177412373266512130e-02
5.001334587062326698e+00,5.177412373266512130e-02
6.459280467221720556e+00,5.177412373266512130e-02
8.342234143294701809e+00,5.177412373266512130e-02
1.077409021867188166e+01,5.177412373266512130e-02
1.391485998188919204e+01,5.177412373266512130e-02
1.797119983087065620e+01,5.177412373266512130e-02
2.321000885251001122e+01,5.177412373266512130e-02
2.997599025125830607e+01,5.177412373266512130e-02
3.871433213375783566e+01,5.177412373266512130e-02
4.999999999999999289e+01,5.177412373266512130e-02
2.999999999999999542e-02,7.461127836540712432e-02
3.874534099716626934e-02,7.461127836540712432e-02
5.004004829955644579e-02,7.461127836540712432e-02
6.462729116269952390e-02,7.461127836540712432e-02
8.346688112739811261e-02,7.461127836540712432e-02
1.077984257083660635e-01,7.461127836540712432e-02
1.392228921009446008e-01,7.461127836540712432e-02
1.798079476354262352e-01,7.461127836540712432e-02
2.322240081711735571e-01,7.461127836540712432e-02
2.999199461440281711e-01,7.461127836540712432e-02
3.873500195067373086e-01,7.461127836540712432e-02
5.002669530349181937e-01,7.461127836540712432e-02
6.461004561650423028e-01,7.461127836540712432e-02
8.344460830846414101e-01,7.461127836540712432e-02
1.077696601095472939e+00,7.461127836540712432e-02
1.391857410031039022e+00,7.461127836540712432e-02
1.797599665702842797e+00,7.461127836540712432e-02
2.321620400801625017e+00,7.461127836540712432e-02
2.998399136501226359e+00,7.461127836540712432e-02
3.872466566311632441e+00,7.461127836540712432e-02
5.001334587062326698e+00,7.461127836540712432e-02
6.459280467221720556e+00,7.461127836540712432e-02
8.342234143294701809e+00,7.461127836540712432e-02
1.077409021867188166e+01,7.461127836540712432e-02
1.391485998188919204e+01,7.461127836540712432e-02
1.797119983087065620e+01,7.461127836540712432e-02
2.321000885251001122e+01,7.461127836540712432e-02
2.997599025125830607e+01,7.461127836540712432e-02
3.871433213375783566e+01,7.461127836540712432e-02
4.999999999999999289e+01,7.461127836540712432e-02
2.999999999999999542e-02,1.075217204653153569e-01
3.874534099716626934e-02,1.075217204653153569e-01
5.004004829955644579e-02,1.075217204653153569e-01
6.462729116269952390e-02,1.075217204653153569e-01
8.346688112739811261e-02,1.075217204653153569e-01
1.077984257083660635e-01,1.075217204653153569e-01
1.392228921009446008e-01,1.075217204653153569e-01
1.798079476354262352e-01,1.075217204653153569e-01
2.322240081711735571e-01,1.075217204653153569e-01
2.999199461440281711e-01,1.075217204653153569e-01
3.873500195067373086e-01,1.075217204653153569e-01
5.002669530349181937e-01,1.075217204653153569e-01
6.461004561650423028e-01,1.075217204653153569e-01
8.344460830846414101e-01,1.075217204653153569e-01
1.077696601095472939e+00,1.075217204653153569e-01
1.391857410031039022e+00,1.075217204653153569e-01
1.797599665702842797e+00,1.075217204653153569e-01
2.321620400801625017e+00,1.075217204653153569e-01
2.998399136501226359e+00,1.075217204653153569e-01
3.872466566311632441e+00,1.075217204653153569e-01
5.001334587062326698e+00,1.075217204653153569e-01
6.459280467221720556e+00,1.075217204653153569e-01
8.342234143294701809e+00,1.075217204653153569e-01
1.077409021867188166e+01,1.075217204653153569e-01
1.391485998188919204e+01,1.075217204653153569e-01
1.797119983087065620e+01,1.075217204653153569e-01
2.321000885251001122e+01,1.075217204653153569e-01
2.997599025125830607e+01,1.075217204653153569e-01
3.871433213375783566e+01,1.075217204653153569e-01
4.999999999999999289e+01,1.075217204653153569e-01
2.999999999999999542e-02,1.549486971018249615e-01
3.874534099716626934e-02,1.549486971018249615e-01
5.004004829955644579e-02,1.549486971018249615e-01
6.462729116269952390e-02,1.549486971018249615e-01
8.346688112739811261e-02,1.549486971018249615e-01
1.077984257083660635e-01,1.549486971018249615e-01
1.392228921009446008e-01,1.549486971018249615e-01
1.798079476354262352e-01,1.549486971018249615e-01
2.322240081711735571e-01,1.549486971018249615e-01
2.999199461440281711e-01,1.549486971018249615e-01
3.873500195067373086e-01,1.549486971018249615e-01
5.002669530349181937e-01,1.549486971018249615e-01
6.461004561650423028e-01,1.549486971018249615e-01
8.344460830846414101e-01,1.549486971018249615e-01
1.077696601095472939e+00,1.549486971018249615e-01
1.391857410031039022e+00,1.549486971018249615e-01
1.797599665702842797e+00,1.549486971018249615e-01
2.321620400801625017e+00,1.549486971018249615e-01
2.998399136501226359e+00,1.549486971018249615e-01
3.872466566311632441e+00,1.549486971018249615e-01
5.001334587062326698e+00,1.549486971018249615e-01
6.459280467221720556e+00,1.549486971018249615e-01
8.342234143294701809e+00,1.549486971018249615e-01
1.077409021867188166e+01,1.549486971018249615e-01
1.391485998188919204e+01,1.549486971018249615e-01
1.797119983087065620e+01,1.549486971018249615e-01
2.321000885251001122e+01,1.549486971018249615e-01
2.997599025125830607e+01,1.549486971018249615e-01
3.871433213375783566e+01,1.549486971018249615e-01
4.999999999999999289e+01,1.549486971018249615e-01
2.999999999999999542e-02,2.232953363250732570e-01
3.874534099716626934e-02,2.232953363250732570e-01
5.004004829955644579e-02,2.232953363250732570e-01
6.462729116269952390e-02,2.232953363250732570e-01
8.346688112739811261e-02,2.232953363250732570e-01
1.077984257083660635e-01,2.232953363250732570e-01
1.392228921009446008e-01,2.232953363250732570e-01
1.798079476354262352e-01,2.232953363250732570e-01
2.322240081711735571e-01,2.232953363250732570e-01
2.999199461440281711e-01,2.232953363250732570e-01
3.873500195067373086e-01,2.232953363250732570e-01
5.002669530349181937e-01,2.232953363250732570e-01
6.461004561650423028e-01,2.232953363250732570e-01
8.344460830846414101e-01,2.232953363250732570e-01
1.077696601095472939e+00,2.232953363250732570e-01
1.391857410031039022e+00,2.232953363250732570e-01
1.797599665702842797e+00,2.232953363250732570e-01
2.321620400801625017e+00,2.232953363250732570e-01
2.998399136501226359e+00,2.232953363250732570e-01
3.872466566311632441e+00,2.232953363250732570e-01
5.001334587062326698e+00,2.232953363250732570e-01
6.459280467221720556e+00,2.232953363250732570e-01
8.342234143294701809e+00,2.232953363250732570e-01
1.077409021867188166e+01,2.232953363250732570e-01
1.391485998188919204e+01,2.232953363250732570e-01
1.797119983087065620e+01,2.232953363250732570e-01
2.321000885251001122e+01,2.232953363250732570e-01
2.997599025125830607e+01,2.232953363250732570e-01
3.871433213375783566e+01,2.232953363250732570e-01
4.999999999999999289e+01,2.232953363250732570e-01
2.999999999999999542e-02,3.217891350952206131e-01
3.874534099716626934e-02,3.217891350952206131e-01
5.004004829955644579e-02,3.217891350952206131e-01
6.462729116269952390e-02,3.217891350952206131e-01
8.346688112739811261e-02,3.217891350952206131e-01
1.077984257083660635e-01,3.217891350952206131e-01
1.392228921009446008e-01,3.217891350952206131e-01
1.798079476354262352e-01,3.217891350952206131e-01
2.322240081711735571e-01,3.217891350952206131e-01
2.999199461440281711e-01,3.217891350952206131e-01
3.873500195067373086e-01,3.217891350952206131e-01
5.002669530349181937e-01,3.217891350952206131e-01
6.461004561650423028e-01,3.217891350952206131e-01
8.344460830846414101e-01,3.217891350952206131e-01
1.077696601095472939e+00,3.217891350952206131e-01
1.391857410031039022e+00,3.217891350952206131e-01
1.797599665702842797e+00,3.217891350952206131e-01
2.321620400801625017e+00,3.217891350952206131e-01
2.998399136501226359e+00,3.217891350952206131e-01
3.872466566311632441e+00,3.217891350952206131e-01
5.001334587062326698e+00,3.217891350952206131e-01
6.459280467221720556e+00,3.217891350952206131e-01
8.342234143294701809e+00,3.217891350952206131e-01
1.077409021867188166e+01,3.217891350952206131e-01
1.391485998188919204e+01,3.217891350952206131e-01
1.797119983087065620e+01,3.217891350952206131e-01
2.321000885251001122e+01,3.217891350952206131e-01
2.997599025125830607e+01,3.217891350952206131e-01
3.871433213375783566e+01,3.217891350952206131e-01
4.999999999999999289e+01,3.217891350952206131e-01
2.999999999999999542e-02,4.637277659690337561e-01
3.874534099716626934e-02,4.637277659690337561e-01
5.004004829955644579e-02,4.637277659690337561e-01
6.462729116269952390e-02,4.637277659690337561e-01
8.346688112739811261e-02,4.637277659690337561e-01
1.077984257083660635e-01,4.637277659690337561e-01
1.392228921009446008e-01,4.637277659690337561e-01
1.798079476354262352e-01,4.637277659690337561e-01
2.322240081711735571e-01,4.637277659690337561e-01
2.999199461440281711e-01,4.637277659690337561e-01
3.873500195067373086e-01,4.637277659690337561e-01
5.002669530349181937e-01,4.637277659690337561e-01
6.461004561650423028e-01,4.637277659690337561e-01
8.344460830846414101e-01,4.637277659690337561e-01
1.077696601095472939e+00,4.637277659690337561e-01
1.391857410031039022e+00,4.637277659690337561e-01
1.797599665702842797e+00,4.637277659690337561e-01
2.321620400801625017e+00,4.637277659690337561e-01
2.998399136501226359e+00,4.637277659690337561e-01
3.872466566311632441e+00,4.637277659690337561e-01
5.001334587062326698e+00,4.637277659690337561e-01
6.459280467221720556e+00,4.637277659690337561e-01
8.342234143294701809e+00,4.637277659690337561e-01
1.077409021867188166e+01,4.637277659690337561e-01
1.391485998188919204e+01,4.637277659690337561e-01
1.797119983087065620e+01,4.637277659690337561e-01
2.321000885251001122e+01,4.637277659690337561e-01
2.997599025125830607e+01,4.637277659690337561e-01
3.871433213375783566e+01,4.637277659690337561e-01
4.999999999999999289e+01,4.637277659690337561e-01
2.999999999999999542e-02,6.682743992179754899e-01
3.874534099716626934e-02,6.682743992179754899e-01
5.004004829955644579e-02,6.682743992179754899e-01
6.462729116269952390e-02,6.682743992179754899e-01
8.346688112739811261e-02,6.682743992179754899e-01
1.077984257083660635e-01,6.682743992179754899e-01
1.392228921009446008e-01,6.682743992179754899e-01
1.798079476354262352e-01,6.682743992179754899e-01
2.322240081711735571e-01,6.682743992179754899e-01
2.999199461440281711e-01,6.682743992179754899e-01
3.873500195067373086e-01,6.682743992179754899e-01
5.002669530349181937e-01,6.682743992179754899e-01
6.461004561650423028e-01,6.682743992179754899e-01
8.344460830846414101e-01,6.682743992179754899e-01
1.077696601095472939e+00,6.682743992179754899e-01
1.391857410031039022e+00,6.682743992179754899e-01
1.797599665702842797e+00,6.682743992179754899e-01
2.321620400801625017e+00,6.682743992179754899e-01
2.998399136501226359e+00,6.682743992179754899e-01
3.872466566311632441e+00,6.682743992179754899e-01
5.001334587062326698e+00,6.682743992179754899e-01
6.459280467221720556e+00,6.682743992179754899e-01
8.342234143294701809e+00,6.682743992179754899e-01
1.077409021867188166e+01,6.682743992179754899e-01
1.391485998188919204e+01,6.682743992179754899e-01
1.797119983087065620e+01,6.682743992179754899e-01
2.321000885251001122e+01,6.682743992179754899e-01
2.997599025125830607e+01,6.682743992179754899e-01
3.871433213375783566e+01,6.682743992179754899e-01
4.999999999999999289e+01,6.682743992179754899e-01
2.999999999999999542e-02,9.630449272687477968e-01
3.874534099716626934e-02,9.630449272687477968e-01
5.004004829955644579e-02,9.630449272687477968e-01
6.462729116269952390e-02,9.630449272687477968e-01
8.346688112739811261e-02,9.630449272687477968e-01
1.077984257083660635e-01,9.630449272687477968e-01
1.392228921009446008e-01,9.630449272687477968e-01
1.798079476354262352e-01,9.630449272687477968e-01
2.322240081711735571e-01,9.630449272687477968e-01
2.999199461440281711e-01,9.630449272687477968e-01
3.873500195067373086e-01,9.630449272687477968e-01
5.002669530349181937e-01,9.630449272687477968e-01
6.461004561650423028e-01,9.630449272687477968e-01
8.344460830846414101e-01,9.630449272687477968e-01
1.077696601095472939e+00,9.630449272687477968e-01
1.391857410031039022e+00,9.630449272687477968e-01
1.797599665702842797e+00,9.630449272687477968e-01
2.321620400801625017e+00,9.630449272687477968e-01
2.998399136501226359e+00,9.630449272687477968e-01
3.872466566311632441e+00,9.630449272687477968e-01
5.001334587062326698e+00,9.630449272687477968e-01
6.459280467221720556e+00,9.630449272687477968e-01
8.342234143294701809e+00,9.630449272687477968e-01
1.077409021867188166e+01,9.630449272687477968e-01
1.391485998188919204e+01,9.630449272687477968e-01
1.797119983087065620e+01,9.630449272687477968e-01
2.321000885251001122e+01,9.630449272687477968e-01
2.997599025125830607e+01,9.630449272687477968e-01
3.871433213375783566e+01,9.630449272687477968e-01
4.999999999999999289e+01,9.630449272687477968e-01
2.999999999999999542e-02,1.387836393289028747e+00
3.874534099716626934e-02,1.387836393289028747e+00
5.004004829955644579e-02,1.387836393289028747e+00
6.462729116269952390e-02,1.387836393289028747e+00
8.346688112739811261e-02,1.387836393289028747e+00
1.077984257083660635e-01,1.387836393289028747e+00
1.392228921009446008e-01,1.387836393289028747e+00
1.798079476354262352e-01,1.387836393289028747e+00
2.322240081711735571e-01,1.387836393289028747e+00
2.999199461440281711e-01,1.387836393289028747e+00
3.873500195067373086e-01,1.387836393289028747e+00
5.002669530349181937e-01,1.387836393289028747e+00
6.461004561650423028e-01,1.387836393289028747e+00
8.344460830846414101e-01,1.387836393289028747e+00
1.077696601095472939e+00,1.387836393289028747e+00
1.391857410031039022e+00,1.387836393289028747e+00
1.797599665702842797e+00,1.387836393289028747e+00
2.321620400801625017e+00,1.387836393289028747e+00
2.998399136501226359e+00,1.387836393289028747e+00
3.872466566311632441e+00,1.387836393289028747e+00
5.001334587062326698e+00,1.387836393289028747e+00
6.459280467221720556e+00,1.387836393289028747e+00
8.342234143294701809e+00,1.387836393289028747e+00
1.077409021867188166e+01,1.387836393289028747e+00
1.391485998188919204e+01,1.387836393289028747e+00
1.797119983087065620e+01,1.387836393289028747e+00
2.321000885251001122e+01,1.387836393289028747e+00
2.997599025125830607e+01,1.387836393289028747e+00
3.871433213375783566e+01,1.387836393289028747e+00
4.999999999999999289e+01,1.387836393289028747e+00
2.999999999999999542e-02,2.000000000000000000e+00
3.874534099716626934e-02,2.000000000000000000e+00
5.004004829955644579e-02,2.000000000000000000e+00
6.462729116269952390e-02,2.000000000000000000e+00
8.346688112739811261e-02,2.000000000000000000e+00
1.077984257083660635e-01,2.000000000000000000e+00
1.392228921009446008e-01,2.000000000000000000e+00
1.798079476354262352e-01,2.000000000000000000e+00
2.322240081711735571e-01,2.000000000000000000e+00
2.999199461440281711e-01,2.000000000000000000e+00
3.873500195067373086e-01,2.000000000000000000e+00
5.002669530349181937e-01,2.000000000000000000e+00
6.461004561650423028e-01,2.000000000000000000e+00
8.344460830846414101e-01,2.000000000000000000e+00
1.077696601095472939e+00,2.000000000000000000e+00
1.391857410031039022e+00,2.000000000000000000e+00
1.797599665702842797e+00,2.000000000000000000e+00
2.321620400801625017e+00,2.000000000000000000e+00
2.998399136501226359e+00,2.000000000000000000e+00
3.872466566311632441e+00,2.000000000000000000e+00
5.001334587062326698e+00,2.000000000000000000e+00
6.459280467221720556e+00,2.000000000000000000e+00
8.342234143294701809e+00,2.000000000000000000e+00
1.077409021867188166e+01,2.000000000000000000e+00
1.391485998188919204e+01,2.000000000000000000e+00
1.797119983087065620e+01,2.000000000000000000e+00
2.321000885251001122e+01,2.000000000000000000e+00
2.997599025125830607e+01,2.000000000000000000e+00
3.871433213375783566e+01,2.000000000000000000e+00
4.999999999999999289e+01,2.000000000000000000e+00
