# pNcenT, phiNcenT
1.000000000000000021e-03,4.999999999999999562e-05
1.343399332598900139e-03,4.999999999999999562e-05
1.804721766827170138e-03,4.999999999999999562e-05
2.424462017082328232e-03,4.999999999999999562e-05
3.257020655659782771e-03,4.999999999999999562e-05
4.375479375074184211e-03,4.999999999999999562e-05
5.878016072274911547e-03,4.999999999999999562e-05
7.896522868499724832e-03,4.999999999999999562e-05
1.060818355139448235e-02,4.999999999999999562e-05
1.425102670302997795e-02,4.999999999999999562e-05
1.914481976169957536e-02,4.999999999999999562e-05
2.571913809059344497e-02,4.999999999999999562e-05
3.455107294592218298e-02,4.999999999999999562e-05
4.641588833612777382e-02,4.999999999999999562e-05
6.235507341273912457e-02,4.999999999999999562e-05
8.376776400682915680e-02,4.999999999999999562e-05
1.125335582600764522e-01,4.999999999999999562e-05
1.511775070615661576e-01,4.999999999999999562e-05
2.030917620904734711e-01,4.999999999999999562e-05
2.728333376486766770e-01,4.999999999999999562e-05
3.665241237079626124e-01,4.999999999999999562e-05
4.923882631706736346e-01,4.999999999999999562e-05
6.614740641230145712e-01,4.999999999999999562e-05
8.886238162743398394e-01,4.999999999999999562e-05
1.193776641714435760e+00,4.999999999999999562e-05
1.603718743751329390e+00,4.999999999999999562e-05
2.154434690031882038e+00,4.999999999999999562e-05
2.894266124716748934e+00,4.999999999999999562e-05
3.888155180308085157e+00,4.999999999999999562e-05
5.223345074266838139e+00,4.999999999999999562e-05
7.017038286703822791e+00,4.999999999999999562e-05
9.426684551178844629e+00,4.999999999999999562e-05
1.266380173467402237e+01,4.999999999999999562e-05
1.701254279852585682e+01,4.999999999999999562e-05
2.285463864134988299e+01,4.999999999999999562e-05
3.070290629757849743e+01,4.999999999999999562e-05
4.124626382901347910e+01,4.999999999999999562e-05
5.541020330009480688e+01,4.999999999999999562e-05
7.443803013251681477e+01,4.999999999999999562e-05
1.000000000000000000e+02,4.999999999999999562e-05
1.000000000000000021e-03,6.445443781325926891e-05
1.343399332598900139e-03,6.445443781325926891e-05
1.804721766827170138e-03,6.445443781325926891e-05
2.424462017082328232e-03,6.445443781325926891e-05
3.257020655659782771e-03,6.445443781325926891e-05
4.375479375074184211e-03,6.445443781325926891e-05
5.878016072274911547e-03,6.445443781325926891e-05
7.896522868499724832e-03,6.445443781325926891e-05
1.060818355139448235e-02,6.445443781325926891e-05
1.425102670302997795e-02,6.445443781325926891e-05
1.914481976169957536e-02,6.445443781325926891e-05
2.571913809059344497e-02,6.445443781325926891e-05
3.455107294592218298e-02,6.445443781325926891e-05
4.641588833612777382e-02,6.445443781325926891e-05
6.235507341273912457e-02,6.445443781325926891e-05
8.376776400682915680e-02,6.445443781325926891e-05
1.125335582600764522e-01,6.445443781325926891e-05
1.511775070615661576e-01,6.445443781325926891e-05
2.030917620904734711e-01,6.445443781325926891e-05
2.728333376486766770e-01,6.445443781325926891e-05
3.665241237079626124e-01,6.445443781325926891e-05
4.923882631706736346e-01,6.445443781325926891e-05
6.614740641230145712e-01,6.445443781325926891e-05
8.886238162743398394e-01,6.445443781325926891e-05
1.193776641714435760e+00,6.445443781325926891e-05
1.603718743751329390e+00,6.445443781325926891e-05
2.154434690031882038e+00,6.445443781325926891e-05
2.894266124716748934e+00,6.445443781325926891e-05
3.888155180308085157e+00,6.445443781325926891e-05
5.223345074266838139e+00,6.445443781325926891e-05
7.017038286703822791e+00,6.445443781325926891e-05
9.426684551178844629e+00,6.445443781325926891e-05
1.266380173467402237e+01,6.445443781325926891e-05
1.701254279852585682e+01,6.445443781325926891e-05
2.285463864134988299e+01,6.445443781325926891e-05
3.070290629757849743e+01,6.445443781325926891e-05
4.124626382901347910e+01,6.445443781325926891e-05
5.541020330009480688e+01,6.445443781325926891e-05
7.443803013251681477e+01,6.445443781325926891e-05
1.000000000000000000e+02,6.445443781325926891e-05
1.000000000000000021e-03,8.308749107646615239e-05
1.343399332598900139e-03,8.308749107646615239e-05
1.804721766827170138e-03,8.308749107646615239e-05
2.424462017082328232e-03,8.308749107646615239e-05
3.257020655659782771e-03,8.308749107646615239e-05
4.375479375074184211e-03,8.308749107646615239e-05
5.878016072274911547e-03,8.308749107646615239e-05
7.896522868499724832e-03,8.308749107646615239e-05
1.060818355139448235e-02,8.308749107646615239e-05
1.425102670302997795e-02,8.308749107646615239e-05
1.914481976169957536e-02,8.308749107646615239e-05
2.571913809059344497e-02,8.308749107646615239e-05
3.455107294592218298e-02,8.308749107646615239e-05
4.641588833612777382e-02,8.308749107646615239e-05
6.235507341273912457e-02,8.308749107646615239e-05
8.376776400682915680e-02,8.308749107646615239e-05
1.125335582600764522e-01,8.308749107646615239e-05
1.511775070615661576e-01,8.308749107646615239e-05
2.030917620904734711e-01,8.308749107646615239e-05
2.728333376486766770e-01,8.308749107646615239e-05
3.665241237079626124e-01,8.308749107646615239e-05
4.923882631706736346e-01,8.308749107646615239e-05
6.614740641230145712e-01,8.308749107646615239e-05
8.886238162743398394e-01,8.308749107646615239e-05
1.193776641714435760e+00,8.308749107646615239e-05
1.603718743751329390e+00,8.308749107646615239e-05
2.154434690031882038e+00,8.308749107646615239e-05
2.894266124716748934e+00,8.308749107646615239e-05
3.888155180308085157e+00,8.308749107646615239e-05
5.223345074266838139e+00,8.308749107646615239e-05
7.017038286703822791e+00,8.308749107646615239e-05
9.426684551178844629e+00,8.308749107646615239e-05
1.266380173467402237e+01,8.308749107646615239e-05
1.701254279852585682e+01,8.308749107646615239e-05
2.285463864134988299e+01,8.308749107646615239e-05
3.070290629757849743e+01,8.308749107646615239e-05
4.124626382901347910e+01,8.308749107646615239e-05
5.541020330009480688e+01,8.308749107646615239e-05
7.443803013251681477e+01,8.308749107646615239e-05
1.000000000000000000e+02,8.308749107646615239e-05
1.000000000000000021e-03,1.071071505329564507e-04
1.343399332598900139e-03,1.071071505329564507e-04
1.804721766827170138e-03,1.071071505329564507e-04
2.424462017082328232e-03,1.071071505329564507e-04
3.257020655659782771e-03,1.071071505329564507e-04
4.375479375074184211e-03,1.071071505329564507e-04
5.878016072274911547e-03,1.071071505329564507e-04
7.896522868499724832e-03,1.071071505329564507e-04
1.060818355139448235e-02,1.071071505329564507e-04
1.425102670302997795e-02,1.071071505329564507e-04
1.914481976169957536e-02,1.071071505329564507e-04
2.571913809059344497e-02,1.071071505329564507e-04
3.455107294592218298e-02,1.071071505329564507e-04
4.641588833612777382e-02,1.071071505329564507e-04
6.235507341273912457e-02,1.071071505329564507e-04
8.376776400682915680e-02,1.071071505329564507e-04
1.125335582600764522e-01,1.071071505329564507e-04
1.511775070615661576e-01,1.071071505329564507e-04
2.030917620904734711e-01,1.071071505329564507e-04
2.728333376486766770e-01,1.071071505329564507e-04
3.665241237079626124e-01,1.071071505329564507e-04
4.923882631706736346e-01,1.071071505329564507e-04
6.614740641230145712e-01,1.071071505329564507e-04
8.886238162743398394e-01,1.071071505329564507e-04
1.193776641714435760e+00,1.071071505329564507e-04
1.603718743751329390e+00,1.071071505329564507e-04
2.154434690031882038e+00,1.071071505329564507e-04
2.894266124716748934e+00,1.071071505329564507e-04
3.888155180308085157e+00,1.071071505329564507e-04
5.223345074266838139e+00,1.071071505329564507e-04
7.017038286703822791e+00,1.071071505329564507e-04
9.426684551178844629e+00,1.071071505329564507e-04
1.266380173467402237e+01,1.071071505329564507e-04
1.701254279852585682e+01,1.071071505329564507e-04
2.285463864134988299e+01,1.071071505329564507e-04
3.070290629757849743e+01,1.071071505329564507e-04
4.124626382901347910e+01,1.071071505329564507e-04
5.541020330009480688e+01,1.071071505329564507e-04
7.443803013251681477e+01,1.071071505329564507e-04
1.000000000000000000e+02,1.071071505329564507e-04
1.000000000000000021e-03,1.380706234676367143e-04
1.343399332598900139e-03,1.380706234676367143e-04
1.804721766827170138e-03,1.380706234676367143e-04
2.424462017082328232e-03,1.380706234676367143e-04
3.257020655659782771e-03,1.380706234676367143e-04
4.375479375074184211e-03,1.380706234676367143e-04
5.878016072274911547e-03,1.380706234676367143e-04
7.896522868499724832e-03,1.380706234676367143e-04
1.060818355139448235e-02,1.380706234676367143e-04
1.425102670302997795e-02,1.380706234676367143e-04
1.914481976169957536e-02,1.380706234676367143e-04
2.571913809059344497e-02,1.380706234676367143e-04
3.455107294592218298e-02,1.380706234676367143e-04
4.641588833612777382e-02,1.380706234676367143e-04
6.235507341273912457e-02,1.380706234676367143e-04
8.376776400682915680e-02,1.380706234676367143e-04
1.125335582600764522e-01,1.380706234676367143e-04
1.511775070615661576e-01,1.380706234676367143e-04
2.030917620904734711e-01,1.380706234676367143e-04
2.728333376486766770e-01,1.380706234676367143e-04
3.665241237079626124e-01,1.380706234676367143e-04
4.923882631706736346e-01,1.380706234676367143e-04
6.614740641230145712e-01,1.380706234676367143e-04
8.886238162743398394e-01,1.380706234676367143e-04
1.193776641714435760e+00,1.380706234676367143e-04
1.603718743751329390e+00,1.380706234676367143e-04
2.154434690031882038e+00,1.380706234676367143e-04
2.894266124716748934e+00,1.380706234676367143e-04
3.888155180308085157e+00,1.380706234676367143e-04
5.223345074266838139e+00,1.380706234676367143e-04
7.017038286703822791e+00,1.380706234676367143e-04
9.426684551178844629e+00,1.380706234676367143e-04
1.266380173467402237e+01,1.380706234676367143e-04
1.701254279852585682e+01,1.380706234676367143e-04
2.285463864134988299e+01,1.380706234676367143e-04
3.070290629757849743e+01,1.380706234676367143e-04
4.124626382901347910e+01,1.380706234676367143e-04
5.541020330009480688e+01,1.380706234676367143e-04
7.443803013251681477e+01,1.380706234676367143e-04
1.000000000000000000e+02,1.380706234676367143e-04
1.000000000000000021e-03,1.779852882826545545e-04
1.343399332598900139e-03,1.779852882826545545e-04
1.804721766827170138e-03,1.779852882826545545e-04
2.424462017082328232e-03,1.779852882826545545e-04
3.257020655659782771e-03,1.779852882826545545e-04
4.375479375074184211e-03,1.779852882826545545e-04
5.878016072274911547e-03,1.779852882826545545e-04
7.896522868499724832e-03,1.779852882826545545e-04
1.060818355139448235e-02,1.779852882826545545e-04
1.425102670302997795e-02,1.779852882826545545e-04
1.914481976169957536e-02,1.779852882826545545e-04
2.571913809059344497e-02,1.779852882826545545e-04
3.455107294592218298e-02,1.779852882826545545e-04
4.641588833612777382e-02,1.779852882826545545e-04
6.235507341273912457e-02,1.779852882826545545e-04
8.376776400682915680e-02,1.779852882826545545e-04
1.125335582600764522e-01,1.779852882826545545e-04
1.511775070615661576e-01,1.779852882826545545e-04
2.030917620904734711e-01,1.779852882826545545e-04
2.728333376486766770e-01,1.779852882826545545e-04
3.665241237079626124e-01,1.779852882826545545e-04
4.923882631706736346e-01,1.779852882826545545e-04
6.614740641230145712e-01,1.779852882826545545e-04
8.886238162743398394e-01,1.779852882826545545e-04
1.193776641714435760e+00,1.779852882826545545e-04
1.603718743751329390e+00,1.779852882826545545e-04
2.154434690031882038e+00,1.779852882826545545e-04
2.894266124716748934e+00,1.779852882826545545e-04
3.888155180308085157e+00,1.779852882826545545e-04
5.223345074266838139e+00,1.779852882826545545e-04
7.017038286703822791e+00,1.779852882826545545e-04
9.426684551178844629e+00,1.779852882826545545e-04
1.266380173467402237e+01,1.779852882826545545e-04
1.701254279852585682e+01,1.779852882826545545e-04
2.285463864134988299e+01,1.779852882826545545e-04
3.070290629757849743e+01,1.779852882826545545e-04
4.124626382901347910e+01,1.779852882826545545e-04
5.541020330009480688e+01,1.779852882826545545e-04
7.443803013251681477e+01,1.779852882826545545e-04
1.000000000000000000e+02,1.779852882826545545e-04
1.000000000000000021e-03,2.294388339057876788e-04
1.343399332598900139e-03,2.294388339057876788e-04
1.804721766827170138e-03,2.294388339057876788e-04
2.424462017082328232e-03,2.294388339057876788e-04
3.257020655659782771e-03,2.294388339057876788e-04
4.375479375074184211e-03,2.294388339057876788e-04
5.878016072274911547e-03,2.294388339057876788e-04
7.896522868499724832e-03,2.294388339057876788e-04
1.060818355139448235e-02,2.294388339057876788e-04
1.425102670302997795e-02,2.294388339057876788e-04
1.914481976169957536e-02,2.294388339057876788e-04
2.571913809059344497e-02,2.294388339057876788e-04
3.455107294592218298e-02,2.294388339057876788e-04
4.641588833612777382e-02,2.294388339057876788e-04
6.235507341273912457e-02,2.294388339057876788e-04
8.376776400682915680e-02,2.294388339057876788e-04
1.125335582600764522e-01,2.294388339057876788e-04
1.511775070615661576e-01,2.294388339057876788e-04
2.030917620904734711e-01,2.294388339057876788e-04
2.728333376486766770e-01,2.294388339057876788e-04
3.665241237079626124e-01,2.294388339057876788e-04
4.923882631706736346e-01,2.294388339057876788e-04
6.614740641230145712e-01,2.294388339057876788e-04
8.886238162743398394e-01,2.294388339057876788e-04
1.193776641714435760e+00,2.294388339057876788e-04
1.603718743751329390e+00,2.294388339057876788e-04
2.154434690031882038e+00,2.294388339057876788e-04
2.894266124716748934e+00,2.294388339057876788e-04
3.888155180308085157e+00,2.294388339057876788e-04
5.223345074266838139e+00,2.294388339057876788e-04
7.017038286703822791e+00,2.294388339057876788e-04
9.426684551178844629e+00,2.294388339057876788e-04
1.266380173467402237e+01,2.294388339057876788e-04
1.701254279852585682e+01,2.294388339057876788e-04
2.285463864134988299e+01,2.294388339057876788e-04
3.070290629757849743e+01,2.294388339057876788e-04
4.124626382901347910e+01,2.294388339057876788e-04
5.541020330009480688e+01,2.294388339057876788e-04
7.443803013251681477e+01,2.294388339057876788e-04
1.000000000000000000e+02,2.294388339057876788e-04
1.000000000000000021e-03,2.957670210385463416e-04
1.343399332598900139e-03,2.957670210385463416e-04
1.804721766827170138e-03,2.957670210385463416e-04
2.424462017082328232e-03,2.957670210385463416e-04
3.257020655659782771e-03,2.957670210385463416e-04
4.375479375074184211e-03,2.957670210385463416e-04
5.878016072274911547e-03,2.957670210385463416e-04
7.896522868499724832e-03,2.957670210385463416e-04
1.060818355139448235e-02,2.957670210385463416e-04
1.425102670302997795e-02,2.957670210385463416e-04
1.914481976169957536e-02,2.957670210385463416e-04
2.571913809059344497e-02,2.957670210385463416e-04
3.455107294592218298e-02,2.957670210385463416e-04
4.641588833612777382e-02,2.957670210385463416e-04
6.235507341273912457e-02,2.957670210385463416e-04
8.376776400682915680e-02,2.957670210385463416e-04
1.125335582600764522e-01,2.957670210385463416e-04
1.511775070615661576e-01,2.957670210385463416e-04
2.030917620904734711e-01,2.957670210385463416e-04
2.728333376486766770e-01,2.957670210385463416e-04
3.665241237079626124e-01,2.957670210385463416e-04
4.923882631706736346e-01,2.957670210385463416e-04
6.614740641230145712e-01,2.957670210385463416e-04
8.886238162743398394e-01,2.957670210385463416e-04
1.193776641714435760e+00,2.957670210385463416e-04
1.603718743751329390e+00,2.957670210385463416e-04
2.154434690031882038e+00,2.957670210385463416e-04
2.894266124716748934e+00,2.957670210385463416e-04
3.888155180308085157e+00,2.957670210385463416e-04
5.223345074266838139e+00,2.957670210385463416e-04
7.017038286703822791e+00,2.957670210385463416e-04
9.426684551178844629e+00,2.957670210385463416e-04
1.266380173467402237e+01,2.957670210385463416e-04
1.701254279852585682e+01,2.957670210385463416e-04
2.285463864134988299e+01,2.957670210385463416e-04
3.070290629757849743e+01,2.957670210385463416e-04
4.124626382901347910e+01,2.957670210385463416e-04
5.541020330009480688e+01,2.957670210385463416e-04
7.443803013251681477e+01,2.957670210385463416e-04
1.000000000000000000e+02,2.957670210385463416e-04
1.000000000000000021e-03,3.812699412948387305e-04
1.343399332598900139e-03,3.812699412948387305e-04
1.804721766827170138e-03,3.812699412948387305e-04
2.424462017082328232e-03,3.812699412948387305e-04
3.257020655659782771e-03,3.812699412948387305e-04
4.375479375074184211e-03,3.812699412948387305e-04
5.878016072274911547e-03,3.812699412948387305e-04
7.896522868499724832e-03,3.812699412948387305e-04
1.060818355139448235e-02,3.812699412948387305e-04
1.425102670302997795e-02,3.812699412948387305e-04
1.914481976169957536e-02,3.812699412948387305e-04
2.571913809059344497e-02,3.812699412948387305e-04
3.455107294592218298e-02,3.812699412948387305e-04
4.641588833612777382e-02,3.812699412948387305e-04
6.235507341273912457e-02,3.812699412948387305e-04
8.376776400682915680e-02,3.812699412948387305e-04
1.125335582600764522e-01,3.812699412948387305e-04
1.511775070615661576e-01,3.812699412948387305e-04
2.030917620904734711e-01,3.812699412948387305e-04
2.728333376486766770e-01,3.812699412948387305e-04
3.665241237079626124e-01,3.812699412948387305e-04
4.923882631706736346e-01,3.812699412948387305e-04
6.614740641230145712e-01,3.812699412948387305e-04
8.886238162743398394e-01,3.812699412948387305e-04
1.193776641714435760e+00,3.812699412948387305e-04
1.603718743751329390e+00,3.812699412948387305e-04
2.154434690031882038e+00,3.812699412948387305e-04
2.894266124716748934e+00,3.812699412948387305e-04
3.888155180308085157e+00,3.812699412948387305e-04
5.223345074266838139e+00,3.812699412948387305e-04
7.017038286703822791e+00,3.812699412948387305e-04
9.426684551178844629e+00,3.812699412948387305e-04
1.266380173467402237e+01,3.812699412948387305e-04
1.701254279852585682e+01,3.812699412948387305e-04
2.285463864134988299e+01,3.812699412948387305e-04
3.070290629757849743e+01,3.812699412948387305e-04
4.124626382901347910e+01,3.812699412948387305e-04
5.541020330009480688e+01,3.812699412948387305e-04
7.443803013251681477e+01,3.812699412948387305e-04
1.000000000000000000e+02,3.812699412948387305e-04
1.000000000000000021e-03,4.914907944250635190e-04
1.343399332598900139e-03,4.914907944250635190e-04
1.804721766827170138e-03,4.914907944250635190e-04
2.424462017082328232e-03,4.914907944250635190e-04
3.257020655659782771e-03,4.914907944250635190e-04
4.375479375074184211e-03,4.914907944250635190e-04
5.878016072274911547e-03,4.914907944250635190e-04
7.896522868499724832e-03,4.914907944250635190e-04
1.060818355139448235e-02,4.914907944250635190e-04
1.425102670302997795e-02,4.914907944250635190e-04
1.914481976169957536e-02,4.914907944250635190e-04
2.571913809059344497e-02,4.914907944250635190e-04
3.455107294592218298e-02,4.914907944250635190e-04
4.641588833612777382e-02,4.914907944250635190e-04
6.235507341273912457e-02,4.914907944250635190e-04
8.376776400682915680e-02,4.914907944250635190e-04
1.125335582600764522e-01,4.914907944250635190e-04
1.511775070615661576e-01,4.914907944250635190e-04
2.030917620904734711e-01,4.914907944250635190e-04
2.728333376486766770e-01,4.914907944250635190e-04
3.665241237079626124e-01,4.914907944250635190e-04
4.923882631706736346e-01,4.914907944250635190e-04
6.614740641230145712e-01,4.914907944250635190e-04
8.886238162743398394e-01,4.914907944250635190e-04
1.193776641714435760e+00,4.914907944250635190e-04
1.603718743751329390e+00,4.914907944250635190e-04
2.154434690031882038e+00,4.914907944250635190e-04
2.894266124716748934e+00,4.914907944250635190e-04
3.888155180308085157e+00,4.914907944250635190e-04
5.223345074266838139e+00,4.914907944250635190e-04
7.017038286703822791e+00,4.914907944250635190e-04
9.426684551178844629e+00,4.914907944250635190e-04
1.266380173467402237e+01,4.914907944250635190e-04
1.701254279852585682e+01,4.914907944250635190e-04
2.285463864134988299e+01,4.914907944250635190e-04
3.070290629757849743e+01,4.914907944250635190e-04
4.124626382901347910e+01,4.914907944250635190e-04
5.541020330009480688e+01,4.914907944250635190e-04
7.443803013251681477e+01,4.914907944250635190e-04
1.000000000000000000e+02,4.914907944250635190e-04
1.000000000000000021e-03,6.335752569011930723e-04
1.343399332598900139e-03,6.335752569011930723e-04
1.804721766827170138e-03,6.335752569011930723e-04
2.424462017082328232e-03,6.335752569011930723e-04
3.257020655659782771e-03,6.335752569011930723e-04
4.375479375074184211e-03,6.335752569011930723e-04
5.878016072274911547e-03,6.335752569011930723e-04
7.896522868499724832e-03,6.335752569011930723e-04
1.060818355139448235e-02,6.335752569011930723e-04
1.425102670302997795e-02,6.335752569011930723e-04
1.914481976169957536e-02,6.335752569011930723e-04
2.571913809059344497e-02,6.335752569011930723e-04
3.455107294592218298e-02,6.335752569011930723e-04
4.641588833612777382e-02,6.335752569011930723e-04
6.235507341273912457e-02,6.335752569011930723e-04
8.376776400682915680e-02,6.335752569011930723e-04
1.125335582600764522e-01,6.335752569011930723e-04
1.511775070615661576e-01,6.335752569011930723e-04
2.030917620904734711e-01,6.335752569011930723e-04
2.728333376486766770e-01,6.335752569011930723e-04
3.665241237079626124e-01,6.335752569011930723e-04
4.923882631706736346e-01,6.335752569011930723e-04
6.614740641230145712e-01,6.335752569011930723e-04
8.886238162743398394e-01,6.335752569011930723e-04
1.193776641714435760e+00,6.335752569011930723e-04
1.603718743751329390e+00,6.335752569011930723e-04
2.154434690031882038e+00,6.335752569011930723e-04
2.894266124716748934e+00,6.335752569011930723e-04
3.888155180308085157e+00,6.335752569011930723e-04
5.223345074266838139e+00,6.335752569011930723e-04
7.017038286703822791e+00,6.335752569011930723e-04
9.426684551178844629e+00,6.335752569011930723e-04
1.266380173467402237e+01,6.335752569011930723e-04
1.701254279852585682e+01,6.335752569011930723e-04
2.285463864134988299e+01,6.335752569011930723e-04
3.070290629757849743e+01,6.335752569011930723e-04
4.124626382901347910e+01,6.335752569011930723e-04
5.541020330009480688e+01,6.335752569011930723e-04
7.443803013251681477e+01,6.335752569011930723e-04
1.000000000000000000e+02,6.335752569011930723e-04
1.000000000000000021e-03,8.167347399191545419e-04
1.343399332598900139e-03,8.167347399191545419e-04
1.804721766827170138e-03,8.167347399191545419e-04
2.424462017082328232e-03,8.167347399191545419e-04
3.257020655659782771e-03,8.167347399191545419e-04
4.375479375074184211e-03,8.167347399191545419e-04
5.878016072274911547e-03,8.167347399191545419e-04
7.896522868499724832e-03,8.167347399191545419e-04
1.060818355139448235e-02,8.167347399191545419e-04
1.425102670302997795e-02,8.167347399191545419e-04
1.914481976169957536e-02,8.167347399191545419e-04
2.571913809059344497e-02,8.167347399191545419e-04
3.455107294592218298e-02,8.167347399191545419e-04
4.641588833612777382e-02,8.167347399191545419e-04
6.235507341273912457e-02,8.167347399191545419e-04
8.376776400682915680e-02,8.167347399191545419e-04
1.125335582600764522e-01,8.167347399191545419e-04
1.511775070615661576e-01,8.167347399191545419e-04
2.030917620904734711e-01,8.167347399191545419e-04
2.728333376486766770e-01,8.167347399191545419e-04
3.665241237079626124e-01,8.167347399191545419e-04
4.923882631706736346e-01,8.167347399191545419e-04
6.614740641230145712e-01,8.167347399191545419e-04
8.886238162743398394e-01,8.167347399191545419e-04
1.193776641714435760e+00,8.167347399191545419e-04
1.603718743751329390e+00,8.167347399191545419e-04
2.154434690031882038e+00,8.167347399191545419e-04
2.894266124716748934e+00,8.167347399191545419e-04
3.888155180308085157e+00,8.167347399191545419e-04
5.223345074266838139e+00,8.167347399191545419e-04
7.017038286703822791e+00,8.167347399191545419e-04
9.426684551178844629e+00,8.167347399191545419e-04
1.266380173467402237e+01,8.167347399191545419e-04
1.701254279852585682e+01,8.167347399191545419e-04
2.285463864134988299e+01,8.167347399191545419e-04
3.070290629757849743e+01,8.167347399191545419e-04
4.124626382901347910e+01,8.167347399191545419e-04
5.541020330009480688e+01,8.167347399191545419e-04
7.443803013251681477e+01,8.167347399191545419e-04
1.000000000000000000e+02,8.167347399191545419e-04
1.000000000000000021e-03,1.052843570080952635e-03
1.343399332598900139e-03,1.052843570080952635e-03
1.804721766827170138e-03,1.052843570080952635e-03
2.424462017082328232e-03,1.052843570080952635e-03
3.257020655659782771e-03,1.052843570080952635e-03
4.375479375074184211e-03,1.052843570080952635e-03
5.878016072274911547e-03,1.052843570080952635e-03
7.896522868499724832e-03,1.052843570080952635e-03
1.060818355139448235e-02,1.052843570080952635e-03
1.425102670302997795e-02,1.052843570080952635e-03
1.914481976169957536e-02,1.052843570080952635e-03
2.571913809059344497e-02,1.052843570080952635e-03
3.455107294592218298e-02,1.052843570080952635e-03
4.641588833612777382e-02,1.052843570080952635e-03
6.235507341273912457e-02,1.052843570080952635e-03
8.376776400682915680e-02,1.052843570080952635e-03
1.125335582600764522e-01,1.052843570080952635e-03
1.511775070615661576e-01,1.052843570080952635e-03
2.030917620904734711e-01,1.052843570080952635e-03
2.728333376486766770e-01,1.052843570080952635e-03
3.665241237079626124e-01,1.052843570080952635e-03
4.923882631706736346e-01,1.052843570080952635e-03
6.614740641230145712e-01,1.052843570080952635e-03
8.886238162743398394e-01,1.052843570080952635e-03
1.193776641714435760e+00,1.052843570080952635e-03
1.603718743751329390e+00,1.052843570080952635e-03
2.154434690031882038e+00,1.052843570080952635e-03
2.894266124716748934e+00,1.052843570080952635e-03
3.888155180308085157e+00,1.052843570080952635e-03
5.223345074266838139e+00,1.052843570080952635e-03
7.017038286703822791e+00,1.052843570080952635e-03
9.426684551178844629e+00,1.052843570080952635e-03
1.266380173467402237e+01,1.052843570080952635e-03
1.701254279852585682e+01,1.052843570080952635e-03
2.285463864134988299e+01,1.052843570080952635e-03
3.070290629757849743e+01,1.052843570080952635e-03
4.124626382901347910e+01,1.052843570080952635e-03
5.541020330009480688e+01,1.052843570080952635e-03
7.443803013251681477e+01,1.052843570080952635e-03
1.000000000000000000e+02,1.052843570080952635e-03
1.000000000000000021e-03,1.357208808297453214e-03
1.343399332598900139e-03,1.357208808297453214e-03
1.804721766827170138e-03,1.357208808297453214e-03
2.424462017082328232e-03,1.357208808297453214e-03
3.257020655659782771e-03,1.357208808297453214e-03
4.375479375074184211e-03,1.357208808297453214e-03
5.878016072274911547e-03,1.357208808297453214e-03
7.896522868499724832e-03,1.357208808297453214e-03
1.060818355139448235e-02,1.357208808297453214e-03
1.425102670302997795e-02,1.357208808297453214e-03
1.914481976169957536e-02,1.357208808297453214e-03
2.571913809059344497e-02,1.357208808297453214e-03
3.455107294592218298e-02,1.357208808297453214e-03
4.641588833612777382e-02,1.357208808297453214e-03
6.235507341273912457e-02,1.357208808297453214e-03
8.376776400682915680e-02,1.357208808297453214e-03
1.125335582600764522e-01,1.357208808297453214e-03
1.511775070615661576e-01,1.357208808297453214e-03
2.030917620904734711e-01,1.357208808297453214e-03
2.728333376486766770e-01,1.357208808297453214e-03
3.665241237079626124e-01,1.357208808297453214e-03
4.923882631706736346e-01,1.357208808297453214e-03
6.614740641230145712e-01,1.357208808297453214e-03
8.886238162743398394e-01,1.357208808297453214e-03
1.193776641714435760e+00,1.357208808297453214e-03
1.603718743751329390e+00,1.357208808297453214e-03
2.154434690031882038e+00,1.357208808297453214e-03
2.894266124716748934e+00,1.357208808297453214e-03
3.888155180308085157e+00,1.357208808297453214e-03
5.223345074266838139e+00,1.357208808297453214e-03
7.017038286703822791e+00,1.357208808297453214e-03
9.426684551178844629e+00,1.357208808297453214e-03
1.266380173467402237e+01,1.357208808297453214e-03
1.701254279852585682e+01,1.357208808297453214e-03
2.285463864134988299e+01,1.357208808297453214e-03
3.070290629757849743e+01,1.357208808297453214e-03
4.124626382901347910e+01,1.357208808297453214e-03
5.541020330009480688e+01,1.357208808297453214e-03
7.443803013251681477e+01,1.357208808297453214e-03
1.000000000000000000e+02,1.357208808297453214e-03
1.000000000000000021e-03,1.749562614680318659e-03
1.343399332598900139e-03,1.749562614680318659e-03
1.804721766827170138e-03,1.749562614680318659e-03
2.424462017082328232e-03,1.749562614680318659e-03
3.257020655659782771e-03,1.749562614680318659e-03
4.375479375074184211e-03,1.749562614680318659e-03
5.878016072274911547e-03,1.749562614680318659e-03
7.896522868499724832e-03,1.749562614680318659e-03
1.060818355139448235e-02,1.749562614680318659e-03
1.425102670302997795e-02,1.749562614680318659e-03
1.914481976169957536e-02,1.749562614680318659e-03
2.571913809059344497e-02,1.749562614680318659e-03
3.455107294592218298e-02,1.749562614680318659e-03
4.641588833612777382e-02,1.749562614680318659e-03
6.235507341273912457e-02,1.749562614680318659e-03
8.376776400682915680e-02,1.749562614680318659e-03
1.125335582600764522e-01,1.749562614680318659e-03
1.511775070615661576e-01,1.749562614680318659e-03
2.030917620904734711e-01,1.749562614680318659e-03
2.728333376486766770e-01,1.749562614680318659e-03
3.665241237079626124e-01,1.749562614680318659e-03
4.923882631706736346e-01,1.749562614680318659e-03
6.614740641230145712e-01,1.749562614680318659e-03
8.886238162743398394e-01,1.749562614680318659e-03
1.193776641714435760e+00,1.749562614680318659e-03
1.603718743751329390e+00,1.749562614680318659e-03
2.154434690031882038e+00,1.749562614680318659e-03
2.894266124716748934e+00,1.749562614680318659e-03
3.888155180308085157e+00,1.749562614680318659e-03
5.223345074266838139e+00,1.749562614680318659e-03
7.017038286703822791e+00,1.749562614680318659e-03
9.426684551178844629e+00,1.749562614680318659e-03
1.266380173467402237e+01,1.749562614680318659e-03
1.701254279852585682e+01,1.749562614680318659e-03
2.285463864134988299e+01,1.749562614680318659e-03
3.070290629757849743e+01,1.749562614680318659e-03
4.124626382901347910e+01,1.749562614680318659e-03
5.541020330009480688e+01,1.749562614680318659e-03
7.443803013251681477e+01,1.749562614680318659e-03
1.000000000000000000e+02,1.749562614680318659e-03
1.000000000000000021e-03,2.255341494966318049e-03
1.343399332598900139e-03,2.255341494966318049e-03
1.804721766827170138e-03,2.255341494966318049e-03
2.424462017082328232e-03,2.255341494966318049e-03
3.257020655659782771e-03,2.255341494966318049e-03
4.375479375074184211e-03,2.255341494966318049e-03
5.878016072274911547e-03,2.255341494966318049e-03
7.896522868499724832e-03,2.255341494966318049e-03
1.060818355139448235e-02,2.255341494966318049e-03
1.425102670302997795e-02,2.255341494966318049e-03
1.914481976169957536e-02,2.255341494966318049e-03
2.571913809059344497e-02,2.255341494966318049e-03
3.455107294592218298e-02,2.255341494966318049e-03
4.641588833612777382e-02,2.255341494966318049e-03
6.235507341273912457e-02,2.255341494966318049e-03
8.376776400682915680e-02,2.255341494966318049e-03
1.125335582600764522e-01,2.255341494966318049e-03
1.511775070615661576e-01,2.255341494966318049e-03
2.030917620904734711e-01,2.255341494966318049e-03
2.728333376486766770e-01,2.255341494966318049e-03
3.665241237079626124e-01,2.255341494966318049e-03
4.923882631706736346e-01,2.255341494966318049e-03
6.614740641230145712e-01,2.255341494966318049e-03
8.886238162743398394e-01,2.255341494966318049e-03
1.193776641714435760e+00,2.255341494966318049e-03
1.603718743751329390e+00,2.255341494966318049e-03
2.154434690031882038e+00,2.255341494966318049e-03
2.894266124716748934e+00,2.255341494966318049e-03
3.888155180308085157e+00,2.255341494966318049e-03
5.223345074266838139e+00,2.255341494966318049e-03
7.017038286703822791e+00,2.255341494966318049e-03
9.426684551178844629e+00,2.255341494966318049e-03
1.266380173467402237e+01,2.255341494966318049e-03
1.701254279852585682e+01,2.255341494966318049e-03
2.285463864134988299e+01,2.255341494966318049e-03
3.070290629757849743e+01,2.255341494966318049e-03
4.124626382901347910e+01,2.255341494966318049e-03
5.541020330009480688e+01,2.255341494966318049e-03
7.443803013251681477e+01,2.255341494966318049e-03
1.000000000000000000e+02,2.255341494966318049e-03
1.000000000000000021e-03,2.907335362699395732e-03
1.343399332598900139e-03,2.907335362699395732e-03
1.804721766827170138e-03,2.907335362699395732e-03
2.424462017082328232e-03,2.907335362699395732e-03
3.257020655659782771e-03,2.907335362699395732e-03
4.375479375074184211e-03,2.907335362699395732e-03
5.878016072274911547e-03,2.907335362699395732e-03
7.896522868499724832e-03,2.907335362699395732e-03
1.060818355139448235e-02,2.907335362699395732e-03
1.425102670302997795e-02,2.907335362699395732e-03
1.914481976169957536e-02,2.907335362699395732e-03
2.571913809059344497e-02,2.907335362699395732e-03
3.455107294592218298e-02,2.907335362699395732e-03
4.641588833612777382e-02,2.907335362699395732e-03
6.235507341273912457e-02,2.907335362699395732e-03
8.376776400682915680e-02,2.907335362699395732e-03
1.125335582600764522e-01,2.907335362699395732e-03
1.511775070615661576e-01,2.907335362699395732e-03
2.030917620904734711e-01,2.907335362699395732e-03
2.728333376486766770e-01,2.907335362699395732e-03
3.665241237079626124e-01,2.907335362699395732e-03
4.923882631706736346e-01,2.907335362699395732e-03
6.614740641230145712e-01,2.907335362699395732e-03
8.886238162743398394e-01,2.907335362699395732e-03
1.193776641714435760e+00,2.907335362699395732e-03
1.603718743751329390e+00,2.907335362699395732e-03
2.154434690031882038e+00,2.907335362699395732e-03
2.894266124716748934e+00,2.907335362699395732e-03
3.888155180308085157e+00,2.907335362699395732e-03
5.223345074266838139e+00,2.907335362699395732e-03
7.017038286703822791e+00,2.907335362699395732e-03
9.426684551178844629e+00,2.907335362699395732e-03
1.266380173467402237e+01,2.907335362699395732e-03
1.701254279852585682e+01,2.907335362699395732e-03
2.285463864134988299e+01,2.907335362699395732e-03
3.070290629757849743e+01,2.907335362699395732e-03
4.124626382901347910e+01,2.907335362699395732e-03
5.541020330009480688e+01,2.907335362699395732e-03
7.443803013251681477e+01,2.907335362699395732e-03
1.000000000000000000e+02,2.907335362699395732e-03
1.000000000000000021e-03,3.747813326747956395e-03
1.343399332598900139e-03,3.747813326747956395e-03
1.804721766827170138e-03,3.747813326747956395e-03
2.424462017082328232e-03,3.747813326747956395e-03
3.257020655659782771e-03,3.747813326747956395e-03
4.375479375074184211e-03,3.747813326747956395e-03
5.878016072274911547e-03,3.747813326747956395e-03
7.896522868499724832e-03,3.747813326747956395e-03
1.060818355139448235e-02,3.747813326747956395e-03
1.425102670302997795e-02,3.747813326747956395e-03
1.914481976169957536e-02,3.747813326747956395e-03
2.571913809059344497e-02,3.747813326747956395e-03
3.455107294592218298e-02,3.747813326747956395e-03
4.641588833612777382e-02,3.747813326747956395e-03
6.235507341273912457e-02,3.747813326747956395e-03
8.376776400682915680e-02,3.747813326747956395e-03
1.125335582600764522e-01,3.747813326747956395e-03
1.511775070615661576e-01,3.747813326747956395e-03
2.030917620904734711e-01,3.747813326747956395e-03
2.728333376486766770e-01,3.747813326747956395e-03
3.665241237079626124e-01,3.747813326747956395e-03
4.923882631706736346e-01,3.747813326747956395e-03
6.614740641230145712e-01,3.747813326747956395e-03
8.886238162743398394e-01,3.747813326747956395e-03
1.193776641714435760e+00,3.747813326747956395e-03
1.603718743751329390e+00,3.747813326747956395e-03
2.154434690031882038e+00,3.747813326747956395e-03
2.894266124716748934e+00,3.747813326747956395e-03
3.888155180308085157e+00,3.747813326747956395e-03
5.223345074266838139e+00,3.747813326747956395e-03
7.017038286703822791e+00,3.747813326747956395e-03
9.426684551178844629e+00,3.747813326747956395e-03
1.266380173467402237e+01,3.747813326747956395e-03
1.701254279852585682e+01,3.747813326747956395e-03
2.285463864134988299e+01,3.747813326747956395e-03
3.070290629757849743e+01,3.747813326747956395e-03
4.124626382901347910e+01,3.747813326747956395e-03
5.541020330009480688e+01,3.747813326747956395e-03
7.443803013251681477e+01,3.747813326747956395e-03
1.000000000000000000e+02,3.747813326747956395e-03
1.000000000000000021e-03,4.831264020091605507e-03
1.343399332598900139e-03,4.831264020091605507e-03
1.804721766827170138e-03,4.831264020091605507e-03
2.424462017082328232e-03,4.831264020091605507e-03
3.257020655659782771e-03,4.831264020091605507e-03
4.375479375074184211e-03,4.831264020091605507e-03
5.878016072274911547e-03,4.831264020091605507e-03
7.896522868499724832e-03,4.831264020091605507e-03
1.060818355139448235e-02,4.831264020091605507e-03
1.425102670302997795e-02,4.831264020091605507e-03
1.914481976169957536e-02,4.831264020091605507e-03
2.571913809059344497e-02,4.831264020091605507e-03
3.455107294592218298e-02,4.831264020091605507e-03
4.641588833612777382e-02,4.831264020091605507e-03
6.235507341273912457e-02,4.831264020091605507e-03
8.376776400682915680e-02,4.831264020091605507e-03
1.125335582600764522e-01,4.831264020091605507e-03
1.511775070615661576e-01,4.831264020091605507e-03
2.030917620904734711e-01,4.831264020091605507e-03
2.728333376486766770e-01,4.831264020091605507e-03
3.665241237079626124e-01,4.831264020091605507e-03
4.923882631706736346e-01,4.831264020091605507e-03
6.614740641230145712e-01,4.831264020091605507e-03
8.886238162743398394e-01,4.831264020091605507e-03
1.193776641714435760e+00,4.831264020091605507e-03
1.603718743751329390e+00,4.831264020091605507e-03
2.154434690031882038e+00,4.831264020091605507e-03
2.894266124716748934e+00,4.831264020091605507e-03
3.888155180308085157e+00,4.831264020091605507e-03
5.223345074266838139e+00,4.831264020091605507e-03
7.017038286703822791e+00,4.831264020091605507e-03
9.426684551178844629e+00,4.831264020091605507e-03
1.266380173467402237e+01,4.831264020091605507e-03
1.701254279852585682e+01,4.831264020091605507e-03
2.285463864134988299e+01,4.831264020091605507e-03
3.070290629757849743e+01,4.831264020091605507e-03
4.124626382901347910e+01,4.831264020091605507e-03
5.541020330009480688e+01,4.831264020091605507e-03
7.443803013251681477e+01,4.831264020091605507e-03
1.000000000000000000e+02,4.831264020091605507e-03
1.000000000000000021e-03,6.227928126848628586e-03
1.343399332598900139e-03,6.227928126848628586e-03
1.804721766827170138e-03,6.227928126848628586e-03
2.424462017082328232e-03,6.227928126848628586e-03
3.257020655659782771e-03,6.227928126848628586e-03
4.375479375074184211e-03,6.227928126848628586e-03
5.878016072274911547e-03,6.227928126848628586e-03
7.896522868499724832e-03,6.227928126848628586e-03
1.060818355139448235e-02,6.227928126848628586e-03
1.425102670302997795e-02,6.227928126848628586e-03
1.914481976169957536e-02,6.227928126848628586e-03
2.571913809059344497e-02,6.227928126848628586e-03
3.455107294592218298e-02,6.227928126848628586e-03
4.641588833612777382e-02,6.227928126848628586e-03
6.235507341273912457e-02,6.227928126848628586e-03
8.376776400682915680e-02,6.227928126848628586e-03
1.125335582600764522e-01,6.227928126848628586e-03
1.511775070615661576e-01,6.227928126848628586e-03
2.030917620904734711e-01,6.227928126848628586e-03
2.728333376486766770e-01,6.227928126848628586e-03
3.665241237079626124e-01,6.227928126848628586e-03
4.923882631706736346e-01,6.227928126848628586e-03
6.614740641230145712e-01,6.227928126848628586e-03
8.886238162743398394e-01,6.227928126848628586e-03
1.193776641714435760e+00,6.227928126848628586e-03
1.603718743751329390e+00,6.227928126848628586e-03
2.154434690031882038e+00,6.227928126848628586e-03
2.894266124716748934e+00,6.227928126848628586e-03
3.888155180308085157e+00,6.227928126848628586e-03
5.223345074266838139e+00,6.227928126848628586e-03
7.017038286703822791e+00,6.227928126848628586e-03
9.426684551178844629e+00,6.227928126848628586e-03
1.266380173467402237e+01,6.227928126848628586e-03
1.701254279852585682e+01,6.227928126848628586e-03
2.285463864134988299e+01,6.227928126848628586e-03
3.070290629757849743e+01,6.227928126848628586e-03
4.124626382901347910e+01,6.227928126848628586e-03
5.541020330009480688e+01,6.227928126848628586e-03
7.443803013251681477e+01,6.227928126848628586e-03
1.000000000000000000e+02,6.227928126848628586e-03
1.000000000000000021e-03,8.028352123148266642e-03
1.343399332598900139e-03,8.028352123148266642e-03
1.804721766827170138e-03,8.028352123148266642e-03
2.424462017082328232e-03,8.028352123148266642e-03
3.257020655659782771e-03,8.028352123148266642e-03
4.375479375074184211e-03,8.028352123148266642e-03
5.878016072274911547e-03,8.028352123148266642e-03
7.896522868499724832e-03,8.028352123148266642e-03
1.060818355139448235e-02,8.028352123148266642e-03
1.425102670302997795e-02,8.028352123148266642e-03
1.914481976169957536e-02,8.028352123148266642e-03
2.571913809059344497e-02,8.028352123148266642e-03
3.455107294592218298e-02,8.028352123148266642e-03
4.641588833612777382e-02,8.028352123148266642e-03
6.235507341273912457e-02,8.028352123148266642e-03
8.376776400682915680e-02,8.028352123148266642e-03
1.125335582600764522e-01,8.028352123148266642e-03
1.511775070615661576e-01,8.028352123148266642e-03
2.030917620904734711e-01,8.028352123148266642e-03
2.728333376486766770e-01,8.028352123148266642e-03
3.665241237079626124e-01,8.028352123148266642e-03
4.923882631706736346e-01,8.028352123148266642e-03
6.614740641230145712e-01,8.028352123148266642e-03
8.886238162743398394e-01,8.028352123148266642e-03
1.193776641714435760e+00,8.028352123148266642e-03
1.603718743751329390e+00,8.028352123148266642e-03
2.154434690031882038e+00,8.028352123148266642e-03
2.894266124716748934e+00,8.028352123148266642e-03
3.888155180308085157e+00,8.028352123148266642e-03
5.223345074266838139e+00,8.028352123148266642e-03
7.017038286703822791e+00,8.028352123148266642e-03
9.426684551178844629e+00,8.028352123148266642e-03
1.266380173467402237e+01,8.028352123148266642e-03
1.701254279852585682e+01,8.028352123148266642e-03
2.285463864134988299e+01,8.028352123148266642e-03
3.070290629757849743e+01,8.028352123148266642e-03
4.124626382901347910e+01,8.028352123148266642e-03
5.541020330009480688e+01,8.028352123148266642e-03
7.443803013251681477e+01,8.028352123148266642e-03
1.000000000000000000e+02,8.028352123148266642e-03
1.000000000000000021e-03,1.034925845328816055e-02
1.343399332598900139e-03,1.034925845328816055e-02
1.804721766827170138e-03,1.034925845328816055e-02
2.424462017082328232e-03,1.034925845328816055e-02
3.257020655659782771e-03,1.034925845328816055e-02
4.375479375074184211e-03,1.034925845328816055e-02
5.878016072274911547e-03,1.034925845328816055e-02
7.896522868499724832e-03,1.034925845328816055e-02
1.060818355139448235e-02,1.034925845328816055e-02
1.425102670302997795e-02,1.034925845328816055e-02
1.914481976169957536e-02,1.034925845328816055e-02
2.571913809059344497e-02,1.034925845328816055e-02
3.455107294592218298e-02,1.034925845328816055e-02
4.641588833612777382e-02,1.034925845328816055e-02
6.235507341273912457e-02,1.034925845328816055e-02
8.376776400682915680e-02,1.034925845328816055e-02
1.125335582600764522e-01,1.034925845328816055e-02
1.511775070615661576e-01,1.034925845328816055e-02
2.030917620904734711e-01,1.034925845328816055e-02
2.728333376486766770e-01,1.034925845328816055e-02
3.665241237079626124e-01,1.034925845328816055e-02
4.923882631706736346e-01,1.034925845328816055e-02
6.614740641230145712e-01,1.034925845328816055e-02
8.886238162743398394e-01,1.034925845328816055e-02
1.193776641714435760e+00,1.034925845328816055e-02
1.603718743751329390e+00,1.034925845328816055e-02
2.154434690031882038e+00,1.034925845328816055e-02
2.894266124716748934e+00,1.034925845328816055e-02
3.888155180308085157e+00,1.034925845328816055e-02
5.223345074266838139e+00,1.034925845328816055e-02
7.017038286703822791e+00,1.034925845328816055e-02
9.426684551178844629e+00,1.034925845328816055e-02
1.266380173467402237e+01,1.034925845328816055e-02
1.701254279852585682e+01,1.034925845328816055e-02
2.285463864134988299e+01,1.034925845328816055e-02
3.070290629757849743e+01,1.034925845328816055e-02
4.124626382901347910e+01,1.034925845328816055e-02
5.541020330009480688e+01,1.034925845328816055e-02
7.443803013251681477e+01,1.034925845328816055e-02
1.000000000000000000e+02,1.034925845328816055e-02
1.000000000000000021e-03,1.334111270781619327e-02
1.343399332598900139e-03,1.334111270781619327e-02
1.804721766827170138e-03,1.334111270781619327e-02
2.424462017082328232e-03,1.334111270781619327e-02
3.257020655659782771e-03,1.334111270781619327e-02
4.375479375074184211e-03,1.334111270781619327e-02
5.878016072274911547e-03,1.334111270781619327e-02
7.896522868499724832e-03,1.334111270781619327e-02
1.060818355139448235e-02,1.334111270781619327e-02
1.425102670302997795e-02,1.334111270781619327e-02
1.914481976169957536e-02,1.334111270781619327e-02
2.571913809059344497e-02,1.334111270781619327e-02
3.455107294592218298e-02,1.334111270781619327e-02
4.641588833612777382e-02,1.334111270781619327e-02
6.235507341273912457e-02,1.334111270781619327e-02
8.376776400682915680e-02,1.334111270781619327e-02
1.125335582600764522e-01,1.334111270781619327e-02
1.511775070615661576e-01,1.334111270781619327e-02
2.030917620904734711e-01,1.334111270781619327e-02
2.728333376486766770e-01,1.334111270781619327e-02
3.665241237079626124e-01,1.334111270781619327e-02
4.923882631706736346e-01,1.334111270781619327e-02
6.614740641230145712e-01,1.334111270781619327e-02
8.886238162743398394e-01,1.334111270781619327e-02
1.193776641714435760e+00,1.334111270781619327e-02
1.603718743751329390e+00,1.334111270781619327e-02
2.154434690031882038e+00,1.334111270781619327e-02
2.894266124716748934e+00,1.334111270781619327e-02
3.888155180308085157e+00,1.334111270781619327e-02
5.223345074266838139e+00,1.334111270781619327e-02
7.017038286703822791e+00,1.334111270781619327e-02
9.426684551178844629e+00,1.334111270781619327e-02
1.266380173467402237e+01,1.334111270781619327e-02
1.701254279852585682e+01,1.334111270781619327e-02
2.285463864134988299e+01,1.334111270781619327e-02
3.070290629757849743e+01,1.334111270781619327e-02
4.124626382901347910e+01,1.334111270781619327e-02
5.541020330009480688e+01,1.334111270781619327e-02
7.443803013251681477e+01,1.334111270781619327e-02
1.000000000000000000e+02,1.334111270781619327e-02
1.000000000000000021e-03,1.719787838771242444e-02
1.343399332598900139e-03,1.719787838771242444e-02
1.804721766827170138e-03,1.719787838771242444e-02
2.424462017082328232e-03,1.719787838771242444e-02
3.257020655659782771e-03,1.719787838771242444e-02
4.375479375074184211e-03,1.719787838771242444e-02
5.878016072274911547e-03,1.719787838771242444e-02
7.896522868499724832e-03,1.719787838771242444e-02
1.060818355139448235e-02,1.719787838771242444e-02
1.425102670302997795e-02,1.719787838771242444e-02
1.914481976169957536e-02,1.719787838771242444e-02
2.571913809059344497e-02,1.719787838771242444e-02
3.455107294592218298e-02,1.719787838771242444e-02
4.641588833612777382e-02,1.719787838771242444e-02
6.235507341273912457e-02,1.719787838771242444e-02
8.376776400682915680e-02,1.719787838771242444e-02
1.125335582600764522e-01,1.719787838771242444e-02
1.511775070615661576e-01,1.719787838771242444e-02
2.030917620904734711e-01,1.719787838771242444e-02
2.728333376486766770e-01,1.719787838771242444e-02
3.665241237079626124e-01,1.719787838771242444e-02
4.923882631706736346e-01,1.719787838771242444e-02
6.614740641230145712e-01,1.719787838771242444e-02
8.886238162743398394e-01,1.719787838771242444e-02
1.193776641714435760e+00,1.719787838771242444e-02
1.603718743751329390e+00,1.719787838771242444e-02
2.154434690031882038e+00,1.719787838771242444e-02
2.894266124716748934e+00,1.719787838771242444e-02
3.888155180308085157e+00,1.719787838771242444e-02
5.223345074266838139e+00,1.719787838771242444e-02
7.017038286703822791e+00,1.719787838771242444e-02
9.426684551178844629e+00,1.719787838771242444e-02
1.266380173467402237e+01,1.719787838771242444e-02
1.701254279852585682e+01,1.719787838771242444e-02
2.285463864134988299e+01,1.719787838771242444e-02
3.070290629757849743e+01,1.719787838771242444e-02
4.124626382901347910e+01,1.719787838771242444e-02
5.541020330009480688e+01,1.719787838771242444e-02
7.443803013251681477e+01,1.719787838771242444e-02
1.000000000000000000e+02,1.719787838771242444e-02
1.000000000000000021e-03,2.216959166121612243e-02
1.343399332598900139e-03,2.216959166121612243e-02
1.804721766827170138e-03,2.216959166121612243e-02
2.424462017082328232e-03,2.216959166121612243e-02
3.257020655659782771e-03,2.216959166121612243e-02
4.375479375074184211e-03,2.216959166121612243e-02
5.878016072274911547e-03,2.216959166121612243e-02
7.896522868499724832e-03,2.216959166121612243e-02
1.060818355139448235e-02,2.216959166121612243e-02
1.425102670302997795e-02,2.216959166121612243e-02
1.914481976169957536e-02,2.216959166121612243e-02
2.571913809059344497e-02,2.216959166121612243e-02
3.455107294592218298e-02,2.216959166121612243e-02
4.641588833612777382e-02,2.216959166121612243e-02
6.235507341273912457e-02,2.216959166121612243e-02
8.376776400682915680e-02,2.216959166121612243e-02
1.125335582600764522e-01,2.216959166121612243e-02
1.511775070615661576e-01,2.216959166121612243e-02
2.030917620904734711e-01,2.216959166121612243e-02
2.728333376486766770e-01,2.216959166121612243e-02
3.665241237079626124e-01,2.216959166121612243e-02
4.923882631706736346e-01,2.216959166121612243e-02
6.614740641230145712e-01,2.216959166121612243e-02
8.886238162743398394e-01,2.216959166121612243e-02
1.193776641714435760e+00,2.216959166121612243e-02
1.603718743751329390e+00,2.216959166121612243e-02
2.154434690031882038e+00,2.216959166121612243e-02
2.894266124716748934e+00,2.216959166121612243e-02
3.888155180308085157e+00,2.216959166121612243e-02
5.223345074266838139e+00,2.216959166121612243e-02
7.017038286703822791e+00,2.216959166121612243e-02
9.426684551178844629e+00,2.216959166121612243e-02
1.266380173467402237e+01,2.216959166121612243e-02
1.701254279852585682e+01,2.216959166121612243e-02
2.285463864134988299e+01,2.216959166121612243e-02
3.070290629757849743e+01,2.216959166121612243e-02
4.124626382901347910e+01,2.216959166121612243e-02
5.541020330009480688e+01,2.216959166121612243e-02
7.443803013251681477e+01,2.216959166121612243e-02
1.000000000000000000e+02,2.216959166121612243e-02
1.000000000000000021e-03,2.857857134146412487e-02
1.343399332598900139e-03,2.857857134146412487e-02
1.804721766827170138e-03,2.857857134146412487e-02
2.424462017082328232e-03,2.857857134146412487e-02
3.257020655659782771e-03,2.857857134146412487e-02
4.375479375074184211e-03,2.857857134146412487e-02
5.878016072274911547e-03,2.857857134146412487e-02
7.896522868499724832e-03,2.857857134146412487e-02
1.060818355139448235e-02,2.857857134146412487e-02
1.425102670302997795e-02,2.857857134146412487e-02
1.914481976169957536e-02,2.857857134146412487e-02
2.571913809059344497e-02,2.857857134146412487e-02
3.455107294592218298e-02,2.857857134146412487e-02
4.641588833612777382e-02,2.857857134146412487e-02
6.235507341273912457e-02,2.857857134146412487e-02
8.376776400682915680e-02,2.857857134146412487e-02
1.125335582600764522e-01,2.857857134146412487e-02
1.511775070615661576e-01,2.857857134146412487e-02
2.030917620904734711e-01,2.857857134146412487e-02
2.728333376486766770e-01,2.857857134146412487e-02
3.665241237079626124e-01,2.857857134146412487e-02
4.923882631706736346e-01,2.857857134146412487e-02
6.614740641230145712e-01,2.857857134146412487e-02
8.886238162743398394e-01,2.857857134146412487e-02
1.193776641714435760e+00,2.857857134146412487e-02
1.603718743751329390e+00,2.857857134146412487e-02
2.154434690031882038e+00,2.857857134146412487e-02
2.894266124716748934e+00,2.857857134146412487e-02
3.888155180308085157e+00,2.857857134146412487e-02
5.223345074266838139e+00,2.857857134146412487e-02
7.017038286703822791e+00,2.857857134146412487e-02
9.426684551178844629e+00,2.857857134146412487e-02
1.266380173467402237e+01,2.857857134146412487e-02
1.701254279852585682e+01,2.857857134146412487e-02
2.285463864134988299e+01,2.857857134146412487e-02
3.070290629757849743e+01,2.857857134146412487e-02
4.124626382901347910e+01,2.857857134146412487e-02
5.541020330009480688e+01,2.857857134146412487e-02
7.443803013251681477e+01,2.857857134146412487e-02
1.000000000000000000e+02,2.857857134146412487e-02
1.000000000000000021e-03,3.684031498640386731e-02
1.343399332598900139e-03,3.684031498640386731e-02
1.804721766827170138e-03,3.684031498640386731e-02
2.424462017082328232e-03,3.684031498640386731e-02
3.257020655659782771e-03,3.684031498640386731e-02
4.375479375074184211e-03,3.684031498640386731e-02
5.878016072274911547e-03,3.684031498640386731e-02
7.896522868499724832e-03,3.684031498640386731e-02
1.060818355139448235e-02,3.684031498640386731e-02
1.425102670302997795e-02,3.684031498640386731e-02
1.914481976169957536e-02,3.684031498640386731e-02
2.571913809059344497e-02,3.684031498640386731e-02
3.455107294592218298e-02,3.684031498640386731e-02
4.641588833612777382e-02,3.684031498640386731e-02
6.235507341273912457e-02,3.684031498640386731e-02
8.376776400682915680e-02,3.684031498640386731e-02
1.125335582600764522e-01,3.684031498640386731e-02
1.511775070615661576e-01,3.684031498640386731e-02
2.030917620904734711e-01,3.684031498640386731e-02
2.728333376486766770e-01,3.684031498640386731e-02
3.665241237079626124e-01,3.684031498640386731e-02
4.923882631706736346e-01,3.684031498640386731e-02
6.614740641230145712e-01,3.684031498640386731e-02
8.886238162743398394e-01,3.684031498640386731e-02
1.193776641714435760e+00,3.684031498640386731e-02
1.603718743751329390e+00,3.684031498640386731e-02
2.154434690031882038e+00,3.684031498640386731e-02
2.894266124716748934e+00,3.684031498640386731e-02
3.888155180308085157e+00,3.684031498640386731e-02
5.223345074266838139e+00,3.684031498640386731e-02
7.017038286703822791e+00,3.684031498640386731e-02
9.426684551178844629e+00,3.684031498640386731e-02
1.266380173467402237e+01,3.684031498640386731e-02
1.701254279852585682e+01,3.684031498640386731e-02
2.285463864134988299e+01,3.684031498640386731e-02
3.070290629757849743e+01,3.684031498640386731e-02
4.124626382901347910e+01,3.684031498640386731e-02
5.541020330009480688e+01,3.684031498640386731e-02
7.443803013251681477e+01,3.684031498640386731e-02
1.000000000000000000e+02,3.684031498640386731e-02
1.000000000000000021e-03,4.749043582624103838e-02
1.343399332598900139e-03,4.749043582624103838e-02
1.804721766827170138e-03,4.749043582624103838e-02
2.424462017082328232e-03,4.749043582624103838e-02
3.257020655659782771e-03,4.749043582624103838e-02
4.375479375074184211e-03,4.749043582624103838e-02
5.878016072274911547e-03,4.749043582624103838e-02
7.896522868499724832e-03,4.749043582624103838e-02
1.060818355139448235e-02,4.749043582624103838e-02
1.425102670302997795e-02,4.749043582624103838e-02
1.914481976169957536e-02,4.749043582624103838e-02
2.571913809059344497e-02,4.749043582624103838e-02
3.455107294592218298e-02,4.749043582624103838e-02
4.641588833612777382e-02,4.749043582624103838e-02
6.235507341273912457e-02,4.749043582624103838e-02
8.376776400682915680e-02,4.749043582624103838e-02
1.125335582600764522e-01,4.749043582624103838e-02
1.511775070615661576e-01,4.749043582624103838e-02
2.030917620904734711e-01,4.749043582624103838e-02
2.728333376486766770e-01,4.749043582624103838e-02
3.665241237079626124e-01,4.749043582624103838e-02
4.923882631706736346e-01,4.749043582624103838e-02
6.614740641230145712e-01,4.749043582624103838e-02
8.886238162743398394e-01,4.749043582624103838e-02
1.193776641714435760e+00,4.749043582624103838e-02
1.603718743751329390e+00,4.749043582624103838e-02
2.154434690031882038e+00,4.749043582624103838e-02
2.894266124716748934e+00,4.749043582624103838e-02
3.888155180308085157e+00,4.749043582624103838e-02
5.223345074266838139e+00,4.749043582624103838e-02
7.017038286703822791e+00,4.749043582624103838e-02
9.426684551178844629e+00,4.749043582624103838e-02
1.266380173467402237e+01,4.749043582624103838e-02
1.701254279852585682e+01,4.749043582624103838e-02
2.285463864134988299e+01,4.749043582624103838e-02
3.070290629757849743e+01,4.749043582624103838e-02
4.124626382901347910e+01,4.749043582624103838e-02
5.541020330009480688e+01,4.749043582624103838e-02
7.443803013251681477e+01,4.749043582624103838e-02
1.000000000000000000e+02,4.749043582624103838e-02
1.000000000000000021e-03,6.121938685374066907e-02
1.343399332598900139e-03,6.121938685374066907e-02
1.804721766827170138e-03,6.121938685374066907e-02
2.424462017082328232e-03,6.121938685374066907e-02
3.257020655659782771e-03,6.121938685374066907e-02
4.375479375074184211e-03,6.121938685374066907e-02
5.878016072274911547e-03,6.121938685374066907e-02
7.896522868499724832e-03,6.121938685374066907e-02
1.060818355139448235e-02,6.121938685374066907e-02
1.425102670302997795e-02,6.121938685374066907e-02
1.914481976169957536e-02,6.121938685374066907e-02
2.571913809059344497e-02,6.121938685374066907e-02
3.455107294592218298e-02,6.121938685374066907e-02
4.641588833612777382e-02,6.121938685374066907e-02
6.235507341273912457e-02,6.121938685374066907e-02
8.376776400682915680e-02,6.121938685374066907e-02
1.125335582600764522e-01,6.121938685374066907e-02
1.511775070615661576e-01,6.121938685374066907e-02
2.030917620904734711e-01,6.121938685374066907e-02
2.728333376486766770e-01,6.121938685374066907e-02
3.665241237079626124e-01,6.121938685374066907e-02
4.923882631706736346e-01,6.121938685374066907e-02
6.614740641230145712e-01,6.121938685374066907e-02
8.886238162743398394e-01,6.121938685374066907e-02
1.193776641714435760e+00,6.121938685374066907e-02
1.603718743751329390e+00,6.121938685374066907e-02
2.154434690031882038e+00,6.121938685374066907e-02
2.894266124716748934e+00,6.121938685374066907e-02
3.888155180308085157e+00,6.121938685374066907e-02
5.223345074266838139e+00,6.121938685374066907e-02
7.017038286703822791e+00,6.121938685374066907e-02
9.426684551178844629e+00,6.121938685374066907e-02
1.266380173467402237e+01,6.121938685374066907e-02
1.701254279852585682e+01,6.121938685374066907e-02
2.285463864134988299e+01,6.121938685374066907e-02
3.070290629757849743e+01,6.121938685374066907e-02
4.124626382901347910e+01,6.121938685374066907e-02
5.541020330009480688e+01,6.121938685374066907e-02
7.443803013251681477e+01,6.121938685374066907e-02
1.000000000000000000e+02,6.121938685374066907e-02
1.000000000000000021e-03,7.891722325860574261e-02
1.343399332598900139e-03,7.891722325860574261e-02
1.804721766827170138e-03,7.891722325860574261e-02
2.424462017082328232e-03,7.891722325860574261e-02
3.257020655659782771e-03,7.891722325860574261e-02
4.375479375074184211e-03,7.891722325860574261e-02
5.878016072274911547e-03,7.891722325860574261e-02
7.896522868499724832e-03,7.891722325860574261e-02
1.060818355139448235e-02,7.891722325860574261e-02
1.425102670302997795e-02,7.891722325860574261e-02
1.914481976169957536e-02,7.891722325860574261e-02
2.571913809059344497e-02,7.891722325860574261e-02
3.455107294592218298e-02,7.891722325860574261e-02
4.641588833612777382e-02,7.891722325860574261e-02
6.235507341273912457e-02,7.891722325860574261e-02
8.376776400682915680e-02,7.891722325860574261e-02
1.125335582600764522e-01,7.891722325860574261e-02
1.511775070615661576e-01,7.891722325860574261e-02
2.030917620904734711e-01,7.891722325860574261e-02
2.728333376486766770e-01,7.891722325860574261e-02
3.665241237079626124e-01,7.891722325860574261e-02
4.923882631706736346e-01,7.891722325860574261e-02
6.614740641230145712e-01,7.891722325860574261e-02
8.886238162743398394e-01,7.891722325860574261e-02
1.193776641714435760e+00,7.891722325860574261e-02
1.603718743751329390e+00,7.891722325860574261e-02
2.154434690031882038e+00,7.891722325860574261e-02
2.894266124716748934e+00,7.891722325860574261e-02
3.888155180308085157e+00,7.891722325860574261e-02
5.223345074266838139e+00,7.891722325860574261e-02
7.017038286703822791e+00,7.891722325860574261e-02
9.426684551178844629e+00,7.891722325860574261e-02
1.266380173467402237e+01,7.891722325860574261e-02
1.701254279852585682e+01,7.891722325860574261e-02
2.285463864134988299e+01,7.891722325860574261e-02
3.070290629757849743e+01,7.891722325860574261e-02
4.124626382901347910e+01,7.891722325860574261e-02
5.541020330009480688e+01,7.891722325860574261e-02
7.443803013251681477e+01,7.891722325860574261e-02
1.000000000000000000e+02,7.891722325860574261e-02
1.000000000000000021e-03,1.017313051783380468e-01
1.343399332598900139e-03,1.017313051783380468e-01
1.804721766827170138e-03,1.017313051783380468e-01
2.424462017082328232e-03,1.017313051783380468e-01
3.257020655659782771e-03,1.017313051783380468e-01
4.375479375074184211e-03,1.017313051783380468e-01
5.878016072274911547e-03,1.017313051783380468e-01
7.896522868499724832e-03,1.017313051783380468e-01
1.060818355139448235e-02,1.017313051783380468e-01
1.425102670302997795e-02,1.017313051783380468e-01
1.914481976169957536e-02,1.017313051783380468e-01
2.571913809059344497e-02,1.017313051783380468e-01
3.455107294592218298e-02,1.017313051783380468e-01
4.641588833612777382e-02,1.017313051783380468e-01
6.235507341273912457e-02,1.017313051783380468e-01
8.376776400682915680e-02,1.017313051783380468e-01
1.125335582600764522e-01,1.017313051783380468e-01
1.511775070615661576e-01,1.017313051783380468e-01
2.030917620904734711e-01,1.017313051783380468e-01
2.728333376486766770e-01,1.017313051783380468e-01
3.665241237079626124e-01,1.017313051783380468e-01
4.923882631706736346e-01,1.017313051783380468e-01
6.614740641230145712e-01,1.017313051783380468e-01
8.886238162743398394e-01,1.017313051783380468e-01
1.193776641714435760e+00,1.017313051783380468e-01
1.603718743751329390e+00,1.017313051783380468e-01
2.154434690031882038e+00,1.017313051783380468e-01
2.894266124716748934e+00,1.017313051783380468e-01
3.888155180308085157e+00,1.017313051783380468e-01
5.223345074266838139e+00,1.017313051783380468e-01
7.017038286703822791e+00,1.017313051783380468e-01
9.426684551178844629e+00,1.017313051783380468e-01
1.266380173467402237e+01,1.017313051783380468e-01
1.701254279852585682e+01,1.017313051783380468e-01
2.285463864134988299e+01,1.017313051783380468e-01
3.070290629757849743e+01,1.017313051783380468e-01
4.124626382901347910e+01,1.017313051783380468e-01
5.541020330009480688e+01,1.017313051783380468e-01
7.443803013251681477e+01,1.017313051783380468e-01
1.000000000000000000e+02,1.017313051783380468e-01
1.000000000000000021e-03,1.311406816655778240e-01
1.343399332598900139e-03,1.311406816655778240e-01
1.804721766827170138e-03,1.311406816655778240e-01
2.424462017082328232e-03,1.311406816655778240e-01
3.257020655659782771e-03,1.311406816655778240e-01
4.375479375074184211e-03,1.311406816655778240e-01
5.878016072274911547e-03,1.311406816655778240e-01
7.896522868499724832e-03,1.311406816655778240e-01
1.060818355139448235e-02,1.311406816655778240e-01
1.425102670302997795e-02,1.311406816655778240e-01
1.914481976169957536e-02,1.311406816655778240e-01
2.571913809059344497e-02,1.311406816655778240e-01
3.455107294592218298e-02,1.311406816655778240e-01
4.641588833612777382e-02,1.311406816655778240e-01
6.235507341273912457e-02,1.311406816655778240e-01
8.376776400682915680e-02,1.311406816655778240e-01
1.125335582600764522e-01,1.311406816655778240e-01
1.511775070615661576e-01,1.311406816655778240e-01
2.030917620904734711e-01,1.311406816655778240e-01
2.728333376486766770e-01,1.311406816655778240e-01
3.665241237079626124e-01,1.311406816655778240e-01
4.923882631706736346e-01,1.311406816655778240e-01
6.614740641230145712e-01,1.311406816655778240e-01
8.886238162743398394e-01,1.311406816655778240e-01
1.193776641714435760e+00,1.311406816655778240e-01
1.603718743751329390e+00,1.311406816655778240e-01
2.154434690031882038e+00,1.311406816655778240e-01
2.894266124716748934e+00,1.311406816655778240e-01
3.888155180308085157e+00,1.311406816655778240e-01
5.223345074266838139e+00,1.311406816655778240e-01
7.017038286703822791e+00,1.311406816655778240e-01
9.426684551178844629e+00,1.311406816655778240e-01
1.266380173467402237e+01,1.311406816655778240e-01
1.701254279852585682e+01,1.311406816655778240e-01
2.285463864134988299e+01,1.311406816655778240e-01
3.070290629757849743e+01,1.311406816655778240e-01
4.124626382901347910e+01,1.311406816655778240e-01
5.541020330009480688e+01,1.311406816655778240e-01
7.443803013251681477e+01,1.311406816655778240e-01
1.000000000000000000e+02,1.311406816655778240e-01
1.000000000000000021e-03,1.690519782240483548e-01
1.343399332598900139e-03,1.690519782240483548e-01
1.804721766827170138e-03,1.690519782240483548e-01
2.424462017082328232e-03,1.690519782240483548e-01
3.257020655659782771e-03,1.690519782240483548e-01
4.375479375074184211e-03,1.690519782240483548e-01
5.878016072274911547e-03,1.690519782240483548e-01
7.896522868499724832e-03,1.690519782240483548e-01
1.060818355139448235e-02,1.690519782240483548e-01
1.425102670302997795e-02,1.690519782240483548e-01
1.914481976169957536e-02,1.690519782240483548e-01
2.571913809059344497e-02,1.690519782240483548e-01
3.455107294592218298e-02,1.690519782240483548e-01
4.641588833612777382e-02,1.690519782240483548e-01
6.235507341273912457e-02,1.690519782240483548e-01
8.376776400682915680e-02,1.690519782240483548e-01
1.125335582600764522e-01,1.690519782240483548e-01
1.511775070615661576e-01,1.690519782240483548e-01
2.030917620904734711e-01,1.690519782240483548e-01
2.728333376486766770e-01,1.690519782240483548e-01
3.665241237079626124e-01,1.690519782240483548e-01
4.923882631706736346e-01,1.690519782240483548e-01
6.614740641230145712e-01,1.690519782240483548e-01
8.886238162743398394e-01,1.690519782240483548e-01
1.193776641714435760e+00,1.690519782240483548e-01
1.603718743751329390e+00,1.690519782240483548e-01
2.154434690031882038e+00,1.690519782240483548e-01
2.894266124716748934e+00,1.690519782240483548e-01
3.888155180308085157e+00,1.690519782240483548e-01
5.223345074266838139e+00,1.690519782240483548e-01
7.017038286703822791e+00,1.690519782240483548e-01
9.426684551178844629e+00,1.690519782240483548e-01
1.266380173467402237e+01,1.690519782240483548e-01
1.701254279852585682e+01,1.690519782240483548e-01
2.285463864134988299e+01,1.690519782240483548e-01
3.070290629757849743e+01,1.690519782240483548e-01
4.124626382901347910e+01,1.690519782240483548e-01
5.541020330009480688e+01,1.690519782240483548e-01
7.443803013251681477e+01,1.690519782240483548e-01
1.000000000000000000e+02,1.690519782240483548e-01
1.000000000000000021e-03,2.179230043530077654e-01
1.343399332598900139e-03,2.179230043530077654e-01
1.804721766827170138e-03,2.179230043530077654e-01
2.424462017082328232e-03,2.179230043530077654e-01
3.257020655659782771e-03,2.179230043530077654e-01
4.375479375074184211e-03,2.179230043530077654e-01
5.878016072274911547e-03,2.179230043530077654e-01
7.896522868499724832e-03,2.179230043530077654e-01
1.060818355139448235e-02,2.179230043530077654e-01
1.425102670302997795e-02,2.179230043530077654e-01
1.914481976169957536e-02,2.179230043530077654e-01
2.571913809059344497e-02,2.179230043530077654e-01
3.455107294592218298e-02,2.179230043530077654e-01
4.641588833612777382e-02,2.179230043530077654e-01
6.235507341273912457e-02,2.179230043530077654e-01
8.376776400682915680e-02,2.179230043530077654e-01
1.125335582600764522e-01,2.179230043530077654e-01
1.511775070615661576e-01,2.179230043530077654e-01
2.030917620904734711e-01,2.179230043530077654e-01
2.728333376486766770e-01,2.179230043530077654e-01
3.665241237079626124e-01,2.179230043530077654e-01
4.923882631706736346e-01,2.179230043530077654e-01
6.614740641230145712e-01,2.179230043530077654e-01
8.886238162743398394e-01,2.179230043530077654e-01
1.193776641714435760e+00,2.179230043530077654e-01
1.603718743751329390e+00,2.179230043530077654e-01
2.154434690031882038e+00,2.179230043530077654e-01
2.894266124716748934e+00,2.179230043530077654e-01
3.888155180308085157e+00,2.179230043530077654e-01
5.223345074266838139e+00,2.179230043530077654e-01
7.017038286703822791e+00,2.179230043530077654e-01
9.426684551178844629e+00,2.179230043530077654e-01
1.266380173467402237e+01,2.179230043530077654e-01
1.701254279852585682e+01,2.179230043530077654e-01
2.285463864134988299e+01,2.179230043530077654e-01
3.070290629757849743e+01,2.179230043530077654e-01
4.124626382901347910e+01,2.179230043530077654e-01
5.541020330009480688e+01,2.179230043530077654e-01
7.443803013251681477e+01,2.179230043530077654e-01
1.000000000000000000e+02,2.179230043530077654e-01
1.000000000000000021e-03,2.809220946429913934e-01
1.343399332598900139e-03,2.809220946429913934e-01
1.804721766827170138e-03,2.809220946429913934e-01
2.424462017082328232e-03,2.809220946429913934e-01
3.257020655659782771e-03,2.809220946429913934e-01
4.375479375074184211e-03,2.809220946429913934e-01
5.878016072274911547e-03,2.809220946429913934e-01
7.896522868499724832e-03,2.809220946429913934e-01
1.060818355139448235e-02,2.809220946429913934e-01
1.425102670302997795e-02,2.809220946429913934e-01
1.914481976169957536e-02,2.809220946429913934e-01
2.571913809059344497e-02,2.809220946429913934e-01
3.455107294592218298e-02,2.809220946429913934e-01
4.641588833612777382e-02,2.809220946429913934e-01
6.235507341273912457e-02,2.809220946429913934e-01
8.376776400682915680e-02,2.809220946429913934e-01
1.125335582600764522e-01,2.809220946429913934e-01
1.511775070615661576e-01,2.809220946429913934e-01
2.030917620904734711e-01,2.809220946429913934e-01
2.728333376486766770e-01,2.809220946429913934e-01
3.665241237079626124e-01,2.809220946429913934e-01
4.923882631706736346e-01,2.809220946429913934e-01
6.614740641230145712e-01,2.809220946429913934e-01
8.886238162743398394e-01,2.809220946429913934e-01
1.193776641714435760e+00,2.809220946429913934e-01
1.603718743751329390e+00,2.809220946429913934e-01
2.154434690031882038e+00,2.809220946429913934e-01
2.894266124716748934e+00,2.809220946429913934e-01
3.888155180308085157e+00,2.809220946429913934e-01
5.223345074266838139e+00,2.809220946429913934e-01
7.017038286703822791e+00,2.809220946429913934e-01
9.426684551178844629e+00,2.809220946429913934e-01
1.266380173467402237e+01,2.809220946429913934e-01
1.701254279852585682e+01,2.809220946429913934e-01
2.285463864134988299e+01,2.809220946429913934e-01
3.070290629757849743e+01,2.809220946429913934e-01
4.124626382901347910e+01,2.809220946429913934e-01
5.541020330009480688e+01,2.809220946429913934e-01
7.443803013251681477e+01,2.809220946429913934e-01
1.000000000000000000e+02,2.809220946429913934e-01
1.000000000000000021e-03,3.621335135907445268e-01
1.343399332598900139e-03,3.621335135907445268e-01
1.804721766827170138e-03,3.621335135907445268e-01
2.424462017082328232e-03,3.621335135907445268e-01
3.257020655659782771e-03,3.621335135907445268e-01
4.375479375074184211e-03,3.621335135907445268e-01
5.878016072274911547e-03,3.621335135907445268e-01
7.896522868499724832e-03,3.621335135907445268e-01
1.060818355139448235e-02,3.621335135907445268e-01
1.425102670302997795e-02,3.621335135907445268e-01
1.914481976169957536e-02,3.621335135907445268e-01
2.571913809059344497e-02,3.621335135907445268e-01
3.455107294592218298e-02,3.621335135907445268e-01
4.641588833612777382e-02,3.621335135907445268e-01
6.235507341273912457e-02,3.621335135907445268e-01
8.376776400682915680e-02,3.621335135907445268e-01
1.125335582600764522e-01,3.621335135907445268e-01
1.511775070615661576e-01,3.621335135907445268e-01
2.030917620904734711e-01,3.621335135907445268e-01
2.728333376486766770e-01,3.621335135907445268e-01
3.665241237079626124e-01,3.621335135907445268e-01
4.923882631706736346e-01,3.621335135907445268e-01
6.614740641230145712e-01,3.621335135907445268e-01
8.886238162743398394e-01,3.621335135907445268e-01
1.193776641714435760e+00,3.621335135907445268e-01
1.603718743751329390e+00,3.621335135907445268e-01
2.154434690031882038e+00,3.621335135907445268e-01
2.894266124716748934e+00,3.621335135907445268e-01
3.888155180308085157e+00,3.621335135907445268e-01
5.223345074266838139e+00,3.621335135907445268e-01
7.017038286703822791e+00,3.621335135907445268e-01
9.426684551178844629e+00,3.621335135907445268e-01
1.266380173467402237e+01,3.621335135907445268e-01
1.701254279852585682e+01,3.621335135907445268e-01
2.285463864134988299e+01,3.621335135907445268e-01
3.070290629757849743e+01,3.621335135907445268e-01
4.124626382901347910e+01,3.621335135907445268e-01
5.541020330009480688e+01,3.621335135907445268e-01
7.443803013251681477e+01,3.621335135907445268e-01
1.000000000000000000e+02,3.621335135907445268e-01
1.000000000000000021e-03,4.668222406366341337e-01
1.343399332598900139e-03,4.668222406366341337e-01
1.804721766827170138e-03,4.668222406366341337e-01
2.424462017082328232e-03,4.668222406366341337e-01
3.257020655659782771e-03,4.668222406366341337e-01
4.375479375074184211e-03,4.668222406366341337e-01
5.878016072274911547e-03,4.668222406366341337e-01
7.896522868499724832e-03,4.668222406366341337e-01
1.060818355139448235e-02,4.668222406366341337e-01
1.425102670302997795e-02,4.668222406366341337e-01
1.914481976169957536e-02,4.668222406366341337e-01
2.571913809059344497e-02,4.668222406366341337e-01
3.455107294592218298e-02,4.668222406366341337e-01
4.641588833612777382e-02,4.668222406366341337e-01
6.235507341273912457e-02,4.668222406366341337e-01
8.376776400682915680e-02,4.668222406366341337e-01
1.125335582600764522e-01,4.668222406366341337e-01
1.511775070615661576e-01,4.668222406366341337e-01
2.030917620904734711e-01,4.668222406366341337e-01
2.728333376486766770e-01,4.668222406366341337e-01
3.665241237079626124e-01,4.668222406366341337e-01
4.923882631706736346e-01,4.668222406366341337e-01
6.614740641230145712e-01,4.668222406366341337e-01
8.886238162743398394e-01,4.668222406366341337e-01
1.193776641714435760e+00,4.668222406366341337e-01
1.603718743751329390e+00,4.668222406366341337e-01
2.154434690031882038e+00,4.668222406366341337e-01
2.894266124716748934e+00,4.668222406366341337e-01
3.888155180308085157e+00,4.668222406366341337e-01
5.223345074266838139e+00,4.668222406366341337e-01
7.017038286703822791e+00,4.668222406366341337e-01
9.426684551178844629e+00,4.668222406366341337e-01
1.266380173467402237e+01,4.668222406366341337e-01
1.701254279852585682e+01,4.668222406366341337e-01
2.285463864134988299e+01,4.668222406366341337e-01
3.070290629757849743e+01,4.668222406366341337e-01
4.124626382901347910e+01,4.668222406366341337e-01
5.541020330009480688e+01,4.668222406366341337e-01
7.443803013251681477e+01,4.668222406366341337e-01
1.000000000000000000e+02,4.668222406366341337e-01
1.000000000000000021e-03,6.017753015792058902e-01
1.343399332598900139e-03,6.017753015792058902e-01
1.804721766827170138e-03,6.017753015792058902e-01
2.424462017082328232e-03,6.017753015792058902e-01
3.257020655659782771e-03,6.017753015792058902e-01
4.375479375074184211e-03,6.017753015792058902e-01
5.878016072274911547e-03,6.017753015792058902e-01
7.896522868499724832e-03,6.017753015792058902e-01
1.060818355139448235e-02,6.017753015792058902e-01
1.425102670302997795e-02,6.017753015792058902e-01
1.914481976169957536e-02,6.017753015792058902e-01
2.571913809059344497e-02,6.017753015792058902e-01
3.455107294592218298e-02,6.017753015792058902e-01
4.641588833612777382e-02,6.017753015792058902e-01
6.235507341273912457e-02,6.017753015792058902e-01
8.376776400682915680e-02,6.017753015792058902e-01
1.125335582600764522e-01,6.017753015792058902e-01
1.511775070615661576e-01,6.017753015792058902e-01
2.030917620904734711e-01,6.017753015792058902e-01
2.728333376486766770e-01,6.017753015792058902e-01
3.665241237079626124e-01,6.017753015792058902e-01
4.923882631706736346e-01,6.017753015792058902e-01
6.614740641230145712e-01,6.017753015792058902e-01
8.886238162743398394e-01,6.017753015792058902e-01
1.193776641714435760e+00,6.017753015792058902e-01
1.603718743751329390e+00,6.017753015792058902e-01
2.154434690031882038e+00,6.017753015792058902e-01
2.894266124716748934e+00,6.017753015792058902e-01
3.888155180308085157e+00,6.017753015792058902e-01
5.223345074266838139e+00,6.017753015792058902e-01
7.017038286703822791e+00,6.017753015792058902e-01
9.426684551178844629e+00,6.017753015792058902e-01
1.266380173467402237e+01,6.017753015792058902e-01
1.701254279852585682e+01,6.017753015792058902e-01
2.285463864134988299e+01,6.017753015792058902e-01
3.070290629757849743e+01,6.017753015792058902e-01
4.124626382901347910e+01,6.017753015792058902e-01
5.541020330009480688e+01,6.017753015792058902e-01
7.443803013251681477e+01,6.017753015792058902e-01
1.000000000000000000e+02,6.017753015792058902e-01
1.000000000000000021e-03,7.757417750638454512e-01
1.343399332598900139e-03,7.757417750638454512e-01
1.804721766827170138e-03,7.757417750638454512e-01
2.424462017082328232e-03,7.757417750638454512e-01
3.257020655659782771e-03,7.757417750638454512e-01
4.375479375074184211e-03,7.757417750638454512e-01
5.878016072274911547e-03,7.757417750638454512e-01
7.896522868499724832e-03,7.757417750638454512e-01
1.060818355139448235e-02,7.757417750638454512e-01
1.425102670302997795e-02,7.757417750638454512e-01
1.914481976169957536e-02,7.757417750638454512e-01
2.571913809059344497e-02,7.757417750638454512e-01
3.455107294592218298e-02,7.757417750638454512e-01
4.641588833612777382e-02,7.757417750638454512e-01
6.235507341273912457e-02,7.757417750638454512e-01
8.376776400682915680e-02,7.757417750638454512e-01
1.125335582600764522e-01,7.757417750638454512e-01
1.511775070615661576e-01,7.757417750638454512e-01
2.030917620904734711e-01,7.757417750638454512e-01
2.728333376486766770e-01,7.757417750638454512e-01
3.665241237079626124e-01,7.757417750638454512e-01
4.923882631706736346e-01,7.757417750638454512e-01
6.614740641230145712e-01,7.757417750638454512e-01
8.886238162743398394e-01,7.757417750638454512e-01
1.193776641714435760e+00,7.757417750638454512e-01
1.603718743751329390e+00,7.757417750638454512e-01
2.154434690031882038e+00,7.757417750638454512e-01
2.894266124716748934e+00,7.757417750638454512e-01
3.888155180308085157e+00,7.757417750638454512e-01
5.223345074266838139e+00,7.757417750638454512e-01
7.017038286703822791e+00,7.757417750638454512e-01
9.426684551178844629e+00,7.757417750638454512e-01
1.266380173467402237e+01,7.757417750638454512e-01
1.701254279852585682e+01,7.757417750638454512e-01
2.285463864134988299e+01,7.757417750638454512e-01
3.070290629757849743e+01,7.757417750638454512e-01
4.124626382901347910e+01,7.757417750638454512e-01
5.541020330009480688e+01,7.757417750638454512e-01
7.443803013251681477e+01,7.757417750638454512e-01
1.000000000000000000e+02,7.757417750638454512e-01
1.000000000000000021e-03,1.000000000000000000e+00
1.343399332598900139e-03,1.000000000000000000e+00
1.804721766827170138e-03,1.000000000000000000e+00
2.424462017082328232e-03,1.000000000000000000e+00
3.257020655659782771e-03,1.000000000000000000e+00
4.375479375074184211e-03,1.000000000000000000e+00
5.878016072274911547e-03,1.000000000000000000e+00
7.896522868499724832e-03,1.000000000000000000e+00
1.060818355139448235e-02,1.000000000000000000e+00
1.425102670302997795e-02,1.000000000000000000e+00
1.914481976169957536e-02,1.000000000000000000e+00
2.571913809059344497e-02,1.000000000000000000e+00
3.455107294592218298e-02,1.000000000000000000e+00
4.641588833612777382e-02,1.000000000000000000e+00
6.235507341273912457e-02,1.000000000000000000e+00
8.376776400682915680e-02,1.000000000000000000e+00
1.125335582600764522e-01,1.000000000000000000e+00
1.511775070615661576e-01,1.000000000000000000e+00
2.030917620904734711e-01,1.000000000000000000e+00
2.728333376486766770e-01,1.000000000000000000e+00
3.665241237079626124e-01,1.000000000000000000e+00
4.923882631706736346e-01,1.000000000000000000e+00
6.614740641230145712e-01,1.000000000000000000e+00
8.886238162743398394e-01,1.000000000000000000e+00
1.193776641714435760e+00,1.000000000000000000e+00
1.603718743751329390e+00,1.000000000000000000e+00
2.154434690031882038e+00,1.000000000000000000e+00
2.894266124716748934e+00,1.000000000000000000e+00
3.888155180308085157e+00,1.000000000000000000e+00
5.223345074266838139e+00,1.000000000000000000e+00
7.017038286703822791e+00,1.000000000000000000e+00
9.426684551178844629e+00,1.000000000000000000e+00
1.266380173467402237e+01,1.000000000000000000e+00
1.701254279852585682e+01,1.000000000000000000e+00
2.285463864134988299e+01,1.000000000000000000e+00
3.070290629757849743e+01,1.000000000000000000e+00
4.124626382901347910e+01,1.000000000000000000e+00
5.541020330009480688e+01,1.000000000000000000e+00
7.443803013251681477e+01,1.000000000000000000e+00
1.000000000000000000e+02,1.000000000000000000e+00
