# pNcenT, phiNcenT
2.999999999999999542e-02,1.000000000000000082e-05
3.874534099716626934e-02,1.000000000000000082e-05
5.004004829955644579e-02,1.000000000000000082e-05
6.462729116269952390e-02,1.000000000000000082e-05
8.346688112739811261e-02,1.000000000000000082e-05
1.077984257083660635e-01,1.000000000000000082e-05
1.392228921009446008e-01,1.000000000000000082e-05
1.798079476354262352e-01,1.000000000000000082e-05
2.322240081711735571e-01,1.000000000000000082e-05
2.999199461440281711e-01,1.000000000000000082e-05
3.873500195067373086e-01,1.000000000000000082e-05
5.002669530349181937e-01,1.000000000000000082e-05
6.461004561650423028e-01,1.000000000000000082e-05
8.344460830846414101e-01,1.000000000000000082e-05
1.077696601095472939e+00,1.000000000000000082e-05
1.391857410031039022e+00,1.000000000000000082e-05
1.797599665702842797e+00,1.000000000000000082e-05
2.321620400801625017e+00,1.000000000000000082e-05
2.998399136501226359e+00,1.000000000000000082e-05
3.872466566311632441e+00,1.000000000000000082e-05
5.001334587062326698e+00,1.000000000000000082e-05
6.459280467221720556e+00,1.000000000000000082e-05
8.342234143294701809e+00,1.000000000000000082e-05
1.077409021867188166e+01,1.000000000000000082e-05
1.391485998188919204e+01,1.000000000000000082e-05
1.797119983087065620e+01,1.000000000000000082e-05
2.321000885251001122e+01,1.000000000000000082e-05
2.997599025125830607e+01,1.000000000000000082e-05
3.871433213375783566e+01,1.000000000000000082e-05
4.999999999999999289e+01,1.000000000000000082e-05
2.999999999999999542e-02,1.572230464026073041e-05
3.874534099716626934e-02,1.572230464026073041e-05
5.004004829955644579e-02,1.572230464026073041e-05
6.462729116269952390e-02,1.572230464026073041e-05
8.346688112739811261e-02,1.572230464026073041e-05
1.077984257083660635e-01,1.572230464026073041e-05
1.392228921009446008e-01,1.572230464026073041e-05
1.798079476354262352e-01,1.572230464026073041e-05
2.322240081711735571e-01,1.572230464026073041e-05
2.999199461440281711e-01,1.572230464026073041e-05
3.873500195067373086e-01,1.572230464026073041e-05
5.002669530349181937e-01,1.572230464026073041e-05
6.461004561650423028e-01,1.572230464026073041e-05
8.344460830846414101e-01,1.572230464026073041e-05
1.077696601095472939e+00,1.572230464026073041e-05
1.391857410031039022e+00,1.572230464026073041e-05
1.797599665702842797e+00,1.572230464026073041e-05
2.321620400801625017e+00,1.572230464026073041e-05
2.998399136501226359e+00,1.572230464026073041e-05
3.872466566311632441e+00,1.572230464026073041e-05
5.001334587062326698e+00,1.572230464026073041e-05
6.459280467221720556e+00,1.572230464026073041e-05
8.342234143294701809e+00,1.572230464026073041e-05
1.077409021867188166e+01,1.572230464026073041e-05
1.391485998188919204e+01,1.572230464026073041e-05
1.797119983087065620e+01,1.572230464026073041e-05
2.321000885251001122e+01,1.572230464026073041e-05
2.997599025125830607e+01,1.572230464026073041e-05
3.871433213375783566e+01,1.572230464026073041e-05
4.999999999999999289e+01,1.572230464026073041e-05
2.999999999999999542e-02,2.471908632011635663e-05
3.874534099716626934e-02,2.471908632011635663e-05
5.004004829955644579e-02,2.471908632011635663e-05
6.462729116269952390e-02,2.471908632011635663e-05
8.346688112739811261e-02,2.471908632011635663e-05
1.077984257083660635e-01,2.471908632011635663e-05
1.392228921009446008e-01,2.471908632011635663e-05
1.798079476354262352e-01,2.471908632011635663e-05
2.322240081711735571e-01,2.471908632011635663e-05
2.999199461440281711e-01,2.471908632011635663e-05
3.873500195067373086e-01,2.471908632011635663e-05
5.002669530349181937e-01,2.471908632011635663e-05
6.461004561650423028e-01,2.471908632011635663e-05
8.344460830846414101e-01,2.471908632011635663e-05
1.077696601095472939e+00,2.471908632011635663e-05
1.391857410031039022e+00,2.471908632011635663e-05
1.797599665702842797e+00,2.471908632011635663e-05
2.321620400801625017e+00,2.471908632011635663e-05
2.998399136501226359e+00,2.471908632011635663e-05
3.872466566311632441e+00,2.471908632011635663e-05
5.001334587062326698e+00,2.471908632011635663e-05
6.459280467221720556e+00,2.471908632011635663e-05
8.342234143294701809e+00,2.471908632011635663e-05
1.077409021867188166e+01,2.471908632011635663e-05
1.391485998188919204e+01,2.471908632011635663e-05
1.797119983087065620e+01,2.471908632011635663e-05
2.321000885251001122e+01,2.471908632011635663e-05
2.997599025125830607e+01,2.471908632011635663e-05
3.871433213375783566e+01,2.471908632011635663e-05
4.999999999999999289e+01,2.471908632011635663e-05
2.999999999999999542e-02,3.886410055537709387e-05
3.874534099716626934e-02,3.886410055537709387e-05
5.004004829955644579e-02,3.886410055537709387e-05
6.462729116269952390e-02,3.886410055537709387e-05
8.346688112739811261e-02,3.886410055537709387e-05
1.077984257083660635e-01,3.886410055537709387e-05
1.392228921009446008e-01,3.886410055537709387e-05
1.798079476354262352e-01,3.886410055537709387e-05
2.322240081711735571e-01,3.886410055537709387e-05
2.999199461440281711e-01,3.886410055537709387e-05
3.873500195067373086e-01,3.886410055537709387e-05
5.002669530349181937e-01,3.886410055537709387e-05
6.461004561650423028e-01,3.886410055537709387e-05
8.344460830846414101e-01,3.886410055537709387e-05
1.077696601095472939e+00,3.886410055537709387e-05
1.391857410031039022e+00,3.886410055537709387e-05
1.797599665702842797e+00,3.886410055537709387e-05
2.321620400801625017e+00,3.886410055537709387e-05
2.998399136501226359e+00,3.886410055537709387e-05
3.872466566311632441e+00,3.886410055537709387e-05
5.001334587062326698e+00,3.886410055537709387e-05
6.459280467221720556e+00,3.886410055537709387e-05
8.342234143294701809e+00,3.886410055537709387e-05
1.077409021867188166e+01,3.886410055537709387e-05
1.391485998188919204e+01,3.886410055537709387e-05
1.797119983087065620e+01,3.886410055537709387e-05
2.321000885251001122e+01,3.886410055537709387e-05
2.997599025125830607e+01,3.886410055537709387e-05
3.871433213375783566e+01,3.886410055537709387e-05
4.999999999999999289e+01,3.886410055537709387e-05
2.999999999999999542e-02,6.110332285013636935e-05
3.874534099716626934e-02,6.110332285013636935e-05
5.004004829955644579e-02,6.110332285013636935e-05
6.462729116269952390e-02,6.110332285013636935e-05
8.346688112739811261e-02,6.110332285013636935e-05
1.077984257083660635e-01,6.110332285013636935e-05
1.392228921009446008e-01,6.110332285013636935e-05
1.798079476354262352e-01,6.110332285013636935e-05
2.322240081711735571e-01,6.110332285013636935e-05
2.999199461440281711e-01,6.110332285013636935e-05
3.873500195067373086e-01,6.110332285013636935e-05
5.002669530349181937e-01,6.110332285013636935e-05
6.461004561650423028e-01,6.110332285013636935e-05
8.344460830846414101e-01,6.110332285013636935e-05
1.077696601095472939e+00,6.110332285013636935e-05
1.391857410031039022e+00,6.110332285013636935e-05
1.797599665702842797e+00,6.110332285013636935e-05
2.321620400801625017e+00,6.110332285013636935e-05
2.998399136501226359e+00,6.110332285013636935e-05
3.872466566311632441e+00,6.110332285013636935e-05
5.001334587062326698e+00,6.110332285013636935e-05
6.459280467221720556e+00,6.110332285013636935e-05
8.342234143294701809e+00,6.110332285013636935e-05
1.077409021867188166e+01,6.110332285013636935e-05
1.391485998188919204e+01,6.110332285013636935e-05
1.797119983087065620e+01,6.110332285013636935e-05
2.321000885251001122e+01,6.110332285013636935e-05
2.997599025125830607e+01,6.110332285013636935e-05
3.871433213375783566e+01,6.110332285013636935e-05
4.999999999999999289e+01,6.110332285013636935e-05
2.999999999999999542e-02,9.606850563820485203e-05
3.874534099716626934e-02,9.606850563820485203e-05
5.004004829955644579e-02,9.606850563820485203e-05
6.462729116269952390e-02,9.606850563820485203e-05
8.346688112739811261e-02,9.606850563820485203e-05
1.077984257083660635e-01,9.606850563820485203e-05
1.392228921009446008e-01,9.606850563820485203e-05
1.798079476354262352e-01,9.606850563820485203e-05
2.322240081711735571e-01,9.606850563820485203e-05
2.999199461440281711e-01,9.606850563820485203e-05
3.873500195067373086e-01,9.606850563820485203e-05
5.002669530349181937e-01,9.606850563820485203e-05
6.461004561650423028e-01,9.606850563820485203e-05
8.344460830846414101e-01,9.606850563820485203e-05
1.077696601095472939e+00,9.606850563820485203e-05
1.391857410031039022e+00,9.606850563820485203e-05
1.797599665702842797e+00,9.606850563820485203e-05
2.321620400801625017e+00,9.606850563820485203e-05
2.998399136501226359e+00,9.606850563820485203e-05
3.872466566311632441e+00,9.606850563820485203e-05
5.001334587062326698e+00,9.606850563820485203e-05
6.459280467221720556e+00,9.606850563820485203e-05
8.342234143294701809e+00,9.606850563820485203e-05
1.077409021867188166e+01,9.606850563820485203e-05
1.391485998188919204e+01,9.606850563820485203e-05
1.797119983087065620e+01,9.606850563820485203e-05
2.321000885251001122e+01,9.606850563820485203e-05
2.997599025125830607e+01,9.606850563820485203e-05
3.871433213375783566e+01,9.606850563820485203e-05
4.999999999999999289e+01,9.606850563820485203e-05
2.999999999999999542e-02,1.510418311978460723e-04
3.874534099716626934e-02,1.510418311978460723e-04
5.004004829955644579e-02,1.510418311978460723e-04
6.462729116269952390e-02,1.510418311978460723e-04
8.346688112739811261e-02,1.510418311978460723e-04
1.077984257083660635e-01,1.510418311978460723e-04
1.392228921009446008e-01,1.510418311978460723e-04
1.798079476354262352e-01,1.510418311978460723e-04
2.322240081711735571e-01,1.510418311978460723e-04
2.999199461440281711e-01,1.510418311978460723e-04
3.873500195067373086e-01,1.510418311978460723e-04
5.002669530349181937e-01,1.510418311978460723e-04
6.461004561650423028e-01,1.510418311978460723e-04
8.344460830846414101e-01,1.510418311978460723e-04
1.077696601095472939e+00,1.510418311978460723e-04
1.391857410031039022e+00,1.510418311978460723e-04
1.797599665702842797e+00,1.510418311978460723e-04
2.321620400801625017e+00,1.510418311978460723e-04
2.998399136501226359e+00,1.510418311978460723e-04
3.872466566311632441e+00,1.510418311978460723e-04
5.001334587062326698e+00,1.510418311978460723e-04
6.459280467221720556e+00,1.510418311978460723e-04
8.342234143294701809e+00,1.510418311978460723e-04
1.077409021867188166e+01,1.510418311978460723e-04
1.391485998188919204e+01,1.510418311978460723e-04
1.797119983087065620e+01,1.510418311978460723e-04
2.321000885251001122e+01,1.510418311978460723e-04
2.997599025125830607e+01,1.510418311978460723e-04
3.871433213375783566e+01,1.510418311978460723e-04
4.999999999999999289e+01,1.510418311978460723e-04
2.999999999999999542e-02,2.374725683515370770e-04
3.874534099716626934e-02,2.374725683515370770e-04
5.004004829955644579e-02,2.374725683515370770e-04
6.462729116269952390e-02,2.374725683515370770e-04
8.346688112739811261e-02,2.374725683515370770e-04
1.077984257083660635e-01,2.374725683515370770e-04
1.392228921009446008e-01,2.374725683515370770e-04
1.798079476354262352e-01,2.374725683515370770e-04
2.322240081711735571e-01,2.374725683515370770e-04
2.999199461440281711e-01,2.374725683515370770e-04
3.873500195067373086e-01,2.374725683515370770e-04
5.002669530349181937e-01,2.374725683515370770e-04
6.461004561650423028e-01,2.374725683515370770e-04
8.344460830846414101e-01,2.374725683515370770e-04
1.077696601095472939e+00,2.374725683515370770e-04
1.391857410031039022e+00,2.374725683515370770e-04
1.797599665702842797e+00,2.374725683515370770e-04
2.321620400801625017e+00,2.374725683515370770e-04
2.998399136501226359e+00,2.374725683515370770e-04
3.872466566311632441e+00,2.374725683515370770e-04
5.001334587062326698e+00,2.374725683515370770e-04
6.459280467221720556e+00,2.374725683515370770e-04
8.342234143294701809e+00,2.374725683515370770e-04
1.077409021867188166e+01,2.374725683515370770e-04
1.391485998188919204e+01,2.374725683515370770e-04
1.797119983087065620e+01,2.374725683515370770e-04
2.321000885251001122e+01,2.374725683515370770e-04
2.997599025125830607e+01,2.374725683515370770e-04
3.871433213375783566e+01,2.374725683515370770e-04
4.999999999999999289e+01,2.374725683515370770e-04
2.999999999999999542e-02,3.733616063328004881e-04
3.874534099716626934e-02,3.733616063328004881e-04
5.004004829955644579e-02,3.733616063328004881e-04
6.462729116269952390e-02,3.733616063328004881e-04
8.346688112739811261e-02,3.733616063328004881e-04
1.077984257083660635e-01,3.733616063328004881e-04
1.392228921009446008e-01,3.733616063328004881e-04
1.798079476354262352e-01,3.733616063328004881e-04
2.322240081711735571e-01,3.733616063328004881e-04
2.999199461440281711e-01,3.733616063328004881e-04
3.873500195067373086e-01,3.733616063328004881e-04
5.002669530349181937e-01,3.733616063328004881e-04
6.461004561650423028e-01,3.733616063328004881e-04
8.344460830846414101e-01,3.733616063328004881e-04
1.077696601095472939e+00,3.733616063328004881e-04
1.391857410031039022e+00,3.733616063328004881e-04
1.797599665702842797e+00,3.733616063328004881e-04
2.321620400801625017e+00,3.733616063328004881e-04
2.998399136501226359e+00,3.733616063328004881e-04
3.872466566311632441e+00,3.733616063328004881e-04
5.001334587062326698e+00,3.733616063328004881e-04
6.459280467221720556e+00,3.733616063328004881e-04
8.342234143294701809e+00,3.733616063328004881e-04
1.077409021867188166e+01,3.733616063328004881e-04
1.391485998188919204e+01,3.733616063328004881e-04
1.797119983087065620e+01,3.733616063328004881e-04
2.321000885251001122e+01,3.733616063328004881e-04
2.997599025125830607e+01,3.733616063328004881e-04
3.871433213375783566e+01,3.733616063328004881e-04
4.999999999999999289e+01,3.733616063328004881e-04
2.999999999999999542e-02,5.870104915741376295e-04
3.874534099716626934e-02,5.870104915741376295e-04
5.004004829955644579e-02,5.870104915741376295e-04
6.462729116269952390e-02,5.870104915741376295e-04
8.346688112739811261e-02,5.870104915741376295e-04
1.077984257083660635e-01,5.870104915741376295e-04
1.392228921009446008e-01,5.870104915741376295e-04
1.798079476354262352e-01,5.870104915741376295e-04
2.322240081711735571e-01,5.870104915741376295e-04
2.999199461440281711e-01,5.870104915741376295e-04
3.873500195067373086e-01,5.870104915741376295e-04
5.002669530349181937e-01,5.870104915741376295e-04
6.461004561650423028e-01,5.870104915741376295e-04
8.344460830846414101e-01,5.870104915741376295e-04
1.077696601095472939e+00,5.870104915741376295e-04
1.391857410031039022e+00,5.870104915741376295e-04
1.797599665702842797e+00,5.870104915741376295e-04
2.321620400801625017e+00,5.870104915741376295e-04
2.998399136501226359e+00,5.870104915741376295e-04
3.872466566311632441e+00,5.870104915741376295e-04
5.001334587062326698e+00,5.870104915741376295e-04
6.459280467221720556e+00,5.870104915741376295e-04
8.342234143294701809e+00,5.870104915741376295e-04
1.077409021867188166e+01,5.870104915741376295e-04
1.391485998188919204e+01,5.870104915741376295e-04
1.797119983087065620e+01,5.870104915741376295e-04
2.321000885251001122e+01,5.870104915741376295e-04
2.997599025125830607e+01,5.870104915741376295e-04
3.871433213375783566e+01,5.870104915741376295e-04
4.999999999999999289e+01,5.870104915741376295e-04
2.999999999999999542e-02,9.229157775557797006e-04
3.874534099716626934e-02,9.229157775557797006e-04
5.004004829955644579e-02,9.229157775557797006e-04
6.462729116269952390e-02,9.229157775557797006e-04
8.346688112739811261e-02,9.229157775557797006e-04
1.077984257083660635e-01,9.229157775557797006e-04
1.392228921009446008e-01,9.229157775557797006e-04
1.798079476354262352e-01,9.229157775557797006e-04
2.322240081711735571e-01,9.229157775557797006e-04
2.999199461440281711e-01,9.229157775557797006e-04
3.873500195067373086e-01,9.229157775557797006e-04
5.002669530349181937e-01,9.229157775557797006e-04
6.461004561650423028e-01,9.229157775557797006e-04
8.344460830846414101e-01,9.229157775557797006e-04
1.077696601095472939e+00,9.229157775557797006e-04
1.391857410031039022e+00,9.229157775557797006e-04
1.797599665702842797e+00,9.229157775557797006e-04
2.321620400801625017e+00,9.229157775557797006e-04
2.998399136501226359e+00,9.229157775557797006e-04
3.872466566311632441e+00,9.229157775557797006e-04
5.001334587062326698e+00,9.229157775557797006e-04
6.459280467221720556e+00,9.229157775557797006e-04
8.342234143294701809e+00,9.229157775557797006e-04
1.077409021867188166e+01,9.229157775557797006e-04
1.391485998188919204e+01,9.229157775557797006e-04
1.797119983087065620e+01,9.229157775557797006e-04
2.321000885251001122e+01,9.229157775557797006e-04
2.997599025125830607e+01,9.229157775557797006e-04
3.871433213375783566e+01,9.229157775557797006e-04
4.999999999999999289e+01,9.229157775557797006e-04
2.999999999999999542e-02,1.451036301203506096e-03
3.874534099716626934e-02,1.451036301203506096e-03
5.004004829955644579e-02,1.451036301203506096e-03
6.462729116269952390e-02,1.451036301203506096e-03
8.346688112739811261e-02,1.451036301203506096e-03
1.077984257083660635e-01,1.451036301203506096e-03
1.392228921009446008e-01,1.451036301203506096e-03
1.798079476354262352e-01,1.451036301203506096e-03
2.322240081711735571e-01,1.451036301203506096e-03
2.999199461440281711e-01,1.451036301203506096e-03
3.873500195067373086e-01,1.451036301203506096e-03
5.002669530349181937e-01,1.451036301203506096e-03
6.461004561650423028e-01,1.451036301203506096e-03
8.344460830846414101e-01,1.451036301203506096e-03
1.077696601095472939e+00,1.451036301203506096e-03
1.391857410031039022e+00,1.451036301203506096e-03
1.797599665702842797e+00,1.451036301203506096e-03
2.321620400801625017e+00,1.451036301203506096e-03
2.998399136501226359e+00,1.451036301203506096e-03
3.872466566311632441e+00,1.451036301203506096e-03
5.001334587062326698e+00,1.451036301203506096e-03
6.459280467221720556e+00,1.451036301203506096e-03
8.342234143294701809e+00,1.451036301203506096e-03
1.077409021867188166e+01,1.451036301203506096e-03
1.391485998188919204e+01,1.451036301203506096e-03
1.797119983087065620e+01,1.451036301203506096e-03
2.321000885251001122e+01,1.451036301203506096e-03
2.997599025125830607e+01,1.451036301203506096e-03
3.871433213375783566e+01,1.451036301203506096e-03
4.999999999999999289e+01,1.451036301203506096e-03
2.999999999999999542e-02,2.281363477159862631e-03
3.874534099716626934e-02,2.281363477159862631e-03
5.004004829955644579e-02,2.281363477159862631e-03
6.462729116269952390e-02,2.281363477159862631e-03
8.346688112739811261e-02,2.281363477159862631e-03
1.077984257083660635e-01,2.281363477159862631e-03
1.392228921009446008e-01,2.281363477159862631e-03
1.798079476354262352e-01,2.281363477159862631e-03
2.322240081711735571e-01,2.281363477159862631e-03
2.999199461440281711e-01,2.281363477159862631e-03
3.873500195067373086e-01,2.281363477159862631e-03
5.002669530349181937e-01,2.281363477159862631e-03
6.461004561650423028e-01,2.281363477159862631e-03
8.344460830846414101e-01,2.281363477159862631e-03
1.077696601095472939e+00,2.281363477159862631e-03
1.391857410031039022e+00,2.281363477159862631e-03
1.797599665702842797e+00,2.281363477159862631e-03
2.321620400801625017e+00,2.281363477159862631e-03
2.998399136501226359e+00,2.281363477159862631e-03
3.872466566311632441e+00,2.281363477159862631e-03
5.001334587062326698e+00,2.281363477159862631e-03
6.459280467221720556e+00,2.281363477159862631e-03
8.342234143294701809e+00,2.281363477159862631e-03
1.077409021867188166e+01,2.281363477159862631e-03
1.391485998188919204e+01,2.281363477159862631e-03
1.797119983087065620e+01,2.281363477159862631e-03
2.321000885251001122e+01,2.281363477159862631e-03
2.997599025125830607e+01,2.281363477159862631e-03
3.871433213375783566e+01,2.281363477159862631e-03
4.999999999999999289e+01,2.281363477159862631e-03
2.999999999999999542e-02,3.586829158307182613e-03
3.874534099716626934e-02,3.586829158307182613e-03
5.004004829955644579e-02,3.586829158307182613e-03
6.462729116269952390e-02,3.586829158307182613e-03
8.346688112739811261e-02,3.586829158307182613e-03
1.077984257083660635e-01,3.586829158307182613e-03
1.392228921009446008e-01,3.586829158307182613e-03
1.798079476354262352e-01,3.586829158307182613e-03
2.322240081711735571e-01,3.586829158307182613e-03
2.999199461440281711e-01,3.586829158307182613e-03
3.873500195067373086e-01,3.586829158307182613e-03
5.002669530349181937e-01,3.586829158307182613e-03
6.461004561650423028e-01,3.586829158307182613e-03
8.344460830846414101e-01,3.586829158307182613e-03
1.077696601095472939e+00,3.586829158307182613e-03
1.391857410031039022e+00,3.586829158307182613e-03
1.797599665702842797e+00,3.586829158307182613e-03
2.321620400801625017e+00,3.586829158307182613e-03
2.998399136501226359e+00,3.586829158307182613e-03
3.872466566311632441e+00,3.586829158307182613e-03
5.001334587062326698e+00,3.586829158307182613e-03
6.459280467221720556e+00,3.586829158307182613e-03
8.342234143294701809e+00,3.586829158307182613e-03
1.077409021867188166e+01,3.586829158307182613e-03
1.391485998188919204e+01,3.586829158307182613e-03
1.797119983087065620e+01,3.586829158307182613e-03
2.321000885251001122e+01,3.586829158307182613e-03
2.997599025125830607e+01,3.586829158307182613e-03
3.871433213375783566e+01,3.586829158307182613e-03
4.999999999999999289e+01,3.586829158307182613e-03
2.999999999999999542e-02,5.639322071947550780e-03
3.874534099716626934e-02,5.639322071947550780e-03
5.004004829955644579e-02,5.639322071947550780e-03
6.462729116269952390e-02,5.639322071947550780e-03
8.346688112739811261e-02,5.639322071947550780e-03
1.077984257083660635e-01,5.639322071947550780e-03
1.392228921009446008e-01,5.639322071947550780e-03
1.798079476354262352e-01,5.639322071947550780e-03
2.322240081711735571e-01,5.639322071947550780e-03
2.999199461440281711e-01,5.639322071947550780e-03
3.873500195067373086e-01,5.639322071947550780e-03
5.002669530349181937e-01,5.639322071947550780e-03
6.461004561650423028e-01,5.639322071947550780e-03
8.344460830846414101e-01,5.639322071947550780e-03
1.077696601095472939e+00,5.639322071947550780e-03
1.391857410031039022e+00,5.639322071947550780e-03
1.797599665702842797e+00,5.639322071947550780e-03
2.321620400801625017e+00,5.639322071947550780e-03
2.998399136501226359e+00,5.639322071947550780e-03
3.872466566311632441e+00,5.639322071947550780e-03
5.001334587062326698e+00,5.639322071947550780e-03
6.459280467221720556e+00,5.639322071947550780e-03
8.342234143294701809e+00,5.639322071947550780e-03
1.077409021867188166e+01,5.639322071947550780e-03
1.391485998188919204e+01,5.639322071947550780e-03
1.797119983087065620e+01,5.639322071947550780e-03
2.321000885251001122e+01,5.639322071947550780e-03
2.997599025125830607e+01,5.639322071947550780e-03
3.871433213375783566e+01,5.639322071947550780e-03
4.999999999999999289e+01,5.639322071947550780e-03
2.999999999999999542e-02,8.866313957970562917e-03
3.874534099716626934e-02,8.866313957970562917e-03
5.004004829955644579e-02,8.866313957970562917e-03
6.462729116269952390e-02,8.866313957970562917e-03
8.346688112739811261e-02,8.866313957970562917e-03
1.077984257083660635e-01,8.866313957970562917e-03
1.392228921009446008e-01,8.866313957970562917e-03
1.798079476354262352e-01,8.866313957970562917e-03
2.322240081711735571e-01,8.866313957970562917e-03
2.999199461440281711e-01,8.866313957970562917e-03
3.873500195067373086e-01,8.866313957970562917e-03
5.002669530349181937e-01,8.866313957970562917e-03
6.461004561650423028e-01,8.866313957970562917e-03
8.344460830846414101e-01,8.866313957970562917e-03
1.077696601095472939e+00,8.866313957970562917e-03
1.391857410031039022e+00,8.866313957970562917e-03
1.797599665702842797e+00,8.866313957970562917e-03
2.321620400801625017e+00,8.866313957970562917e-03
2.998399136501226359e+00,8.866313957970562917e-03
3.872466566311632441e+00,8.866313957970562917e-03
5.001334587062326698e+00,8.866313957970562917e-03
6.459280467221720556e+00,8.866313957970562917e-03
8.342234143294701809e+00,8.866313957970562917e-03
1.077409021867188166e+01,8.866313957970562917e-03
1.391485998188919204e+01,8.866313957970562917e-03
1.797119983087065620e+01,8.866313957970562917e-03
2.321000885251001122e+01,8.866313957970562917e-03
2.997599025125830607e+01,8.866313957970562917e-03
3.871433213375783566e+01,8.866313957970562917e-03
4.999999999999999289e+01,8.866313957970562917e-03
2.999999999999999542e-02,1.393988890834089306e-02
3.874534099716626934e-02,1.393988890834089306e-02
5.004004829955644579e-02,1.393988890834089306e-02
6.462729116269952390e-02,1.393988890834089306e-02
8.346688112739811261e-02,1.393988890834089306e-02
1.077984257083660635e-01,1.393988890834089306e-02
1.392228921009446008e-01,1.393988890834089306e-02
1.798079476354262352e-01,1.393988890834089306e-02
2.322240081711735571e-01,1.393988890834089306e-02
2.999199461440281711e-01,1.393988890834089306e-02
3.873500195067373086e-01,1.393988890834089306e-02
5.002669530349181937e-01,1.393988890834089306e-02
6.461004561650423028e-01,1.393988890834089306e-02
8.344460830846414101e-01,1.393988890834089306e-02
1.077696601095472939e+00,1.393988890834089306e-02
1.391857410031039022e+00,1.393988890834089306e-02
1.797599665702842797e+00,1.393988890834089306e-02
2.321620400801625017e+00,1.393988890834089306e-02
2.998399136501226359e+00,1.393988890834089306e-02
3.872466566311632441e+00,1.393988890834089306e-02
5.001334587062326698e+00,1.393988890834089306e-02
6.459280467221720556e+00,1.393988890834089306e-02
8.342234143294701809e+00,1.393988890834089306e-02
1.077409021867188166e+01,1.393988890834089306e-02
1.391485998188919204e+01,1.393988890834089306e-02
1.797119983087065620e+01,1.393988890834089306e-02
2.321000885251001122e+01,1.393988890834089306e-02
2.997599025125830607e+01,1.393988890834089306e-02
3.871433213375783566e+01,1.393988890834089306e-02
4.999999999999999289e+01,1.393988890834089306e-02
2.999999999999999542e-02,2.191671800683268889e-02
3.874534099716626934e-02,2.191671800683268889e-02
5.004004829955644579e-02,2.191671800683268889e-02
6.462729116269952390e-02,2.191671800683268889e-02
8.346688112739811261e-02,2.191671800683268889e-02
1.077984257083660635e-01,2.191671800683268889e-02
1.392228921009446008e-01,2.191671800683268889e-02
1.798079476354262352e-01,2.191671800683268889e-02
2.322240081711735571e-01,2.191671800683268889e-02
2.999199461440281711e-01,2.191671800683268889e-02
3.873500195067373086e-01,2.191671800683268889e-02
5.002669530349181937e-01,2.191671800683268889e-02
6.461004561650423028e-01,2.191671800683268889e-02
8.344460830846414101e-01,2.191671800683268889e-02
1.077696601095472939e+00,2.191671800683268889e-02
1.391857410031039022e+00,2.191671800683268889e-02
1.797599665702842797e+00,2.191671800683268889e-02
2.321620400801625017e+00,2.191671800683268889e-02
2.998399136501226359e+00,2.191671800683268889e-02
3.872466566311632441e+00,2.191671800683268889e-02
5.001334587062326698e+00,2.191671800683268889e-02
6.459280467221720556e+00,2.191671800683268889e-02
8.342234143294701809e+00,2.191671800683268889e-02
1.077409021867188166e+01,2.191671800683268889e-02
1.391485998188919204e+01,2.191671800683268889e-02
1.797119983087065620e+01,2.191671800683268889e-02
2.321000885251001122e+01,2.191671800683268889e-02
2.997599025125830607e+01,2.191671800683268889e-02
3.871433213375783566e+01,2.191671800683268889e-02
4.999999999999999289e+01,2.191671800683268889e-02
2.999999999999999542e-02,3.445813172181111383e-02
3.874534099716626934e-02,3.445813172181111383e-02
5.004004829955644579e-02,3.445813172181111383e-02
6.462729116269952390e-02,3.445813172181111383e-02
8.346688112739811261e-02,3.445813172181111383e-02
1.077984257083660635e-01,3.445813172181111383e-02
1.392228921009446008e-01,3.445813172181111383e-02
1.798079476354262352e-01,3.445813172181111383e-02
2.322240081711735571e-01,3.445813172181111383e-02
2.999199461440281711e-01,3.445813172181111383e-02
3.873500195067373086e-01,3.445813172181111383e-02
5.002669530349181937e-01,3.445813172181111383e-02
6.461004561650423028e-01,3.445813172181111383e-02
8.344460830846414101e-01,3.445813172181111383e-02
1.077696601095472939e+00,3.445813172181111383e-02
1.391857410031039022e+00,3.445813172181111383e-02
1.797599665702842797e+00,3.445813172181111383e-02
2.321620400801625017e+00,3.445813172181111383e-02
2.998399136501226359e+00,3.445813172181111383e-02
3.872466566311632441e+00,3.445813172181111383e-02
5.001334587062326698e+00,3.445813172181111383e-02
6.459280467221720556e+00,3.445813172181111383e-02
8.342234143294701809e+00,3.445813172181111383e-02
1.077409021867188166e+01,3.445813172181111383e-02
1.391485998188919204e+01,3.445813172181111383e-02
1.797119983087065620e+01,3.445813172181111383e-02
2.321000885251001122e+01,3.445813172181111383e-02
2.997599025125830607e+01,3.445813172181111383e-02
3.871433213375783566e+01,3.445813172181111383e-02
4.999999999999999289e+01,3.445813172181111383e-02
2.999999999999999542e-02,5.417612442645462767e-02
3.874534099716626934e-02,5.417612442645462767e-02
5.004004829955644579e-02,5.417612442645462767e-02
6.462729116269952390e-02,5.417612442645462767e-02
8.346688112739811261e-02,5.417612442645462767e-02
1.077984257083660635e-01,5.417612442645462767e-02
1.392228921009446008e-01,5.417612442645462767e-02
1.798079476354262352e-01,5.417612442645462767e-02
2.322240081711735571e-01,5.417612442645462767e-02
2.999199461440281711e-01,5.417612442645462767e-02
3.873500195067373086e-01,5.417612442645462767e-02
5.002669530349181937e-01,5.417612442645462767e-02
6.461004561650423028e-01,5.417612442645462767e-02
8.344460830846414101e-01,5.417612442645462767e-02
1.077696601095472939e+00,5.417612442645462767e-02
1.391857410031039022e+00,5.417612442645462767e-02
1.797599665702842797e+00,5.417612442645462767e-02
2.321620400801625017e+00,5.417612442645462767e-02
2.998399136501226359e+00,5.417612442645462767e-02
3.872466566311632441e+00,5.417612442645462767e-02
5.001334587062326698e+00,5.417612442645462767e-02
6.459280467221720556e+00,5.417612442645462767e-02
8.342234143294701809e+00,5.417612442645462767e-02
1.077409021867188166e+01,5.417612442645462767e-02
1.391485998188919204e+01,5.417612442645462767e-02
1.797119983087065620e+01,5.417612442645462767e-02
2.321000885251001122e+01,5.417612442645462767e-02
2.997599025125830607e+01,5.417612442645462767e-02
3.871433213375783566e+01,5.417612442645462767e-02
4.999999999999999289e+01,5.417612442645462767e-02
2.999999999999999542e-02,8.517735324613893988e-02
3.874534099716626934e-02,8.517735324613893988e-02
5.004004829955644579e-02,8.517735324613893988e-02
6.462729116269952390e-02,8.517735324613893988e-02
8.346688112739811261e-02,8.517735324613893988e-02
1.077984257083660635e-01,8.517735324613893988e-02
1.392228921009446008e-01,8.517735324613893988e-02
1.798079476354262352e-01,8.517735324613893988e-02
2.322240081711735571e-01,8.517735324613893988e-02
2.999199461440281711e-01,8.517735324613893988e-02
3.873500195067373086e-01,8.517735324613893988e-02
5.002669530349181937e-01,8.517735324613893988e-02
6.461004561650423028e-01,8.517735324613893988e-02
8.344460830846414101e-01,8.517735324613893988e-02
1.077696601095472939e+00,8.517735324613893988e-02
1.391857410031039022e+00,8.517735324613893988e-02
1.797599665702842797e+00,8.517735324613893988e-02
2.321620400801625017e+00,8.517735324613893988e-02
2.998399136501226359e+00,8.517735324613893988e-02
3.872466566311632441e+00,8.517735324613893988e-02
5.001334587062326698e+00,8.517735324613893988e-02
6.459280467221720556e+00,8.517735324613893988e-02
8.342234143294701809e+00,8.517735324613893988e-02
1.077409021867188166e+01,8.517735324613893988e-02
1.391485998188919204e+01,8.517735324613893988e-02
1.797119983087065620e+01,8.517735324613893988e-02
2.321000885251001122e+01,8.517735324613893988e-02
2.997599025125830607e+01,8.517735324613893988e-02
3.871433213375783566e+01,8.517735324613893988e-02
4.999999999999999289e+01,8.517735324613893988e-02
2.999999999999999542e-02,1.339184296186894940e-01
3.874534099716626934e-02,1.339184296186894940e-01
5.004004829955644579e-02,1.339184296186894940e-01
6.462729116269952390e-02,1.339184296186894940e-01
8.346688112739811261e-02,1.339184296186894940e-01
1.077984257083660635e-01,1.339184296186894940e-01
1.392228921009446008e-01,1.339184296186894940e-01
1.798079476354262352e-01,1.339184296186894940e-01
2.322240081711735571e-01,1.339184296186894940e-01
2.999199461440281711e-01,1.339184296186894940e-01
3.873500195067373086e-01,1.339184296186894940e-01
5.002669530349181937e-01,1.339184296186894940e-01
6.461004561650423028e-01,1.339184296186894940e-01
8.344460830846414101e-01,1.339184296186894940e-01
1.077696601095472939e+00,1.339184296186894940e-01
1.391857410031039022e+00,1.339184296186894940e-01
1.797599665702842797e+00,1.339184296186894940e-01
2.321620400801625017e+00,1.339184296186894940e-01
2.998399136501226359e+00,1.339184296186894940e-01
3.872466566311632441e+00,1.339184296186894940e-01
5.001334587062326698e+00,1.339184296186894940e-01
6.459280467221720556e+00,1.339184296186894940e-01
8.342234143294701809e+00,1.339184296186894940e-01
1.077409021867188166e+01,1.339184296186894940e-01
1.391485998188919204e+01,1.339184296186894940e-01
1.797119983087065620e+01,1.339184296186894940e-01
2.321000885251001122e+01,1.339184296186894940e-01
2.997599025125830607e+01,1.339184296186894940e-01
3.871433213375783566e+01,1.339184296186894940e-01
4.999999999999999289e+01,1.339184296186894940e-01
2.999999999999999542e-02,2.105506347410351919e-01
3.874534099716626934e-02,2.105506347410351919e-01
5.004004829955644579e-02,2.105506347410351919e-01
6.462729116269952390e-02,2.105506347410351919e-01
8.346688112739811261e-02,2.105506347410351919e-01
1.077984257083660635e-01,2.105506347410351919e-01
1.392228921009446008e-01,2.105506347410351919e-01
1.798079476354262352e-01,2.105506347410351919e-01
2.322240081711735571e-01,2.105506347410351919e-01
2.999199461440281711e-01,2.105506347410351919e-01
3.873500195067373086e-01,2.105506347410351919e-01
5.002669530349181937e-01,2.105506347410351919e-01
6.461004561650423028e-01,2.105506347410351919e-01
8.344460830846414101e-01,2.105506347410351919e-01
1.077696601095472939e+00,2.105506347410351919e-01
1.391857410031039022e+00,2.105506347410351919e-01
1.797599665702842797e+00,2.105506347410351919e-01
2.321620400801625017e+00,2.105506347410351919e-01
2.998399136501226359e+00,2.105506347410351919e-01
3.872466566311632441e+00,2.105506347410351919e-01
5.001334587062326698e+00,2.105506347410351919e-01
6.459280467221720556e+00,2.105506347410351919e-01
8.342234143294701809e+00,2.105506347410351919e-01
1.077409021867188166e+01,2.105506347410351919e-01
1.391485998188919204e+01,2.105506347410351919e-01
1.797119983087065620e+01,2.105506347410351919e-01
2.321000885251001122e+01,2.105506347410351919e-01
2.997599025125830607e+01,2.105506347410351919e-01
3.871433213375783566e+01,2.105506347410351919e-01
4.999999999999999289e+01,2.105506347410351919e-01
2.999999999999999542e-02,3.310341221598819272e-01
3.874534099716626934e-02,3.310341221598819272e-01
5.004004829955644579e-02,3.310341221598819272e-01
6.462729116269952390e-02,3.310341221598819272e-01
8.346688112739811261e-02,3.310341221598819272e-01
1.077984257083660635e-01,3.310341221598819272e-01
1.392228921009446008e-01,3.310341221598819272e-01
1.798079476354262352e-01,3.310341221598819272e-01
2.322240081711735571e-01,3.310341221598819272e-01
2.999199461440281711e-01,3.310341221598819272e-01
3.873500195067373086e-01,3.310341221598819272e-01
5.002669530349181937e-01,3.310341221598819272e-01
6.461004561650423028e-01,3.310341221598819272e-01
8.344460830846414101e-01,3.310341221598819272e-01
1.077696601095472939e+00,3.310341221598819272e-01
1.391857410031039022e+00,3.310341221598819272e-01
1.797599665702842797e+00,3.310341221598819272e-01
2.321620400801625017e+00,3.310341221598819272e-01
2.998399136501226359e+00,3.310341221598819272e-01
3.872466566311632441e+00,3.310341221598819272e-01
5.001334587062326698e+00,3.310341221598819272e-01
6.459280467221720556e+00,3.310341221598819272e-01
8.342234143294701809e+00,3.310341221598819272e-01
1.077409021867188166e+01,3.310341221598819272e-01
1.391485998188919204e+01,3.310341221598819272e-01
1.797119983087065620e+01,3.310341221598819272e-01
2.321000885251001122e+01,3.310341221598819272e-01
2.997599025125830607e+01,3.310341221598819272e-01
3.871433213375783566e+01,3.310341221598819272e-01
4.999999999999999289e+01,3.310341221598819272e-01
2.999999999999999542e-02,5.204619314918939033e-01
3.874534099716626934e-02,5.204619314918939033e-01
5.004004829955644579e-02,5.204619314918939033e-01
6.462729116269952390e-02,5.204619314918939033e-01
8.346688112739811261e-02,5.204619314918939033e-01
1.077984257083660635e-01,5.204619314918939033e-01
1.392228921009446008e-01,5.204619314918939033e-01
1.798079476354262352e-01,5.204619314918939033e-01
2.322240081711735571e-01,5.204619314918939033e-01
2.999199461440281711e-01,5.204619314918939033e-01
3.873500195067373086e-01,5.204619314918939033e-01
5.002669530349181937e-01,5.204619314918939033e-01
6.461004561650423028e-01,5.204619314918939033e-01
8.344460830846414101e-01,5.204619314918939033e-01
1.077696601095472939e+00,5.204619314918939033e-01
1.391857410031039022e+00,5.204619314918939033e-01
1.797599665702842797e+00,5.204619314918939033e-01
2.321620400801625017e+00,5.204619314918939033e-01
2.998399136501226359e+00,5.204619314918939033e-01
3.872466566311632441e+00,5.204619314918939033e-01
5.001334587062326698e+00,5.204619314918939033e-01
6.459280467221720556e+00,5.204619314918939033e-01
8.342234143294701809e+00,5.204619314918939033e-01
1.077409021867188166e+01,5.204619314918939033e-01
1.391485998188919204e+01,5.204619314918939033e-01
1.797119983087065620e+01,5.204619314918939033e-01
2.321000885251001122e+01,5.204619314918939033e-01
2.997599025125830607e+01,5.204619314918939033e-01
3.871433213375783566e+01,5.204619314918939033e-01
4.999999999999999289e+01,5.204619314918939033e-01
2.999999999999999542e-02,8.182861040574065381e-01
3.874534099716626934e-02,8.182861040574065381e-01
5.004004829955644579e-02,8.182861040574065381e-01
6.462729116269952390e-02,8.182861040574065381e-01
8.346688112739811261e-02,8.182861040574065381e-01
1.077984257083660635e-01,8.182861040574065381e-01
1.392228921009446008e-01,8.182861040574065381e-01
1.798079476354262352e-01,8.182861040574065381e-01
2.322240081711735571e-01,8.182861040574065381e-01
2.999199461440281711e-01,8.182861040574065381e-01
3.873500195067373086e-01,8.182861040574065381e-01
5.002669530349181937e-01,8.182861040574065381e-01
6.461004561650423028e-01,8.182861040574065381e-01
8.344460830846414101e-01,8.182861040574065381e-01
1.077696601095472939e+00,8.182861040574065381e-01
1.391857410031039022e+00,8.182861040574065381e-01
1.797599665702842797e+00,8.182861040574065381e-01
2.321620400801625017e+00,8.182861040574065381e-01
2.998399136501226359e+00,8.182861040574065381e-01
3.872466566311632441e+00,8.182861040574065381e-01
5.001334587062326698e+00,8.182861040574065381e-01
6.459280467221720556e+00,8.182861040574065381e-01
8.342234143294701809e+00,8.182861040574065381e-01
1.077409021867188166e+01,8.182861040574065381e-01
1.391485998188919204e+01,8.182861040574065381e-01
1.797119983087065620e+01,8.182861040574065381e-01
2.321000885251001122e+01,8.182861040574065381e-01
2.997599025125830607e+01,8.182861040574065381e-01
3.871433213375783566e+01,8.182861040574065381e-01
4.999999999999999289e+01,8.182861040574065381e-01
2.999999999999999542e-02,1.286534341088261035e+00
3.874534099716626934e-02,1.286534341088261035e+00
5.004004829955644579e-02,1.286534341088261035e+00
6.462729116269952390e-02,1.286534341088261035e+00
8.346688112739811261e-02,1.286534341088261035e+00
1.077984257083660635e-01,1.286534341088261035e+00
1.392228921009446008e-01,1.286534341088261035e+00
1.798079476354262352e-01,1.286534341088261035e+00
2.322240081711735571e-01,1.286534341088261035e+00
2.999199461440281711e-01,1.286534341088261035e+00
3.873500195067373086e-01,1.286534341088261035e+00
5.002669530349181937e-01,1.286534341088261035e+00
6.461004561650423028e-01,1.286534341088261035e+00
8.344460830846414101e-01,1.286534341088261035e+00
1.077696601095472939e+00,1.286534341088261035e+00
1.391857410031039022e+00,1.286534341088261035e+00
1.797599665702842797e+00,1.286534341088261035e+00
2.321620400801625017e+00,1.286534341088261035e+00
2.998399136501226359e+00,1.286534341088261035e+00
3.872466566311632441e+00,1.286534341088261035e+00
5.001334587062326698e+00,1.286534341088261035e+00
6.459280467221720556e+00,1.286534341088261035e+00
8.342234143294701809e+00,1.286534341088261035e+00
1.077409021867188166e+01,1.286534341088261035e+00
1.391485998188919204e+01,1.286534341088261035e+00
1.797119983087065620e+01,1.286534341088261035e+00
2.321000885251001122e+01,1.286534341088261035e+00
2.997599025125830607e+01,1.286534341088261035e+00
3.871433213375783566e+01,1.286534341088261035e+00
4.999999999999999289e+01,1.286534341088261035e+00
2.999999999999999542e-02,2.022728484074674871e+00
3.874534099716626934e-02,2.022728484074674871e+00
5.004004829955644579e-02,2.022728484074674871e+00
6.462729116269952390e-02,2.022728484074674871e+00
8.346688112739811261e-02,2.022728484074674871e+00
1.077984257083660635e-01,2.022728484074674871e+00
1.392228921009446008e-01,2.022728484074674871e+00
1.798079476354262352e-01,2.022728484074674871e+00
2.322240081711735571e-01,2.022728484074674871e+00
2.999199461440281711e-01,2.022728484074674871e+00
3.873500195067373086e-01,2.022728484074674871e+00
5.002669530349181937e-01,2.022728484074674871e+00
6.461004561650423028e-01,2.022728484074674871e+00
8.344460830846414101e-01,2.022728484074674871e+00
1.077696601095472939e+00,2.022728484074674871e+00
1.391857410031039022e+00,2.022728484074674871e+00
1.797599665702842797e+00,2.022728484074674871e+00
2.321620400801625017e+00,2.022728484074674871e+00
2.998399136501226359e+00,2.022728484074674871e+00
3.872466566311632441e+00,2.022728484074674871e+00
5.001334587062326698e+00,2.022728484074674871e+00
6.459280467221720556e+00,2.022728484074674871e+00
8.342234143294701809e+00,2.022728484074674871e+00
1.077409021867188166e+01,2.022728484074674871e+00
1.391485998188919204e+01,2.022728484074674871e+00
1.797119983087065620e+01,2.022728484074674871e+00
2.321000885251001122e+01,2.022728484074674871e+00
2.997599025125830607e+01,2.022728484074674871e+00
3.871433213375783566e+01,2.022728484074674871e+00
4.999999999999999289e+01,2.022728484074674871e+00
2.999999999999999542e-02,3.180195343115481244e+00
3.874534099716626934e-02,3.180195343115481244e+00
5.004004829955644579e-02,3.180195343115481244e+00
6.462729116269952390e-02,3.180195343115481244e+00
8.346688112739811261e-02,3.180195343115481244e+00
1.077984257083660635e-01,3.180195343115481244e+00
1.392228921009446008e-01,3.180195343115481244e+00
1.798079476354262352e-01,3.180195343115481244e+00
2.322240081711735571e-01,3.180195343115481244e+00
2.999199461440281711e-01,3.180195343115481244e+00
3.873500195067373086e-01,3.180195343115481244e+00
5.002669530349181937e-01,3.180195343115481244e+00
6.461004561650423028e-01,3.180195343115481244e+00
8.344460830846414101e-01,3.180195343115481244e+00
1.077696601095472939e+00,3.180195343115481244e+00
1.391857410031039022e+00,3.180195343115481244e+00
1.797599665702842797e+00,3.180195343115481244e+00
2.321620400801625017e+00,3.180195343115481244e+00
2.998399136501226359e+00,3.180195343115481244e+00
3.872466566311632441e+00,3.180195343115481244e+00
5.001334587062326698e+00,3.180195343115481244e+00
6.459280467221720556e+00,3.180195343115481244e+00
8.342234143294701809e+00,3.180195343115481244e+00
1.077409021867188166e+01,3.180195343115481244e+00
1.391485998188919204e+01,3.180195343115481244e+00
1.797119983087065620e+01,3.180195343115481244e+00
2.321000885251001122e+01,3.180195343115481244e+00
2.997599025125830607e+01,3.180195343115481244e+00
3.871433213375783566e+01,3.180195343115481244e+00
4.999999999999999289e+01,3.180195343115481244e+00
2.999999999999999542e-02,5.000000000000000888e+00
3.874534099716626934e-02,5.000000000000000888e+00
5.004004829955644579e-02,5.000000000000000888e+00
6.462729116269952390e-02,5.000000000000000888e+00
8.346688112739811261e-02,5.000000000000000888e+00
1.077984257083660635e-01,5.000000000000000888e+00
1.392228921009446008e-01,5.000000000000000888e+00
1.798079476354262352e-01,5.000000000000000888e+00
2.322240081711735571e-01,5.000000000000000888e+00
2.999199461440281711e-01,5.000000000000000888e+00
3.873500195067373086e-01,5.000000000000000888e+00
5.002669530349181937e-01,5.000000000000000888e+00
6.461004561650423028e-01,5.000000000000000888e+00
8.344460830846414101e-01,5.000000000000000888e+00
1.077696601095472939e+00,5.000000000000000888e+00
1.391857410031039022e+00,5.000000000000000888e+00
1.797599665702842797e+00,5.000000000000000888e+00
2.321620400801625017e+00,5.000000000000000888e+00
2.998399136501226359e+00,5.000000000000000888e+00
3.872466566311632441e+00,5.000000000000000888e+00
5.001334587062326698e+00,5.000000000000000888e+00
6.459280467221720556e+00,5.000000000000000888e+00
8.342234143294701809e+00,5.000000000000000888e+00
1.077409021867188166e+01,5.000000000000000888e+00
1.391485998188919204e+01,5.000000000000000888e+00
1.797119983087065620e+01,5.000000000000000888e+00
2.321000885251001122e+01,5.000000000000000888e+00
2.997599025125830607e+01,5.000000000000000888e+00
3.871433213375783566e+01,5.000000000000000888e+00
4.999999999999999289e+01,5.000000000000000888e+00
