# pNcenT, phiNcenT
2.999999999999999542e-02,2.000000000000000164e-05
3.874534099716626934e-02,2.000000000000000164e-05
5.004004829955644579e-02,2.000000000000000164e-05
6.462729116269952390e-02,2.000000000000000164e-05
8.346688112739811261e-02,2.000000000000000164e-05
1.077984257083660635e-01,2.000000000000000164e-05
1.392228921009446008e-01,2.000000000000000164e-05
1.798079476354262352e-01,2.000000000000000164e-05
2.322240081711735571e-01,2.000000000000000164e-05
2.999199461440281711e-01,2.000000000000000164e-05
3.873500195067373086e-01,2.000000000000000164e-05
5.002669530349181937e-01,2.000000000000000164e-05
6.461004561650423028e-01,2.000000000000000164e-05
8.344460830846414101e-01,2.000000000000000164e-05
1.077696601095472939e+00,2.000000000000000164e-05
1.391857410031039022e+00,2.000000000000000164e-05
1.797599665702842797e+00,2.000000000000000164e-05
2.321620400801625017e+00,2.000000000000000164e-05
2.998399136501226359e+00,2.000000000000000164e-05
3.872466566311632441e+00,2.000000000000000164e-05
5.001334587062326698e+00,2.000000000000000164e-05
6.459280467221720556e+00,2.000000000000000164e-05
8.342234143294701809e+00,2.000000000000000164e-05
1.077409021867188166e+01,2.000000000000000164e-05
1.391485998188919204e+01,2.000000000000000164e-05
1.797119983087065620e+01,2.000000000000000164e-05
2.321000885251001122e+01,2.000000000000000164e-05
2.997599025125830607e+01,2.000000000000000164e-05
3.871433213375783566e+01,2.000000000000000164e-05
4.999999999999999289e+01,2.000000000000000164e-05
2.999999999999999542e-02,3.144460928052146759e-05
3.874534099716626934e-02,3.144460928052146759e-05
5.004004829955644579e-02,3.144460928052146759e-05
6.462729116269952390e-02,3.144460928052146759e-05
8.346688112739811261e-02,3.144460928052146759e-05
1.077984257083660635e-01,3.144460928052146759e-05
1.392228921009446008e-01,3.144460928052146759e-05
1.798079476354262352e-01,3.144460928052146759e-05
2.322240081711735571e-01,3.144460928052146759e-05
2.999199461440281711e-01,3.144460928052146759e-05
3.873500195067373086e-01,3.144460928052146759e-05
5.002669530349181937e-01,3.144460928052146759e-05
6.461004561650423028e-01,3.144460928052146759e-05
8.344460830846414101e-01,3.144460928052146759e-05
1.077696601095472939e+00,3.144460928052146759e-05
1.391857410031039022e+00,3.144460928052146759e-05
1.797599665702842797e+00,3.144460928052146759e-05
2.321620400801625017e+00,3.144460928052146759e-05
2.998399136501226359e+00,3.144460928052146759e-05
3.872466566311632441e+00,3.144460928052146759e-05
5.001334587062326698e+00,3.144460928052146759e-05
6.459280467221720556e+00,3.144460928052146759e-05
8.342234143294701809e+00,3.144460928052146759e-05
1.077409021867188166e+01,3.144460928052146759e-05
1.391485998188919204e+01,3.144460928052146759e-05
1.797119983087065620e+01,3.144460928052146759e-05
2.321000885251001122e+01,3.144460928052146759e-05
2.997599025125830607e+01,3.144460928052146759e-05
3.871433213375783566e+01,3.144460928052146759e-05
4.999999999999999289e+01,3.144460928052146759e-05
2.999999999999999542e-02,4.943817264023272004e-05
3.874534099716626934e-02,4.943817264023272004e-05
5.004004829955644579e-02,4.943817264023272004e-05
6.462729116269952390e-02,4.943817264023272004e-05
8.346688112739811261e-02,4.943817264023272004e-05
1.077984257083660635e-01,4.943817264023272004e-05
1.392228921009446008e-01,4.943817264023272004e-05
1.798079476354262352e-01,4.943817264023272004e-05
2.322240081711735571e-01,4.943817264023272004e-05
2.999199461440281711e-01,4.943817264023272004e-05
3.873500195067373086e-01,4.943817264023272004e-05
5.002669530349181937e-01,4.943817264023272004e-05
6.461004561650423028e-01,4.943817264023272004e-05
8.344460830846414101e-01,4.943817264023272004e-05
1.077696601095472939e+00,4.943817264023272004e-05
1.391857410031039022e+00,4.943817264023272004e-05
1.797599665702842797e+00,4.943817264023272004e-05
2.321620400801625017e+00,4.943817264023272004e-05
2.998399136501226359e+00,4.943817264023272004e-05
3.872466566311632441e+00,4.943817264023272004e-05
5.001334587062326698e+00,4.943817264023272004e-05
6.459280467221720556e+00,4.943817264023272004e-05
8.342234143294701809e+00,4.943817264023272004e-05
1.077409021867188166e+01,4.943817264023272004e-05
1.391485998188919204e+01,4.943817264023272004e-05
1.797119983087065620e+01,4.943817264023272004e-05
2.321000885251001122e+01,4.943817264023272004e-05
2.997599025125830607e+01,4.943817264023272004e-05
3.871433213375783566e+01,4.943817264023272004e-05
4.999999999999999289e+01,4.943817264023272004e-05
2.999999999999999542e-02,7.772820111075420129e-05
3.874534099716626934e-02,7.772820111075420129e-05
5.004004829955644579e-02,7.772820111075420129e-05
6.462729116269952390e-02,7.772820111075420129e-05
8.346688112739811261e-02,7.772820111075420129e-05
1.077984257083660635e-01,7.772820111075420129e-05
1.392228921009446008e-01,7.772820111075420129e-05
1.798079476354262352e-01,7.772820111075420129e-05
2.322240081711735571e-01,7.772820111075420129e-05
2.999199461440281711e-01,7.772820111075420129e-05
3.873500195067373086e-01,7.772820111075420129e-05
5.002669530349181937e-01,7.772820111075420129e-05
6.461004561650423028e-01,7.772820111075420129e-05
8.344460830846414101e-01,7.772820111075420129e-05
1.077696601095472939e+00,7.772820111075420129e-05
1.391857410031039022e+00,7.772820111075420129e-05
1.797599665702842797e+00,7.772820111075420129e-05
2.321620400801625017e+00,7.772820111075420129e-05
2.998399136501226359e+00,7.772820111075420129e-05
3.872466566311632441e+00,7.772820111075420129e-05
5.001334587062326698e+00,7.772820111075420129e-05
6.459280467221720556e+00,7.772820111075420129e-05
8.342234143294701809e+00,7.772820111075420129e-05
1.077409021867188166e+01,7.772820111075420129e-05
1.391485998188919204e+01,7.772820111075420129e-05
1.797119983087065620e+01,7.772820111075420129e-05
2.321000885251001122e+01,7.772820111075420129e-05
2.997599025125830607e+01,7.772820111075420129e-05
3.871433213375783566e+01,7.772820111075420129e-05
4.999999999999999289e+01,7.772820111075420129e-05
2.999999999999999542e-02,1.222066457002728742e-04
3.874534099716626934e-02,1.222066457002728742e-04
5.004004829955644579e-02,1.222066457002728742e-04
6.462729116269952390e-02,1.222066457002728742e-04
8.346688112739811261e-02,1.222066457002728742e-04
1.077984257083660635e-01,1.222066457002728742e-04
1.392228921009446008e-01,1.222066457002728742e-04
1.798079476354262352e-01,1.222066457002728742e-04
2.322240081711735571e-01,1.222066457002728742e-04
2.999199461440281711e-01,1.222066457002728742e-04
3.873500195067373086e-01,1.222066457002728742e-04
5.002669530349181937e-01,1.222066457002728742e-04
6.461004561650423028e-01,1.222066457002728742e-04
8.344460830846414101e-01,1.222066457002728742e-04
1.077696601095472939e+00,1.222066457002728742e-04
1.391857410031039022e+00,1.222066457002728742e-04
1.797599665702842797e+00,1.222066457002728742e-04
2.321620400801625017e+00,1.222066457002728742e-04
2.998399136501226359e+00,1.222066457002728742e-04
3.872466566311632441e+00,1.222066457002728742e-04
5.001334587062326698e+00,1.222066457002728742e-04
6.459280467221720556e+00,1.222066457002728742e-04
8.342234143294701809e+00,1.222066457002728742e-04
1.077409021867188166e+01,1.222066457002728742e-04
1.391485998188919204e+01,1.222066457002728742e-04
1.797119983087065620e+01,1.222066457002728742e-04
2.321000885251001122e+01,1.222066457002728742e-04
2.997599025125830607e+01,1.222066457002728742e-04
3.871433213375783566e+01,1.222066457002728742e-04
4.999999999999999289e+01,1.222066457002728742e-04
2.999999999999999542e-02,1.921370112764097312e-04
3.874534099716626934e-02,1.921370112764097312e-04
5.004004829955644579e-02,1.921370112764097312e-04
6.462729116269952390e-02,1.921370112764097312e-04
8.346688112739811261e-02,1.921370112764097312e-04
1.077984257083660635e-01,1.921370112764097312e-04
1.392228921009446008e-01,1.921370112764097312e-04
1.798079476354262352e-01,1.921370112764097312e-04
2.322240081711735571e-01,1.921370112764097312e-04
2.999199461440281711e-01,1.921370112764097312e-04
3.873500195067373086e-01,1.921370112764097312e-04
5.002669530349181937e-01,1.921370112764097312e-04
6.461004561650423028e-01,1.921370112764097312e-04
8.344460830846414101e-01,1.921370112764097312e-04
1.077696601095472939e+00,1.921370112764097312e-04
1.391857410031039022e+00,1.921370112764097312e-04
1.797599665702842797e+00,1.921370112764097312e-04
2.321620400801625017e+00,1.921370112764097312e-04
2.998399136501226359e+00,1.921370112764097312e-04
3.872466566311632441e+00,1.921370112764097312e-04
5.001334587062326698e+00,1.921370112764097312e-04
6.459280467221720556e+00,1.921370112764097312e-04
8.342234143294701809e+00,1.921370112764097312e-04
1.077409021867188166e+01,1.921370112764097312e-04
1.391485998188919204e+01,1.921370112764097312e-04
1.797119983087065620e+01,1.921370112764097312e-04
2.321000885251001122e+01,1.921370112764097312e-04
2.997599025125830607e+01,1.921370112764097312e-04
3.871433213375783566e+01,1.921370112764097312e-04
4.999999999999999289e+01,1.921370112764097312e-04
2.999999999999999542e-02,3.020836623956921988e-04
3.874534099716626934e-02,3.020836623956921988e-04
5.004004829955644579e-02,3.020836623956921988e-04
6.462729116269952390e-02,3.020836623956921988e-04
8.346688112739811261e-02,3.020836623956921988e-04
1.077984257083660635e-01,3.020836623956921988e-04
1.392228921009446008e-01,3.020836623956921988e-04
1.798079476354262352e-01,3.020836623956921988e-04
2.322240081711735571e-01,3.020836623956921988e-04
2.999199461440281711e-01,3.020836623956921988e-04
3.873500195067373086e-01,3.020836623956921988e-04
5.002669530349181937e-01,3.020836623956921988e-04
6.461004561650423028e-01,3.020836623956921988e-04
8.344460830846414101e-01,3.020836623956921988e-04
1.077696601095472939e+00,3.020836623956921988e-04
1.391857410031039022e+00,3.020836623956921988e-04
1.797599665702842797e+00,3.020836623956921988e-04
2.321620400801625017e+00,3.020836623956921988e-04
2.998399136501226359e+00,3.020836623956921988e-04
3.872466566311632441e+00,3.020836623956921988e-04
5.001334587062326698e+00,3.020836623956921988e-04
6.459280467221720556e+00,3.020836623956921988e-04
8.342234143294701809e+00,3.020836623956921988e-04
1.077409021867188166e+01,3.020836623956921988e-04
1.391485998188919204e+01,3.020836623956921988e-04
1.797119983087065620e+01,3.020836623956921988e-04
2.321000885251001122e+01,3.020836623956921988e-04
2.997599025125830607e+01,3.020836623956921988e-04
3.871433213375783566e+01,3.020836623956921988e-04
4.999999999999999289e+01,3.020836623956921988e-04
2.999999999999999542e-02,4.749451367030742082e-04
3.874534099716626934e-02,4.749451367030742082e-04
5.004004829955644579e-02,4.749451367030742082e-04
6.462729116269952390e-02,4.749451367030742082e-04
8.346688112739811261e-02,4.749451367030742082e-04
1.077984257083660635e-01,4.749451367030742082e-04
1.392228921009446008e-01,4.749451367030742082e-04
1.798079476354262352e-01,4.749451367030742082e-04
2.322240081711735571e-01,4.749451367030742082e-04
2.999199461440281711e-01,4.749451367030742082e-04
3.873500195067373086e-01,4.749451367030742082e-04
5.002669530349181937e-01,4.749451367030742082e-04
6.461004561650423028e-01,4.749451367030742082e-04
8.344460830846414101e-01,4.749451367030742082e-04
1.077696601095472939e+00,4.749451367030742082e-04
1.391857410031039022e+00,4.749451367030742082e-04
1.797599665702842797e+00,4.749451367030742082e-04
2.321620400801625017e+00,4.749451367030742082e-04
2.998399136501226359e+00,4.749451367030742082e-04
3.872466566311632441e+00,4.749451367030742082e-04
5.001334587062326698e+00,4.749451367030742082e-04
6.459280467221720556e+00,4.749451367030742082e-04
8.342234143294701809e+00,4.749451367030742082e-04
1.077409021867188166e+01,4.749451367030742082e-04
1.391485998188919204e+01,4.749451367030742082e-04
1.797119983087065620e+01,4.749451367030742082e-04
2.321000885251001122e+01,4.749451367030742082e-04
2.997599025125830607e+01,4.749451367030742082e-04
3.871433213375783566e+01,4.749451367030742082e-04
4.999999999999999289e+01,4.749451367030742082e-04
2.999999999999999542e-02,7.467232126656010846e-04
3.874534099716626934e-02,7.467232126656010846e-04
5.004004829955644579e-02,7.467232126656010846e-04
6.462729116269952390e-02,7.467232126656010846e-04
8.346688112739811261e-02,7.467232126656010846e-04
1.077984257083660635e-01,7.467232126656010846e-04
1.392228921009446008e-01,7.467232126656010846e-04
1.798079476354262352e-01,7.467232126656010846e-04
2.322240081711735571e-01,7.467232126656010846e-04
2.999199461440281711e-01,7.467232126656010846e-04
3.873500195067373086e-01,7.467232126656010846e-04
5.002669530349181937e-01,7.467232126656010846e-04
6.461004561650423028e-01,7.467232126656010846e-04
8.344460830846414101e-01,7.467232126656010846e-04
1.077696601095472939e+00,7.467232126656010846e-04
1.391857410031039022e+00,7.467232126656010846e-04
1.797599665702842797e+00,7.467232126656010846e-04
2.321620400801625017e+00,7.467232126656010846e-04
2.998399136501226359e+00,7.467232126656010846e-04
3.872466566311632441e+00,7.467232126656010846e-04
5.001334587062326698e+00,7.467232126656010846e-04
6.459280467221720556e+00,7.467232126656010846e-04
8.342234143294701809e+00,7.467232126656010846e-04
1.077409021867188166e+01,7.467232126656010846e-04
1.391485998188919204e+01,7.467232126656010846e-04
1.797119983087065620e+01,7.467232126656010846e-04
2.321000885251001122e+01,7.467232126656010846e-04
2.997599025125830607e+01,7.467232126656010846e-04
3.871433213375783566e+01,7.467232126656010846e-04
4.999999999999999289e+01,7.467232126656010846e-04
2.999999999999999542e-02,1.174020983148275476e-03
3.874534099716626934e-02,1.174020983148275476e-03
5.004004829955644579e-02,1.174020983148275476e-03
6.462729116269952390e-02,1.174020983148275476e-03
8.346688112739811261e-02,1.174020983148275476e-03
1.077984257083660635e-01,1.174020983148275476e-03
1.392228921009446008e-01,1.174020983148275476e-03
1.798079476354262352e-01,1.174020983148275476e-03
2.322240081711735571e-01,1.174020983148275476e-03
2.999199461440281711e-01,1.174020983148275476e-03
3.873500195067373086e-01,1.174020983148275476e-03
5.002669530349181937e-01,1.174020983148275476e-03
6.461004561650423028e-01,1.174020983148275476e-03
8.344460830846414101e-01,1.174020983148275476e-03
1.077696601095472939e+00,1.174020983148275476e-03
1.391857410031039022e+00,1.174020983148275476e-03
1.797599665702842797e+00,1.174020983148275476e-03
2.321620400801625017e+00,1.174020983148275476e-03
2.998399136501226359e+00,1.174020983148275476e-03
3.872466566311632441e+00,1.174020983148275476e-03
5.001334587062326698e+00,1.174020983148275476e-03
6.459280467221720556e+00,1.174020983148275476e-03
8.342234143294701809e+00,1.174020983148275476e-03
1.077409021867188166e+01,1.174020983148275476e-03
1.391485998188919204e+01,1.174020983148275476e-03
1.797119983087065620e+01,1.174020983148275476e-03
2.321000885251001122e+01,1.174020983148275476e-03
2.997599025125830607e+01,1.174020983148275476e-03
3.871433213375783566e+01,1.174020983148275476e-03
4.999999999999999289e+01,1.174020983148275476e-03
2.999999999999999542e-02,1.845831555111559618e-03
3.874534099716626934e-02,1.845831555111559618e-03
5.004004829955644579e-02,1.845831555111559618e-03
6.462729116269952390e-02,1.845831555111559618e-03
8.346688112739811261e-02,1.845831555111559618e-03
1.077984257083660635e-01,1.845831555111559618e-03
1.392228921009446008e-01,1.845831555111559618e-03
1.798079476354262352e-01,1.845831555111559618e-03
2.322240081711735571e-01,1.845831555111559618e-03
2.999199461440281711e-01,1.845831555111559618e-03
3.873500195067373086e-01,1.845831555111559618e-03
5.002669530349181937e-01,1.845831555111559618e-03
6.461004561650423028e-01,1.845831555111559618e-03
8.344460830846414101e-01,1.845831555111559618e-03
1.077696601095472939e+00,1.845831555111559618e-03
1.391857410031039022e+00,1.845831555111559618e-03
1.797599665702842797e+00,1.845831555111559618e-03
2.321620400801625017e+00,1.845831555111559618e-03
2.998399136501226359e+00,1.845831555111559618e-03
3.872466566311632441e+00,1.845831555111559618e-03
5.001334587062326698e+00,1.845831555111559618e-03
6.459280467221720556e+00,1.845831555111559618e-03
8.342234143294701809e+00,1.845831555111559618e-03
1.077409021867188166e+01,1.845831555111559618e-03
1.391485998188919204e+01,1.845831555111559618e-03
1.797119983087065620e+01,1.845831555111559618e-03
2.321000885251001122e+01,1.845831555111559618e-03
2.997599025125830607e+01,1.845831555111559618e-03
3.871433213375783566e+01,1.845831555111559618e-03
4.999999999999999289e+01,1.845831555111559618e-03
2.999999999999999542e-02,2.902072602407012626e-03
3.874534099716626934e-02,2.902072602407012626e-03
5.004004829955644579e-02,2.902072602407012626e-03
6.462729116269952390e-02,2.902072602407012626e-03
8.346688112739811261e-02,2.902072602407012626e-03
1.077984257083660635e-01,2.902072602407012626e-03
1.392228921009446008e-01,2.902072602407012626e-03
1.798079476354262352e-01,2.902072602407012626e-03
2.322240081711735571e-01,2.902072602407012626e-03
2.999199461440281711e-01,2.902072602407012626e-03
3.873500195067373086e-01,2.902072602407012626e-03
5.002669530349181937e-01,2.902072602407012626e-03
6.461004561650423028e-01,2.902072602407012626e-03
8.344460830846414101e-01,2.902072602407012626e-03
1.077696601095472939e+00,2.902072602407012626e-03
1.391857410031039022e+00,2.902072602407012626e-03
1.797599665702842797e+00,2.902072602407012626e-03
2.321620400801625017e+00,2.902072602407012626e-03
2.998399136501226359e+00,2.902072602407012626e-03
3.872466566311632441e+00,2.902072602407012626e-03
5.001334587062326698e+00,2.902072602407012626e-03
6.459280467221720556e+00,2.902072602407012626e-03
8.342234143294701809e+00,2.902072602407012626e-03
1.077409021867188166e+01,2.902072602407012626e-03
1.391485998188919204e+01,2.902072602407012626e-03
1.797119983087065620e+01,2.902072602407012626e-03
2.321000885251001122e+01,2.902072602407012626e-03
2.997599025125830607e+01,2.902072602407012626e-03
3.871433213375783566e+01,2.902072602407012626e-03
4.999999999999999289e+01,2.902072602407012626e-03
2.999999999999999542e-02,4.562726954319726129e-03
3.874534099716626934e-02,4.562726954319726129e-03
5.004004829955644579e-02,4.562726954319726129e-03
6.462729116269952390e-02,4.562726954319726129e-03
8.346688112739811261e-02,4.562726954319726129e-03
1.077984257083660635e-01,4.562726954319726129e-03
1.392228921009446008e-01,4.562726954319726129e-03
1.798079476354262352e-01,4.562726954319726129e-03
2.322240081711735571e-01,4.562726954319726129e-03
2.999199461440281711e-01,4.562726954319726129e-03
3.873500195067373086e-01,4.562726954319726129e-03
5.002669530349181937e-01,4.562726954319726129e-03
6.461004561650423028e-01,4.562726954319726129e-03
8.344460830846414101e-01,4.562726954319726129e-03
1.077696601095472939e+00,4.562726954319726129e-03
1.391857410031039022e+00,4.562726954319726129e-03
1.797599665702842797e+00,4.562726954319726129e-03
2.321620400801625017e+00,4.562726954319726129e-03
2.998399136501226359e+00,4.562726954319726129e-03
3.872466566311632441e+00,4.562726954319726129e-03
5.001334587062326698e+00,4.562726954319726129e-03
6.459280467221720556e+00,4.562726954319726129e-03
8.342234143294701809e+00,4.562726954319726129e-03
1.077409021867188166e+01,4.562726954319726129e-03
1.391485998188919204e+01,4.562726954319726129e-03
1.797119983087065620e+01,4.562726954319726129e-03
2.321000885251001122e+01,4.562726954319726129e-03
2.997599025125830607e+01,4.562726954319726129e-03
3.871433213375783566e+01,4.562726954319726129e-03
4.999999999999999289e+01,4.562726954319726129e-03
2.999999999999999542e-02,7.173658316614366093e-03
3.874534099716626934e-02,7.173658316614366093e-03
5.004004829955644579e-02,7.173658316614366093e-03
6.462729116269952390e-02,7.173658316614366093e-03
8.346688112739811261e-02,7.173658316614366093e-03
1.077984257083660635e-01,7.173658316614366093e-03
1.392228921009446008e-01,7.173658316614366093e-03
1.798079476354262352e-01,7.173658316614366093e-03
2.322240081711735571e-01,7.173658316614366093e-03
2.999199461440281711e-01,7.173658316614366093e-03
3.873500195067373086e-01,7.173658316614366093e-03
5.002669530349181937e-01,7.173658316614366093e-03
6.461004561650423028e-01,7.173658316614366093e-03
8.344460830846414101e-01,7.173658316614366093e-03
1.077696601095472939e+00,7.173658316614366093e-03
1.391857410031039022e+00,7.173658316614366093e-03
1.797599665702842797e+00,7.173658316614366093e-03
2.321620400801625017e+00,7.173658316614366093e-03
2.998399136501226359e+00,7.173658316614366093e-03
3.872466566311632441e+00,7.173658316614366093e-03
5.001334587062326698e+00,7.173658316614366093e-03
6.459280467221720556e+00,7.173658316614366093e-03
8.342234143294701809e+00,7.173658316614366093e-03
1.077409021867188166e+01,7.173658316614366093e-03
1.391485998188919204e+01,7.173658316614366093e-03
1.797119983087065620e+01,7.173658316614366093e-03
2.321000885251001122e+01,7.173658316614366093e-03
2.997599025125830607e+01,7.173658316614366093e-03
3.871433213375783566e+01,7.173658316614366093e-03
4.999999999999999289e+01,7.173658316614366093e-03
2.999999999999999542e-02,1.127864414389510156e-02
3.874534099716626934e-02,1.127864414389510156e-02
5.004004829955644579e-02,1.127864414389510156e-02
6.462729116269952390e-02,1.127864414389510156e-02
8.346688112739811261e-02,1.127864414389510156e-02
1.077984257083660635e-01,1.127864414389510156e-02
1.392228921009446008e-01,1.127864414389510156e-02
1.798079476354262352e-01,1.127864414389510156e-02
2.322240081711735571e-01,1.127864414389510156e-02
2.999199461440281711e-01,1.127864414389510156e-02
3.873500195067373086e-01,1.127864414389510156e-02
5.002669530349181937e-01,1.127864414389510156e-02
6.461004561650423028e-01,1.127864414389510156e-02
8.344460830846414101e-01,1.127864414389510156e-02
1.077696601095472939e+00,1.127864414389510156e-02
1.391857410031039022e+00,1.127864414389510156e-02
1.797599665702842797e+00,1.127864414389510156e-02
2.321620400801625017e+00,1.127864414389510156e-02
2.998399136501226359e+00,1.127864414389510156e-02
3.872466566311632441e+00,1.127864414389510156e-02
5.001334587062326698e+00,1.127864414389510156e-02
6.459280467221720556e+00,1.127864414389510156e-02
8.342234143294701809e+00,1.127864414389510156e-02
1.077409021867188166e+01,1.127864414389510156e-02
1.391485998188919204e+01,1.127864414389510156e-02
1.797119983087065620e+01,1.127864414389510156e-02
2.321000885251001122e+01,1.127864414389510156e-02
2.997599025125830607e+01,1.127864414389510156e-02
3.871433213375783566e+01,1.127864414389510156e-02
4.999999999999999289e+01,1.127864414389510156e-02
2.999999999999999542e-02,1.773262791594112930e-02
3.874534099716626934e-02,1.773262791594112930e-02
5.004004829955644579e-02,1.773262791594112930e-02
6.462729116269952390e-02,1.773262791594112930e-02
8.346688112739811261e-02,1.773262791594112930e-02
1.077984257083660635e-01,1.773262791594112930e-02
1.392228921009446008e-01,1.773262791594112930e-02
1.798079476354262352e-01,1.773262791594112930e-02
2.322240081711735571e-01,1.773262791594112930e-02
2.999199461440281711e-01,1.773262791594112930e-02
3.873500195067373086e-01,1.773262791594112930e-02
5.002669530349181937e-01,1.773262791594112930e-02
6.461004561650423028e-01,1.773262791594112930e-02
8.344460830846414101e-01,1.773262791594112930e-02
1.077696601095472939e+00,1.773262791594112930e-02
1.391857410031039022e+00,1.773262791594112930e-02
1.797599665702842797e+00,1.773262791594112930e-02
2.321620400801625017e+00,1.773262791594112930e-02
2.998399136501226359e+00,1.773262791594112930e-02
3.872466566311632441e+00,1.773262791594112930e-02
5.001334587062326698e+00,1.773262791594112930e-02
6.459280467221720556e+00,1.773262791594112930e-02
8.342234143294701809e+00,1.773262791594112930e-02
1.077409021867188166e+01,1.773262791594112930e-02
1.391485998188919204e+01,1.773262791594112930e-02
1.797119983087065620e+01,1.773262791594112930e-02
2.321000885251001122e+01,1.773262791594112930e-02
2.997599025125830607e+01,1.773262791594112930e-02
3.871433213375783566e+01,1.773262791594112930e-02
4.999999999999999289e+01,1.773262791594112930e-02
2.999999999999999542e-02,2.787977781668178959e-02
3.874534099716626934e-02,2.787977781668178959e-02
5.004004829955644579e-02,2.787977781668178959e-02
6.462729116269952390e-02,2.787977781668178959e-02
8.346688112739811261e-02,2.787977781668178959e-02
1.077984257083660635e-01,2.787977781668178959e-02
1.392228921009446008e-01,2.787977781668178959e-02
1.798079476354262352e-01,2.787977781668178959e-02
2.322240081711735571e-01,2.787977781668178959e-02
2.999199461440281711e-01,2.787977781668178959e-02
3.873500195067373086e-01,2.787977781668178959e-02
5.002669530349181937e-01,2.787977781668178959e-02
6.461004561650423028e-01,2.787977781668178959e-02
8.344460830846414101e-01,2.787977781668178959e-02
1.077696601095472939e+00,2.787977781668178959e-02
1.391857410031039022e+00,2.787977781668178959e-02
1.797599665702842797e+00,2.787977781668178959e-02
2.321620400801625017e+00,2.787977781668178959e-02
2.998399136501226359e+00,2.787977781668178959e-02
3.872466566311632441e+00,2.787977781668178959e-02
5.001334587062326698e+00,2.787977781668178959e-02
6.459280467221720556e+00,2.787977781668178959e-02
8.342234143294701809e+00,2.787977781668178959e-02
1.077409021867188166e+01,2.787977781668178959e-02
1.391485998188919204e+01,2.787977781668178959e-02
1.797119983087065620e+01,2.787977781668178959e-02
2.321000885251001122e+01,2.787977781668178959e-02
2.997599025125830607e+01,2.787977781668178959e-02
3.871433213375783566e+01,2.787977781668178959e-02
4.999999999999999289e+01,2.787977781668178959e-02
2.999999999999999542e-02,4.383343601366538472e-02
3.874534099716626934e-02,4.383343601366538472e-02
5.004004829955644579e-02,4.383343601366538472e-02
6.462729116269952390e-02,4.383343601366538472e-02
8.346688112739811261e-02,4.383343601366538472e-02
1.077984257083660635e-01,4.383343601366538472e-02
1.392228921009446008e-01,4.383343601366538472e-02
1.798079476354262352e-01,4.383343601366538472e-02
2.322240081711735571e-01,4.383343601366538472e-02
2.999199461440281711e-01,4.383343601366538472e-02
3.873500195067373086e-01,4.383343601366538472e-02
5.002669530349181937e-01,4.383343601366538472e-02
6.461004561650423028e-01,4.383343601366538472e-02
8.344460830846414101e-01,4.383343601366538472e-02
1.077696601095472939e+00,4.383343601366538472e-02
1.391857410031039022e+00,4.383343601366538472e-02
1.797599665702842797e+00,4.383343601366538472e-02
2.321620400801625017e+00,4.383343601366538472e-02
2.998399136501226359e+00,4.383343601366538472e-02
3.872466566311632441e+00,4.383343601366538472e-02
5.001334587062326698e+00,4.383343601366538472e-02
6.459280467221720556e+00,4.383343601366538472e-02
8.342234143294701809e+00,4.383343601366538472e-02
1.077409021867188166e+01,4.383343601366538472e-02
1.391485998188919204e+01,4.383343601366538472e-02
1.797119983087065620e+01,4.383343601366538472e-02
2.321000885251001122e+01,4.383343601366538472e-02
2.997599025125830607e+01,4.383343601366538472e-02
3.871433213375783566e+01,4.383343601366538472e-02
4.999999999999999289e+01,4.383343601366538472e-02
2.999999999999999542e-02,6.891626344362222767e-02
3.874534099716626934e-02,6.891626344362222767e-02
5.004004829955644579e-02,6.891626344362222767e-02
6.462729116269952390e-02,6.891626344362222767e-02
8.346688112739811261e-02,6.891626344362222767e-02
1.077984257083660635e-01,6.891626344362222767e-02
1.392228921009446008e-01,6.891626344362222767e-02
1.798079476354262352e-01,6.891626344362222767e-02
2.322240081711735571e-01,6.891626344362222767e-02
2.999199461440281711e-01,6.891626344362222767e-02
3.873500195067373086e-01,6.891626344362222767e-02
5.002669530349181937e-01,6.891626344362222767e-02
6.461004561650423028e-01,6.891626344362222767e-02
8.344460830846414101e-01,6.891626344362222767e-02
1.077696601095472939e+00,6.891626344362222767e-02
1.391857410031039022e+00,6.891626344362222767e-02
1.797599665702842797e+00,6.891626344362222767e-02
2.321620400801625017e+00,6.891626344362222767e-02
2.998399136501226359e+00,6.891626344362222767e-02
3.872466566311632441e+00,6.891626344362222767e-02
5.001334587062326698e+00,6.891626344362222767e-02
6.459280467221720556e+00,6.891626344362222767e-02
8.342234143294701809e+00,6.891626344362222767e-02
1.077409021867188166e+01,6.891626344362222767e-02
1.391485998188919204e+01,6.891626344362222767e-02
1.797119983087065620e+01,6.891626344362222767e-02
2.321000885251001122e+01,6.891626344362222767e-02
2.997599025125830607e+01,6.891626344362222767e-02
3.871433213375783566e+01,6.891626344362222767e-02
4.999999999999999289e+01,6.891626344362222767e-02
2.999999999999999542e-02,1.083522488529092692e-01
3.874534099716626934e-02,1.083522488529092692e-01
5.004004829955644579e-02,1.083522488529092692e-01
6.462729116269952390e-02,1.083522488529092692e-01
8.346688112739811261e-02,1.083522488529092692e-01
1.077984257083660635e-01,1.083522488529092692e-01
1.392228921009446008e-01,1.083522488529092692e-01
1.798079476354262352e-01,1.083522488529092692e-01
2.322240081711735571e-01,1.083522488529092692e-01
2.999199461440281711e-01,1.083522488529092692e-01
3.873500195067373086e-01,1.083522488529092692e-01
5.002669530349181937e-01,1.083522488529092692e-01
6.461004561650423028e-01,1.083522488529092692e-01
8.344460830846414101e-01,1.083522488529092692e-01
1.077696601095472939e+00,1.083522488529092692e-01
1.391857410031039022e+00,1.083522488529092692e-01
1.797599665702842797e+00,1.083522488529092692e-01
2.321620400801625017e+00,1.083522488529092692e-01
2.998399136501226359e+00,1.083522488529092692e-01
3.872466566311632441e+00,1.083522488529092692e-01
5.001334587062326698e+00,1.083522488529092692e-01
6.459280467221720556e+00,1.083522488529092692e-01
8.342234143294701809e+00,1.083522488529092692e-01
1.077409021867188166e+01,1.083522488529092692e-01
1.391485998188919204e+01,1.083522488529092692e-01
1.797119983087065620e+01,1.083522488529092692e-01
2.321000885251001122e+01,1.083522488529092692e-01
2.997599025125830607e+01,1.083522488529092692e-01
3.871433213375783566e+01,1.083522488529092692e-01
4.999999999999999289e+01,1.083522488529092692e-01
2.999999999999999542e-02,1.703547064922779075e-01
3.874534099716626934e-02,1.703547064922779075e-01
5.004004829955644579e-02,1.703547064922779075e-01
6.462729116269952390e-02,1.703547064922779075e-01
8.346688112739811261e-02,1.703547064922779075e-01
1.077984257083660635e-01,1.703547064922779075e-01
1.392228921009446008e-01,1.703547064922779075e-01
1.798079476354262352e-01,1.703547064922779075e-01
2.322240081711735571e-01,1.703547064922779075e-01
2.999199461440281711e-01,1.703547064922779075e-01
3.873500195067373086e-01,1.703547064922779075e-01
5.002669530349181937e-01,1.703547064922779075e-01
6.461004561650423028e-01,1.703547064922779075e-01
8.344460830846414101e-01,1.703547064922779075e-01
1.077696601095472939e+00,1.703547064922779075e-01
1.391857410031039022e+00,1.703547064922779075e-01
1.797599665702842797e+00,1.703547064922779075e-01
2.321620400801625017e+00,1.703547064922779075e-01
2.998399136501226359e+00,1.703547064922779075e-01
3.872466566311632441e+00,1.703547064922779075e-01
5.001334587062326698e+00,1.703547064922779075e-01
6.459280467221720556e+00,1.703547064922779075e-01
8.342234143294701809e+00,1.703547064922779075e-01
1.077409021867188166e+01,1.703547064922779075e-01
1.391485998188919204e+01,1.703547064922779075e-01
1.797119983087065620e+01,1.703547064922779075e-01
2.321000885251001122e+01,1.703547064922779075e-01
2.997599025125830607e+01,1.703547064922779075e-01
3.871433213375783566e+01,1.703547064922779075e-01
4.999999999999999289e+01,1.703547064922779075e-01
2.999999999999999542e-02,2.678368592373790436e-01
3.874534099716626934e-02,2.678368592373790436e-01
5.004004829955644579e-02,2.678368592373790436e-01
6.462729116269952390e-02,2.678368592373790436e-01
8.346688112739811261e-02,2.678368592373790436e-01
1.077984257083660635e-01,2.678368592373790436e-01
1.392228921009446008e-01,2.678368592373790436e-01
1.798079476354262352e-01,2.678368592373790436e-01
2.322240081711735571e-01,2.678368592373790436e-01
2.999199461440281711e-01,2.678368592373790436e-01
3.873500195067373086e-01,2.678368592373790436e-01
5.002669530349181937e-01,2.678368592373790436e-01
6.461004561650423028e-01,2.678368592373790436e-01
8.344460830846414101e-01,2.678368592373790436e-01
1.077696601095472939e+00,2.678368592373790436e-01
1.391857410031039022e+00,2.678368592373790436e-01
1.797599665702842797e+00,2.678368592373790436e-01
2.321620400801625017e+00,2.678368592373790436e-01
2.998399136501226359e+00,2.678368592373790436e-01
3.872466566311632441e+00,2.678368592373790436e-01
5.001334587062326698e+00,2.678368592373790436e-01
6.459280467221720556e+00,2.678368592373790436e-01
8.342234143294701809e+00,2.678368592373790436e-01
1.077409021867188166e+01,2.678368592373790436e-01
1.391485998188919204e+01,2.678368592373790436e-01
1.797119983087065620e+01,2.678368592373790436e-01
2.321000885251001122e+01,2.678368592373790436e-01
2.997599025125830607e+01,2.678368592373790436e-01
3.871433213375783566e+01,2.678368592373790436e-01
4.999999999999999289e+01,2.678368592373790436e-01
2.999999999999999542e-02,4.211012694820704394e-01
3.874534099716626934e-02,4.211012694820704394e-01
5.004004829955644579e-02,4.211012694820704394e-01
6.462729116269952390e-02,4.211012694820704394e-01
8.346688112739811261e-02,4.211012694820704394e-01
1.077984257083660635e-01,4.211012694820704394e-01
1.392228921009446008e-01,4.211012694820704394e-01
1.798079476354262352e-01,4.211012694820704394e-01
2.322240081711735571e-01,4.211012694820704394e-01
2.999199461440281711e-01,4.211012694820704394e-01
3.873500195067373086e-01,4.211012694820704394e-01
5.002669530349181937e-01,4.211012694820704394e-01
6.461004561650423028e-01,4.211012694820704394e-01
8.344460830846414101e-01,4.211012694820704394e-01
1.077696601095472939e+00,4.211012694820704394e-01
1.391857410031039022e+00,4.211012694820704394e-01
1.797599665702842797e+00,4.211012694820704394e-01
2.321620400801625017e+00,4.211012694820704394e-01
2.998399136501226359e+00,4.211012694820704394e-01
3.872466566311632441e+00,4.211012694820704394e-01
5.001334587062326698e+00,4.211012694820704394e-01
6.459280467221720556e+00,4.211012694820704394e-01
8.342234143294701809e+00,4.211012694820704394e-01
1.077409021867188166e+01,4.211012694820704394e-01
1.391485998188919204e+01,4.211012694820704394e-01
1.797119983087065620e+01,4.211012694820704394e-01
2.321000885251001122e+01,4.211012694820704394e-01
2.997599025125830607e+01,4.211012694820704394e-01
3.871433213375783566e+01,4.211012694820704394e-01
4.999999999999999289e+01,4.211012694820704394e-01
2.999999999999999542e-02,6.620682443197639655e-01
3.874534099716626934e-02,6.620682443197639655e-01
5.004004829955644579e-02,6.620682443197639655e-01
6.462729116269952390e-02,6.620682443197639655e-01
8.346688112739811261e-02,6.620682443197639655e-01
1.077984257083660635e-01,6.620682443197639655e-01
1.392228921009446008e-01,6.620682443197639655e-01
1.798079476354262352e-01,6.620682443197639655e-01
2.322240081711735571e-01,6.620682443197639655e-01
2.999199461440281711e-01,6.620682443197639655e-01
3.873500195067373086e-01,6.620682443197639655e-01
5.002669530349181937e-01,6.620682443197639655e-01
6.461004561650423028e-01,6.620682443197639655e-01
8.344460830846414101e-01,6.620682443197639655e-01
1.077696601095472939e+00,6.620682443197639655e-01
1.391857410031039022e+00,6.620682443197639655e-01
1.797599665702842797e+00,6.620682443197639655e-01
2.321620400801625017e+00,6.620682443197639655e-01
2.998399136501226359e+00,6.620682443197639655e-01
3.872466566311632441e+00,6.620682443197639655e-01
5.001334587062326698e+00,6.620682443197639655e-01
6.459280467221720556e+00,6.620682443197639655e-01
8.342234143294701809e+00,6.620682443197639655e-01
1.077409021867188166e+01,6.620682443197639655e-01
1.391485998188919204e+01,6.620682443197639655e-01
1.797119983087065620e+01,6.620682443197639655e-01
2.321000885251001122e+01,6.620682443197639655e-01
2.997599025125830607e+01,6.620682443197639655e-01
3.871433213375783566e+01,6.620682443197639655e-01
4.999999999999999289e+01,6.620682443197639655e-01
2.999999999999999542e-02,1.040923862983787807e+00
3.874534099716626934e-02,1.040923862983787807e+00
5.004004829955644579e-02,1.040923862983787807e+00
6.462729116269952390e-02,1.040923862983787807e+00
8.346688112739811261e-02,1.040923862983787807e+00
1.077984257083660635e-01,1.040923862983787807e+00
1.392228921009446008e-01,1.040923862983787807e+00
1.798079476354262352e-01,1.040923862983787807e+00
2.322240081711735571e-01,1.040923862983787807e+00
2.999199461440281711e-01,1.040923862983787807e+00
3.873500195067373086e-01,1.040923862983787807e+00
5.002669530349181937e-01,1.040923862983787807e+00
6.461004561650423028e-01,1.040923862983787807e+00
8.344460830846414101e-01,1.040923862983787807e+00
1.077696601095472939e+00,1.040923862983787807e+00
1.391857410031039022e+00,1.040923862983787807e+00
1.797599665702842797e+00,1.040923862983787807e+00
2.321620400801625017e+00,1.040923862983787807e+00
2.998399136501226359e+00,1.040923862983787807e+00
3.872466566311632441e+00,1.040923862983787807e+00
5.001334587062326698e+00,1.040923862983787807e+00
6.459280467221720556e+00,1.040923862983787807e+00
8.342234143294701809e+00,1.040923862983787807e+00
1.077409021867188166e+01,1.040923862983787807e+00
1.391485998188919204e+01,1.040923862983787807e+00
1.797119983087065620e+01,1.040923862983787807e+00
2.321000885251001122e+01,1.040923862983787807e+00
2.997599025125830607e+01,1.040923862983787807e+00
3.871433213375783566e+01,1.040923862983787807e+00
4.999999999999999289e+01,1.040923862983787807e+00
2.999999999999999542e-02,1.636572208114813298e+00
3.874534099716626934e-02,1.636572208114813298e+00
5.004004829955644579e-02,1.636572208114813298e+00
6.462729116269952390e-02,1.636572208114813298e+00
8.346688112739811261e-02,1.636572208114813298e+00
1.077984257083660635e-01,1.636572208114813298e+00
1.392228921009446008e-01,1.636572208114813298e+00
1.798079476354262352e-01,1.636572208114813298e+00
2.322240081711735571e-01,1.636572208114813298e+00
2.999199461440281711e-01,1.636572208114813298e+00
3.873500195067373086e-01,1.636572208114813298e+00
5.002669530349181937e-01,1.636572208114813298e+00
6.461004561650423028e-01,1.636572208114813298e+00
8.344460830846414101e-01,1.636572208114813298e+00
1.077696601095472939e+00,1.636572208114813298e+00
1.391857410031039022e+00,1.636572208114813298e+00
1.797599665702842797e+00,1.636572208114813298e+00
2.321620400801625017e+00,1.636572208114813298e+00
2.998399136501226359e+00,1.636572208114813298e+00
3.872466566311632441e+00,1.636572208114813298e+00
5.001334587062326698e+00,1.636572208114813298e+00
6.459280467221720556e+00,1.636572208114813298e+00
8.342234143294701809e+00,1.636572208114813298e+00
1.077409021867188166e+01,1.636572208114813298e+00
1.391485998188919204e+01,1.636572208114813298e+00
1.797119983087065620e+01,1.636572208114813298e+00
2.321000885251001122e+01,1.636572208114813298e+00
2.997599025125830607e+01,1.636572208114813298e+00
3.871433213375783566e+01,1.636572208114813298e+00
4.999999999999999289e+01,1.636572208114813298e+00
2.999999999999999542e-02,2.573068682176522515e+00
3.874534099716626934e-02,2.573068682176522515e+00
5.004004829955644579e-02,2.573068682176522515e+00
6.462729116269952390e-02,2.573068682176522515e+00
8.346688112739811261e-02,2.573068682176522515e+00
1.077984257083660635e-01,2.573068682176522515e+00
1.392228921009446008e-01,2.573068682176522515e+00
1.798079476354262352e-01,2.573068682176522515e+00
2.322240081711735571e-01,2.573068682176522515e+00
2.999199461440281711e-01,2.573068682176522515e+00
3.873500195067373086e-01,2.573068682176522515e+00
5.002669530349181937e-01,2.573068682176522515e+00
6.461004561650423028e-01,2.573068682176522515e+00
8.344460830846414101e-01,2.573068682176522515e+00
1.077696601095472939e+00,2.573068682176522515e+00
1.391857410031039022e+00,2.573068682176522515e+00
1.797599665702842797e+00,2.573068682176522515e+00
2.321620400801625017e+00,2.573068682176522515e+00
2.998399136501226359e+00,2.573068682176522515e+00
3.872466566311632441e+00,2.573068682176522515e+00
5.001334587062326698e+00,2.573068682176522515e+00
6.459280467221720556e+00,2.573068682176522515e+00
8.342234143294701809e+00,2.573068682176522515e+00
1.077409021867188166e+01,2.573068682176522515e+00
1.391485998188919204e+01,2.573068682176522515e+00
1.797119983087065620e+01,2.573068682176522515e+00
2.321000885251001122e+01,2.573068682176522515e+00
2.997599025125830607e+01,2.573068682176522515e+00
3.871433213375783566e+01,2.573068682176522515e+00
4.999999999999999289e+01,2.573068682176522515e+00
2.999999999999999542e-02,4.045456968149350629e+00
3.874534099716626934e-02,4.045456968149350629e+00
5.004004829955644579e-02,4.045456968149350629e+00
6.462729116269952390e-02,4.045456968149350629e+00
8.346688112739811261e-02,4.045456968149350629e+00
1.077984257083660635e-01,4.045456968149350629e+00
1.392228921009446008e-01,4.045456968149350629e+00
1.798079476354262352e-01,4.045456968149350629e+00
2.322240081711735571e-01,4.045456968149350629e+00
2.999199461440281711e-01,4.045456968149350629e+00
3.873500195067373086e-01,4.045456968149350629e+00
5.002669530349181937e-01,4.045456968149350629e+00
6.461004561650423028e-01,4.045456968149350629e+00
8.344460830846414101e-01,4.045456968149350629e+00
1.077696601095472939e+00,4.045456968149350629e+00
1.391857410031039022e+00,4.045456968149350629e+00
1.797599665702842797e+00,4.045456968149350629e+00
2.321620400801625017e+00,4.045456968149350629e+00
2.998399136501226359e+00,4.045456968149350629e+00
3.872466566311632441e+00,4.045456968149350629e+00
5.001334587062326698e+00,4.045456968149350629e+00
6.459280467221720556e+00,4.045456968149350629e+00
8.342234143294701809e+00,4.045456968149350629e+00
1.077409021867188166e+01,4.045456968149350629e+00
1.391485998188919204e+01,4.045456968149350629e+00
1.797119983087065620e+01,4.045456968149350629e+00
2.321000885251001122e+01,4.045456968149350629e+00
2.997599025125830607e+01,4.045456968149350629e+00
3.871433213375783566e+01,4.045456968149350629e+00
4.999999999999999289e+01,4.045456968149350629e+00
2.999999999999999542e-02,6.360390686230963375e+00
3.874534099716626934e-02,6.360390686230963375e+00
5.004004829955644579e-02,6.360390686230963375e+00
6.462729116269952390e-02,6.360390686230963375e+00
8.346688112739811261e-02,6.360390686230963375e+00
1.077984257083660635e-01,6.360390686230963375e+00
1.392228921009446008e-01,6.360390686230963375e+00
1.798079476354262352e-01,6.360390686230963375e+00
2.322240081711735571e-01,6.360390686230963375e+00
2.999199461440281711e-01,6.360390686230963375e+00
3.873500195067373086e-01,6.360390686230963375e+00
5.002669530349181937e-01,6.360390686230963375e+00
6.461004561650423028e-01,6.360390686230963375e+00
8.344460830846414101e-01,6.360390686230963375e+00
1.077696601095472939e+00,6.360390686230963375e+00
1.391857410031039022e+00,6.360390686230963375e+00
1.797599665702842797e+00,6.360390686230963375e+00
2.321620400801625017e+00,6.360390686230963375e+00
2.998399136501226359e+00,6.360390686230963375e+00
3.872466566311632441e+00,6.360390686230963375e+00
5.001334587062326698e+00,6.360390686230963375e+00
6.459280467221720556e+00,6.360390686230963375e+00
8.342234143294701809e+00,6.360390686230963375e+00
1.077409021867188166e+01,6.360390686230963375e+00
1.391485998188919204e+01,6.360390686230963375e+00
1.797119983087065620e+01,6.360390686230963375e+00
2.321000885251001122e+01,6.360390686230963375e+00
2.997599025125830607e+01,6.360390686230963375e+00
3.871433213375783566e+01,6.360390686230963375e+00
4.999999999999999289e+01,6.360390686230963375e+00
2.999999999999999542e-02,1.000000000000000000e+01
3.874534099716626934e-02,1.000000000000000000e+01
5.004004829955644579e-02,1.000000000000000000e+01
6.462729116269952390e-02,1.000000000000000000e+01
8.346688112739811261e-02,1.000000000000000000e+01
1.077984257083660635e-01,1.000000000000000000e+01
1.392228921009446008e-01,1.000000000000000000e+01
1.798079476354262352e-01,1.000000000000000000e+01
2.322240081711735571e-01,1.000000000000000000e+01
2.999199461440281711e-01,1.000000000000000000e+01
3.873500195067373086e-01,1.000000000000000000e+01
5.002669530349181937e-01,1.000000000000000000e+01
6.461004561650423028e-01,1.000000000000000000e+01
8.344460830846414101e-01,1.000000000000000000e+01
1.077696601095472939e+00,1.000000000000000000e+01
1.391857410031039022e+00,1.000000000000000000e+01
1.797599665702842797e+00,1.000000000000000000e+01
2.321620400801625017e+00,1.000000000000000000e+01
2.998399136501226359e+00,1.000000000000000000e+01
3.872466566311632441e+00,1.000000000000000000e+01
5.001334587062326698e+00,1.000000000000000000e+01
6.459280467221720556e+00,1.000000000000000000e+01
8.342234143294701809e+00,1.000000000000000000e+01
1.077409021867188166e+01,1.000000000000000000e+01
1.391485998188919204e+01,1.000000000000000000e+01
1.797119983087065620e+01,1.000000000000000000e+01
2.321000885251001122e+01,1.000000000000000000e+01
2.997599025125830607e+01,1.000000000000000000e+01
3.871433213375783566e+01,1.000000000000000000e+01
4.999999999999999289e+01,1.000000000000000000e+01
