# pNcenT, phiNcenT
2.999999999999999542e-02,2.000000000000000164e-05
3.874534099716626934e-02,2.000000000000000164e-05
5.004004829955644579e-02,2.000000000000000164e-05
6.462729116269952390e-02,2.000000000000000164e-05
8.346688112739811261e-02,2.000000000000000164e-05
1.077984257083660635e-01,2.000000000000000164e-05
1.392228921009446008e-01,2.000000000000000164e-05
1.798079476354262352e-01,2.000000000000000164e-05
2.322240081711735571e-01,2.000000000000000164e-05
2.999199461440281711e-01,2.000000000000000164e-05
3.873500195067373086e-01,2.000000000000000164e-05
5.002669530349181937e-01,2.000000000000000164e-05
6.461004561650423028e-01,2.000000000000000164e-05
8.344460830846414101e-01,2.000000000000000164e-05
1.077696601095472939e+00,2.000000000000000164e-05
1.391857410031039022e+00,2.000000000000000164e-05
1.797599665702842797e+00,2.000000000000000164e-05
2.321620400801625017e+00,2.000000000000000164e-05
2.998399136501226359e+00,2.000000000000000164e-05
3.872466566311632441e+00,2.000000000000000164e-05
5.001334587062326698e+00,2.000000000000000164e-05
6.459280467221720556e+00,2.000000000000000164e-05
8.342234143294701809e+00,2.000000000000000164e-05
1.077409021867188166e+01,2.000000000000000164e-05
1.391485998188919204e+01,2.000000000000000164e-05
1.797119983087065620e+01,2.000000000000000164e-05
2.321000885251001122e+01,2.000000000000000164e-05
2.997599025125830607e+01,2.000000000000000164e-05
3.871433213375783566e+01,2.000000000000000164e-05
4.999999999999999289e+01,2.000000000000000164e-05
2.999999999999999542e-02,2.904446920806165089e-05
3.874534099716626934e-02,2.904446920806165089e-05
5.004004829955644579e-02,2.904446920806165089e-05
6.462729116269952390e-02,2.904446920806165089e-05
8.346688112739811261e-02,2.904446920806165089e-05
1.077984257083660635e-01,2.904446920806165089e-05
1.392228921009446008e-01,2.904446920806165089e-05
1.798079476354262352e-01,2.904446920806165089e-05
2.322240081711735571e-01,2.904446920806165089e-05
2.999199461440281711e-01,2.904446920806165089e-05
3.873500195067373086e-01,2.904446920806165089e-05
5.002669530349181937e-01,2.904446920806165089e-05
6.461004561650423028e-01,2.904446920806165089e-05
8.344460830846414101e-01,2.904446920806165089e-05
1.077696601095472939e+00,2.904446920806165089e-05
1.391857410031039022e+00,2.904446920806165089e-05
1.797599665702842797e+00,2.904446920806165089e-05
2.321620400801625017e+00,2.904446920806165089e-05
2.998399136501226359e+00,2.904446920806165089e-05
3.872466566311632441e+00,2.904446920806165089e-05
5.001334587062326698e+00,2.904446920806165089e-05
6.459280467221720556e+00,2.904446920806165089e-05
8.342234143294701809e+00,2.904446920806165089e-05
1.077409021867188166e+01,2.904446920806165089e-05
1.391485998188919204e+01,2.904446920806165089e-05
1.797119983087065620e+01,2.904446920806165089e-05
2.321000885251001122e+01,2.904446920806165089e-05
2.997599025125830607e+01,2.904446920806165089e-05
3.871433213375783566e+01,2.904446920806165089e-05
4.999999999999999289e+01,2.904446920806165089e-05
2.999999999999999542e-02,4.217905957890215237e-05
3.874534099716626934e-02,4.217905957890215237e-05
5.004004829955644579e-02,4.217905957890215237e-05
6.462729116269952390e-02,4.217905957890215237e-05
8.346688112739811261e-02,4.217905957890215237e-05
1.077984257083660635e-01,4.217905957890215237e-05
1.392228921009446008e-01,4.217905957890215237e-05
1.798079476354262352e-01,4.217905957890215237e-05
2.322240081711735571e-01,4.217905957890215237e-05
2.999199461440281711e-01,4.217905957890215237e-05
3.873500195067373086e-01,4.217905957890215237e-05
5.002669530349181937e-01,4.217905957890215237e-05
6.461004561650423028e-01,4.217905957890215237e-05
8.344460830846414101e-01,4.217905957890215237e-05
1.077696601095472939e+00,4.217905957890215237e-05
1.391857410031039022e+00,4.217905957890215237e-05
1.797599665702842797e+00,4.217905957890215237e-05
2.321620400801625017e+00,4.217905957890215237e-05
2.998399136501226359e+00,4.217905957890215237e-05
3.872466566311632441e+00,4.217905957890215237e-05
5.001334587062326698e+00,4.217905957890215237e-05
6.459280467221720556e+00,4.217905957890215237e-05
8.342234143294701809e+00,4.217905957890215237e-05
1.077409021867188166e+01,4.217905957890215237e-05
1.391485998188919204e+01,4.217905957890215237e-05
1.797119983087065620e+01,4.217905957890215237e-05
2.321000885251001122e+01,4.217905957890215237e-05
2.997599025125830607e+01,4.217905957890215237e-05
3.871433213375783566e+01,4.217905957890215237e-05
4.999999999999999289e+01,4.217905957890215237e-05
2.999999999999999542e-02,6.125341985822105719e-05
3.874534099716626934e-02,6.125341985822105719e-05
5.004004829955644579e-02,6.125341985822105719e-05
6.462729116269952390e-02,6.125341985822105719e-05
8.346688112739811261e-02,6.125341985822105719e-05
1.077984257083660635e-01,6.125341985822105719e-05
1.392228921009446008e-01,6.125341985822105719e-05
1.798079476354262352e-01,6.125341985822105719e-05
2.322240081711735571e-01,6.125341985822105719e-05
2.999199461440281711e-01,6.125341985822105719e-05
3.873500195067373086e-01,6.125341985822105719e-05
5.002669530349181937e-01,6.125341985822105719e-05
6.461004561650423028e-01,6.125341985822105719e-05
8.344460830846414101e-01,6.125341985822105719e-05
1.077696601095472939e+00,6.125341985822105719e-05
1.391857410031039022e+00,6.125341985822105719e-05
1.797599665702842797e+00,6.125341985822105719e-05
2.321620400801625017e+00,6.125341985822105719e-05
2.998399136501226359e+00,6.125341985822105719e-05
3.872466566311632441e+00,6.125341985822105719e-05
5.001334587062326698e+00,6.125341985822105719e-05
6.459280467221720556e+00,6.125341985822105719e-05
8.342234143294701809e+00,6.125341985822105719e-05
1.077409021867188166e+01,6.125341985822105719e-05
1.391485998188919204e+01,6.125341985822105719e-05
1.797119983087065620e+01,6.125341985822105719e-05
2.321000885251001122e+01,6.125341985822105719e-05
2.997599025125830607e+01,6.125341985822105719e-05
3.871433213375783566e+01,6.125341985822105719e-05
4.999999999999999289e+01,6.125341985822105719e-05
2.999999999999999542e-02,8.895365334802886337e-05
3.874534099716626934e-02,8.895365334802886337e-05
5.004004829955644579e-02,8.895365334802886337e-05
6.462729116269952390e-02,8.895365334802886337e-05
8.346688112739811261e-02,8.895365334802886337e-05
1.077984257083660635e-01,8.895365334802886337e-05
1.392228921009446008e-01,8.895365334802886337e-05
1.798079476354262352e-01,8.895365334802886337e-05
2.322240081711735571e-01,8.895365334802886337e-05
2.999199461440281711e-01,8.895365334802886337e-05
3.873500195067373086e-01,8.895365334802886337e-05
5.002669530349181937e-01,8.895365334802886337e-05
6.461004561650423028e-01,8.895365334802886337e-05
8.344460830846414101e-01,8.895365334802886337e-05
1.077696601095472939e+00,8.895365334802886337e-05
1.391857410031039022e+00,8.895365334802886337e-05
1.797599665702842797e+00,8.895365334802886337e-05
2.321620400801625017e+00,8.895365334802886337e-05
2.998399136501226359e+00,8.895365334802886337e-05
3.872466566311632441e+00,8.895365334802886337e-05
5.001334587062326698e+00,8.895365334802886337e-05
6.459280467221720556e+00,8.895365334802886337e-05
8.342234143294701809e+00,8.895365334802886337e-05
1.077409021867188166e+01,8.895365334802886337e-05
1.391485998188919204e+01,8.895365334802886337e-05
1.797119983087065620e+01,8.895365334802886337e-05
2.321000885251001122e+01,8.895365334802886337e-05
2.997599025125830607e+01,8.895365334802886337e-05
3.871433213375783566e+01,8.895365334802886337e-05
4.999999999999999289e+01,8.895365334802886337e-05
2.999999999999999542e-02,1.291805822805706906e-04
3.874534099716626934e-02,1.291805822805706906e-04
5.004004829955644579e-02,1.291805822805706906e-04
6.462729116269952390e-02,1.291805822805706906e-04
8.346688112739811261e-02,1.291805822805706906e-04
1.077984257083660635e-01,1.291805822805706906e-04
1.392228921009446008e-01,1.291805822805706906e-04
1.798079476354262352e-01,1.291805822805706906e-04
2.322240081711735571e-01,1.291805822805706906e-04
2.999199461440281711e-01,1.291805822805706906e-04
3.873500195067373086e-01,1.291805822805706906e-04
5.002669530349181937e-01,1.291805822805706906e-04
6.461004561650423028e-01,1.291805822805706906e-04
8.344460830846414101e-01,1.291805822805706906e-04
1.077696601095472939e+00,1.291805822805706906e-04
1.391857410031039022e+00,1.291805822805706906e-04
1.797599665702842797e+00,1.291805822805706906e-04
2.321620400801625017e+00,1.291805822805706906e-04
2.998399136501226359e+00,1.291805822805706906e-04
3.872466566311632441e+00,1.291805822805706906e-04
5.001334587062326698e+00,1.291805822805706906e-04
6.459280467221720556e+00,1.291805822805706906e-04
8.342234143294701809e+00,1.291805822805706906e-04
1.077409021867188166e+01,1.291805822805706906e-04
1.391485998188919204e+01,1.291805822805706906e-04
1.797119983087065620e+01,1.291805822805706906e-04
2.321000885251001122e+01,1.291805822805706906e-04
2.997599025125830607e+01,1.291805822805706906e-04
3.871433213375783566e+01,1.291805822805706906e-04
4.999999999999999289e+01,1.291805822805706906e-04
2.999999999999999542e-02,1.875990722163756923e-04
3.874534099716626934e-02,1.875990722163756923e-04
5.004004829955644579e-02,1.875990722163756923e-04
6.462729116269952390e-02,1.875990722163756923e-04
8.346688112739811261e-02,1.875990722163756923e-04
1.077984257083660635e-01,1.875990722163756923e-04
1.392228921009446008e-01,1.875990722163756923e-04
1.798079476354262352e-01,1.875990722163756923e-04
2.322240081711735571e-01,1.875990722163756923e-04
2.999199461440281711e-01,1.875990722163756923e-04
3.873500195067373086e-01,1.875990722163756923e-04
5.002669530349181937e-01,1.875990722163756923e-04
6.461004561650423028e-01,1.875990722163756923e-04
8.344460830846414101e-01,1.875990722163756923e-04
1.077696601095472939e+00,1.875990722163756923e-04
1.391857410031039022e+00,1.875990722163756923e-04
1.797599665702842797e+00,1.875990722163756923e-04
2.321620400801625017e+00,1.875990722163756923e-04
2.998399136501226359e+00,1.875990722163756923e-04
3.872466566311632441e+00,1.875990722163756923e-04
5.001334587062326698e+00,1.875990722163756923e-04
6.459280467221720556e+00,1.875990722163756923e-04
8.342234143294701809e+00,1.875990722163756923e-04
1.077409021867188166e+01,1.875990722163756923e-04
1.391485998188919204e+01,1.875990722163756923e-04
1.797119983087065620e+01,1.875990722163756923e-04
2.321000885251001122e+01,1.875990722163756923e-04
2.997599025125830607e+01,1.875990722163756923e-04
3.871433213375783566e+01,1.875990722163756923e-04
4.999999999999999289e+01,1.875990722163756923e-04
2.999999999999999542e-02,2.724357738224731295e-04
3.874534099716626934e-02,2.724357738224731295e-04
5.004004829955644579e-02,2.724357738224731295e-04
6.462729116269952390e-02,2.724357738224731295e-04
8.346688112739811261e-02,2.724357738224731295e-04
1.077984257083660635e-01,2.724357738224731295e-04
1.392228921009446008e-01,2.724357738224731295e-04
1.798079476354262352e-01,2.724357738224731295e-04
2.322240081711735571e-01,2.724357738224731295e-04
2.999199461440281711e-01,2.724357738224731295e-04
3.873500195067373086e-01,2.724357738224731295e-04
5.002669530349181937e-01,2.724357738224731295e-04
6.461004561650423028e-01,2.724357738224731295e-04
8.344460830846414101e-01,2.724357738224731295e-04
1.077696601095472939e+00,2.724357738224731295e-04
1.391857410031039022e+00,2.724357738224731295e-04
1.797599665702842797e+00,2.724357738224731295e-04
2.321620400801625017e+00,2.724357738224731295e-04
2.998399136501226359e+00,2.724357738224731295e-04
3.872466566311632441e+00,2.724357738224731295e-04
5.001334587062326698e+00,2.724357738224731295e-04
6.459280467221720556e+00,2.724357738224731295e-04
8.342234143294701809e+00,2.724357738224731295e-04
1.077409021867188166e+01,2.724357738224731295e-04
1.391485998188919204e+01,2.724357738224731295e-04
1.797119983087065620e+01,2.724357738224731295e-04
2.321000885251001122e+01,2.724357738224731295e-04
2.997599025125830607e+01,2.724357738224731295e-04
3.871433213375783566e+01,2.724357738224731295e-04
4.999999999999999289e+01,2.724357738224731295e-04
2.999999999999999542e-02,3.956376221980634233e-04
3.874534099716626934e-02,3.956376221980634233e-04
5.004004829955644579e-02,3.956376221980634233e-04
6.462729116269952390e-02,3.956376221980634233e-04
8.346688112739811261e-02,3.956376221980634233e-04
1.077984257083660635e-01,3.956376221980634233e-04
1.392228921009446008e-01,3.956376221980634233e-04
1.798079476354262352e-01,3.956376221980634233e-04
2.322240081711735571e-01,3.956376221980634233e-04
2.999199461440281711e-01,3.956376221980634233e-04
3.873500195067373086e-01,3.956376221980634233e-04
5.002669530349181937e-01,3.956376221980634233e-04
6.461004561650423028e-01,3.956376221980634233e-04
8.344460830846414101e-01,3.956376221980634233e-04
1.077696601095472939e+00,3.956376221980634233e-04
1.391857410031039022e+00,3.956376221980634233e-04
1.797599665702842797e+00,3.956376221980634233e-04
2.321620400801625017e+00,3.956376221980634233e-04
2.998399136501226359e+00,3.956376221980634233e-04
3.872466566311632441e+00,3.956376221980634233e-04
5.001334587062326698e+00,3.956376221980634233e-04
6.459280467221720556e+00,3.956376221980634233e-04
8.342234143294701809e+00,3.956376221980634233e-04
1.077409021867188166e+01,3.956376221980634233e-04
1.391485998188919204e+01,3.956376221980634233e-04
1.797119983087065620e+01,3.956376221980634233e-04
2.321000885251001122e+01,3.956376221980634233e-04
2.997599025125830607e+01,3.956376221980634233e-04
3.871433213375783566e+01,3.956376221980634233e-04
4.999999999999999289e+01,3.956376221980634233e-04
2.999999999999999542e-02,5.745542367741201823e-04
3.874534099716626934e-02,5.745542367741201823e-04
5.004004829955644579e-02,5.745542367741201823e-04
6.462729116269952390e-02,5.745542367741201823e-04
8.346688112739811261e-02,5.745542367741201823e-04
1.077984257083660635e-01,5.745542367741201823e-04
1.392228921009446008e-01,5.745542367741201823e-04
1.798079476354262352e-01,5.745542367741201823e-04
2.322240081711735571e-01,5.745542367741201823e-04
2.999199461440281711e-01,5.745542367741201823e-04
3.873500195067373086e-01,5.745542367741201823e-04
5.002669530349181937e-01,5.745542367741201823e-04
6.461004561650423028e-01,5.745542367741201823e-04
8.344460830846414101e-01,5.745542367741201823e-04
1.077696601095472939e+00,5.745542367741201823e-04
1.391857410031039022e+00,5.745542367741201823e-04
1.797599665702842797e+00,5.745542367741201823e-04
2.321620400801625017e+00,5.745542367741201823e-04
2.998399136501226359e+00,5.745542367741201823e-04
3.872466566311632441e+00,5.745542367741201823e-04
5.001334587062326698e+00,5.745542367741201823e-04
6.459280467221720556e+00,5.745542367741201823e-04
8.342234143294701809e+00,5.745542367741201823e-04
1.077409021867188166e+01,5.745542367741201823e-04
1.391485998188919204e+01,5.745542367741201823e-04
1.797119983087065620e+01,5.745542367741201823e-04
2.321000885251001122e+01,5.745542367741201823e-04
2.997599025125830607e+01,5.745542367741201823e-04
3.871433213375783566e+01,5.745542367741201823e-04
4.999999999999999289e+01,5.745542367741201823e-04
2.999999999999999542e-02,8.343811419173647204e-04
3.874534099716626934e-02,8.343811419173647204e-04
5.004004829955644579e-02,8.343811419173647204e-04
6.462729116269952390e-02,8.343811419173647204e-04
8.346688112739811261e-02,8.343811419173647204e-04
1.077984257083660635e-01,8.343811419173647204e-04
1.392228921009446008e-01,8.343811419173647204e-04
1.798079476354262352e-01,8.343811419173647204e-04
2.322240081711735571e-01,8.343811419173647204e-04
2.999199461440281711e-01,8.343811419173647204e-04
3.873500195067373086e-01,8.343811419173647204e-04
5.002669530349181937e-01,8.343811419173647204e-04
6.461004561650423028e-01,8.343811419173647204e-04
8.344460830846414101e-01,8.343811419173647204e-04
1.077696601095472939e+00,8.343811419173647204e-04
1.391857410031039022e+00,8.343811419173647204e-04
1.797599665702842797e+00,8.343811419173647204e-04
2.321620400801625017e+00,8.343811419173647204e-04
2.998399136501226359e+00,8.343811419173647204e-04
3.872466566311632441e+00,8.343811419173647204e-04
5.001334587062326698e+00,8.343811419173647204e-04
6.459280467221720556e+00,8.343811419173647204e-04
8.342234143294701809e+00,8.343811419173647204e-04
1.077409021867188166e+01,8.343811419173647204e-04
1.391485998188919204e+01,8.343811419173647204e-04
1.797119983087065620e+01,8.343811419173647204e-04
2.321000885251001122e+01,8.343811419173647204e-04
2.997599025125830607e+01,8.343811419173647204e-04
3.871433213375783566e+01,8.343811419173647204e-04
4.999999999999999289e+01,8.343811419173647204e-04
2.999999999999999542e-02,1.211707869210312035e-03
3.874534099716626934e-02,1.211707869210312035e-03
5.004004829955644579e-02,1.211707869210312035e-03
6.462729116269952390e-02,1.211707869210312035e-03
8.346688112739811261e-02,1.211707869210312035e-03
1.077984257083660635e-01,1.211707869210312035e-03
1.392228921009446008e-01,1.211707869210312035e-03
1.798079476354262352e-01,1.211707869210312035e-03
2.322240081711735571e-01,1.211707869210312035e-03
2.999199461440281711e-01,1.211707869210312035e-03
3.873500195067373086e-01,1.211707869210312035e-03
5.002669530349181937e-01,1.211707869210312035e-03
6.461004561650423028e-01,1.211707869210312035e-03
8.344460830846414101e-01,1.211707869210312035e-03
1.077696601095472939e+00,1.211707869210312035e-03
1.391857410031039022e+00,1.211707869210312035e-03
1.797599665702842797e+00,1.211707869210312035e-03
2.321620400801625017e+00,1.211707869210312035e-03
2.998399136501226359e+00,1.211707869210312035e-03
3.872466566311632441e+00,1.211707869210312035e-03
5.001334587062326698e+00,1.211707869210312035e-03
6.459280467221720556e+00,1.211707869210312035e-03
8.342234143294701809e+00,1.211707869210312035e-03
1.077409021867188166e+01,1.211707869210312035e-03
1.391485998188919204e+01,1.211707869210312035e-03
1.797119983087065620e+01,1.211707869210312035e-03
2.321000885251001122e+01,1.211707869210312035e-03
2.997599025125830607e+01,1.211707869210312035e-03
3.871433213375783566e+01,1.211707869210312035e-03
4.999999999999999289e+01,1.211707869210312035e-03
2.999999999999999542e-02,1.759670594822246867e-03
3.874534099716626934e-02,1.759670594822246867e-03
5.004004829955644579e-02,1.759670594822246867e-03
6.462729116269952390e-02,1.759670594822246867e-03
8.346688112739811261e-02,1.759670594822246867e-03
1.077984257083660635e-01,1.759670594822246867e-03
1.392228921009446008e-01,1.759670594822246867e-03
1.798079476354262352e-01,1.759670594822246867e-03
2.322240081711735571e-01,1.759670594822246867e-03
2.999199461440281711e-01,1.759670594822246867e-03
3.873500195067373086e-01,1.759670594822246867e-03
5.002669530349181937e-01,1.759670594822246867e-03
6.461004561650423028e-01,1.759670594822246867e-03
8.344460830846414101e-01,1.759670594822246867e-03
1.077696601095472939e+00,1.759670594822246867e-03
1.391857410031039022e+00,1.759670594822246867e-03
1.797599665702842797e+00,1.759670594822246867e-03
2.321620400801625017e+00,1.759670594822246867e-03
2.998399136501226359e+00,1.759670594822246867e-03
3.872466566311632441e+00,1.759670594822246867e-03
5.001334587062326698e+00,1.759670594822246867e-03
6.459280467221720556e+00,1.759670594822246867e-03
8.342234143294701809e+00,1.759670594822246867e-03
1.077409021867188166e+01,1.759670594822246867e-03
1.391485998188919204e+01,1.759670594822246867e-03
1.797119983087065620e+01,1.759670594822246867e-03
2.321000885251001122e+01,1.759670594822246867e-03
2.997599025125830607e+01,1.759670594822246867e-03
3.871433213375783566e+01,1.759670594822246867e-03
4.999999999999999289e+01,1.759670594822246867e-03
2.999999999999999542e-02,2.555434920382316025e-03
3.874534099716626934e-02,2.555434920382316025e-03
5.004004829955644579e-02,2.555434920382316025e-03
6.462729116269952390e-02,2.555434920382316025e-03
8.346688112739811261e-02,2.555434920382316025e-03
1.077984257083660635e-01,2.555434920382316025e-03
1.392228921009446008e-01,2.555434920382316025e-03
1.798079476354262352e-01,2.555434920382316025e-03
2.322240081711735571e-01,2.555434920382316025e-03
2.999199461440281711e-01,2.555434920382316025e-03
3.873500195067373086e-01,2.555434920382316025e-03
5.002669530349181937e-01,2.555434920382316025e-03
6.461004561650423028e-01,2.555434920382316025e-03
8.344460830846414101e-01,2.555434920382316025e-03
1.077696601095472939e+00,2.555434920382316025e-03
1.391857410031039022e+00,2.555434920382316025e-03
1.797599665702842797e+00,2.555434920382316025e-03
2.321620400801625017e+00,2.555434920382316025e-03
2.998399136501226359e+00,2.555434920382316025e-03
3.872466566311632441e+00,2.555434920382316025e-03
5.001334587062326698e+00,2.555434920382316025e-03
6.459280467221720556e+00,2.555434920382316025e-03
8.342234143294701809e+00,2.555434920382316025e-03
1.077409021867188166e+01,2.555434920382316025e-03
1.391485998188919204e+01,2.555434920382316025e-03
1.797119983087065620e+01,2.555434920382316025e-03
2.321000885251001122e+01,2.555434920382316025e-03
2.997599025125830607e+01,2.555434920382316025e-03
3.871433213375783566e+01,2.555434920382316025e-03
4.999999999999999289e+01,2.555434920382316025e-03
2.999999999999999542e-02,3.711062542912482547e-03
3.874534099716626934e-02,3.711062542912482547e-03
5.004004829955644579e-02,3.711062542912482547e-03
6.462729116269952390e-02,3.711062542912482547e-03
8.346688112739811261e-02,3.711062542912482547e-03
1.077984257083660635e-01,3.711062542912482547e-03
1.392228921009446008e-01,3.711062542912482547e-03
1.798079476354262352e-01,3.711062542912482547e-03
2.322240081711735571e-01,3.711062542912482547e-03
2.999199461440281711e-01,3.711062542912482547e-03
3.873500195067373086e-01,3.711062542912482547e-03
5.002669530349181937e-01,3.711062542912482547e-03
6.461004561650423028e-01,3.711062542912482547e-03
8.344460830846414101e-01,3.711062542912482547e-03
1.077696601095472939e+00,3.711062542912482547e-03
1.391857410031039022e+00,3.711062542912482547e-03
1.797599665702842797e+00,3.711062542912482547e-03
2.321620400801625017e+00,3.711062542912482547e-03
2.998399136501226359e+00,3.711062542912482547e-03
3.872466566311632441e+00,3.711062542912482547e-03
5.001334587062326698e+00,3.711062542912482547e-03
6.459280467221720556e+00,3.711062542912482547e-03
8.342234143294701809e+00,3.711062542912482547e-03
1.077409021867188166e+01,3.711062542912482547e-03
1.391485998188919204e+01,3.711062542912482547e-03
1.797119983087065620e+01,3.711062542912482547e-03
2.321000885251001122e+01,3.711062542912482547e-03
2.997599025125830607e+01,3.711062542912482547e-03
3.871433213375783566e+01,3.711062542912482547e-03
4.999999999999999289e+01,3.711062542912482547e-03
2.999999999999999542e-02,5.389292087840633592e-03
3.874534099716626934e-02,5.389292087840633592e-03
5.004004829955644579e-02,5.389292087840633592e-03
6.462729116269952390e-02,5.389292087840633592e-03
8.346688112739811261e-02,5.389292087840633592e-03
1.077984257083660635e-01,5.389292087840633592e-03
1.392228921009446008e-01,5.389292087840633592e-03
1.798079476354262352e-01,5.389292087840633592e-03
2.322240081711735571e-01,5.389292087840633592e-03
2.999199461440281711e-01,5.389292087840633592e-03
3.873500195067373086e-01,5.389292087840633592e-03
5.002669530349181937e-01,5.389292087840633592e-03
6.461004561650423028e-01,5.389292087840633592e-03
8.344460830846414101e-01,5.389292087840633592e-03
1.077696601095472939e+00,5.389292087840633592e-03
1.391857410031039022e+00,5.389292087840633592e-03
1.797599665702842797e+00,5.389292087840633592e-03
2.321620400801625017e+00,5.389292087840633592e-03
2.998399136501226359e+00,5.389292087840633592e-03
3.872466566311632441e+00,5.389292087840633592e-03
5.001334587062326698e+00,5.389292087840633592e-03
6.459280467221720556e+00,5.389292087840633592e-03
8.342234143294701809e+00,5.389292087840633592e-03
1.077409021867188166e+01,5.389292087840633592e-03
1.391485998188919204e+01,5.389292087840633592e-03
1.797119983087065620e+01,5.389292087840633592e-03
2.321000885251001122e+01,5.389292087840633592e-03
2.997599025125830607e+01,5.389292087840633592e-03
3.871433213375783566e+01,5.389292087840633592e-03
4.999999999999999289e+01,5.389292087840633592e-03
2.999999999999999542e-02,7.826456404926884422e-03
3.874534099716626934e-02,7.826456404926884422e-03
5.004004829955644579e-02,7.826456404926884422e-03
6.462729116269952390e-02,7.826456404926884422e-03
8.346688112739811261e-02,7.826456404926884422e-03
1.077984257083660635e-01,7.826456404926884422e-03
1.392228921009446008e-01,7.826456404926884422e-03
1.798079476354262352e-01,7.826456404926884422e-03
2.322240081711735571e-01,7.826456404926884422e-03
2.999199461440281711e-01,7.826456404926884422e-03
3.873500195067373086e-01,7.826456404926884422e-03
5.002669530349181937e-01,7.826456404926884422e-03
6.461004561650423028e-01,7.826456404926884422e-03
8.344460830846414101e-01,7.826456404926884422e-03
1.077696601095472939e+00,7.826456404926884422e-03
1.391857410031039022e+00,7.826456404926884422e-03
1.797599665702842797e+00,7.826456404926884422e-03
2.321620400801625017e+00,7.826456404926884422e-03
2.998399136501226359e+00,7.826456404926884422e-03
3.872466566311632441e+00,7.826456404926884422e-03
5.001334587062326698e+00,7.826456404926884422e-03
6.459280467221720556e+00,7.826456404926884422e-03
8.342234143294701809e+00,7.826456404926884422e-03
1.077409021867188166e+01,7.826456404926884422e-03
1.391485998188919204e+01,7.826456404926884422e-03
1.797119983087065620e+01,7.826456404926884422e-03
2.321000885251001122e+01,7.826456404926884422e-03
2.997599025125830607e+01,7.826456404926884422e-03
3.871433213375783566e+01,7.826456404926884422e-03
4.999999999999999289e+01,7.826456404926884422e-03
2.999999999999999542e-02,1.136576360305679989e-02
3.874534099716626934e-02,1.136576360305679989e-02
5.004004829955644579e-02,1.136576360305679989e-02
6.462729116269952390e-02,1.136576360305679989e-02
8.346688112739811261e-02,1.136576360305679989e-02
1.077984257083660635e-01,1.136576360305679989e-02
1.392228921009446008e-01,1.136576360305679989e-02
1.798079476354262352e-01,1.136576360305679989e-02
2.322240081711735571e-01,1.136576360305679989e-02
2.999199461440281711e-01,1.136576360305679989e-02
3.873500195067373086e-01,1.136576360305679989e-02
5.002669530349181937e-01,1.136576360305679989e-02
6.461004561650423028e-01,1.136576360305679989e-02
8.344460830846414101e-01,1.136576360305679989e-02
1.077696601095472939e+00,1.136576360305679989e-02
1.391857410031039022e+00,1.136576360305679989e-02
1.797599665702842797e+00,1.136576360305679989e-02
2.321620400801625017e+00,1.136576360305679989e-02
2.998399136501226359e+00,1.136576360305679989e-02
3.872466566311632441e+00,1.136576360305679989e-02
5.001334587062326698e+00,1.136576360305679989e-02
6.459280467221720556e+00,1.136576360305679989e-02
8.342234143294701809e+00,1.136576360305679989e-02
1.077409021867188166e+01,1.136576360305679989e-02
1.391485998188919204e+01,1.136576360305679989e-02
1.797119983087065620e+01,1.136576360305679989e-02
2.321000885251001122e+01,1.136576360305679989e-02
2.997599025125830607e+01,1.136576360305679989e-02
3.871433213375783566e+01,1.136576360305679989e-02
4.999999999999999289e+01,1.136576360305679989e-02
2.999999999999999542e-02,1.650562854975456961e-02
3.874534099716626934e-02,1.650562854975456961e-02
5.004004829955644579e-02,1.650562854975456961e-02
6.462729116269952390e-02,1.650562854975456961e-02
8.346688112739811261e-02,1.650562854975456961e-02
1.077984257083660635e-01,1.650562854975456961e-02
1.392228921009446008e-01,1.650562854975456961e-02
1.798079476354262352e-01,1.650562854975456961e-02
2.322240081711735571e-01,1.650562854975456961e-02
2.999199461440281711e-01,1.650562854975456961e-02
3.873500195067373086e-01,1.650562854975456961e-02
5.002669530349181937e-01,1.650562854975456961e-02
6.461004561650423028e-01,1.650562854975456961e-02
8.344460830846414101e-01,1.650562854975456961e-02
1.077696601095472939e+00,1.650562854975456961e-02
1.391857410031039022e+00,1.650562854975456961e-02
1.797599665702842797e+00,1.650562854975456961e-02
2.321620400801625017e+00,1.650562854975456961e-02
2.998399136501226359e+00,1.650562854975456961e-02
3.872466566311632441e+00,1.650562854975456961e-02
5.001334587062326698e+00,1.650562854975456961e-02
6.459280467221720556e+00,1.650562854975456961e-02
8.342234143294701809e+00,1.650562854975456961e-02
1.077409021867188166e+01,1.650562854975456961e-02
1.391485998188919204e+01,1.650562854975456961e-02
1.797119983087065620e+01,1.650562854975456961e-02
2.321000885251001122e+01,1.650562854975456961e-02
2.997599025125830607e+01,1.650562854975456961e-02
3.871433213375783566e+01,1.650562854975456961e-02
4.999999999999999289e+01,1.650562854975456961e-02
2.999999999999999542e-02,2.396986100865249047e-02
3.874534099716626934e-02,2.396986100865249047e-02
5.004004829955644579e-02,2.396986100865249047e-02
6.462729116269952390e-02,2.396986100865249047e-02
8.346688112739811261e-02,2.396986100865249047e-02
1.077984257083660635e-01,2.396986100865249047e-02
1.392228921009446008e-01,2.396986100865249047e-02
1.798079476354262352e-01,2.396986100865249047e-02
2.322240081711735571e-01,2.396986100865249047e-02
2.999199461440281711e-01,2.396986100865249047e-02
3.873500195067373086e-01,2.396986100865249047e-02
5.002669530349181937e-01,2.396986100865249047e-02
6.461004561650423028e-01,2.396986100865249047e-02
8.344460830846414101e-01,2.396986100865249047e-02
1.077696601095472939e+00,2.396986100865249047e-02
1.391857410031039022e+00,2.396986100865249047e-02
1.797599665702842797e+00,2.396986100865249047e-02
2.321620400801625017e+00,2.396986100865249047e-02
2.998399136501226359e+00,2.396986100865249047e-02
3.872466566311632441e+00,2.396986100865249047e-02
5.001334587062326698e+00,2.396986100865249047e-02
6.459280467221720556e+00,2.396986100865249047e-02
8.342234143294701809e+00,2.396986100865249047e-02
1.077409021867188166e+01,2.396986100865249047e-02
1.391485998188919204e+01,2.396986100865249047e-02
1.797119983087065620e+01,2.396986100865249047e-02
2.321000885251001122e+01,2.396986100865249047e-02
2.997599025125830607e+01,2.396986100865249047e-02
3.871433213375783566e+01,2.396986100865249047e-02
4.999999999999999289e+01,2.396986100865249047e-02
2.999999999999999542e-02,3.480959449936627675e-02
3.874534099716626934e-02,3.480959449936627675e-02
5.004004829955644579e-02,3.480959449936627675e-02
6.462729116269952390e-02,3.480959449936627675e-02
8.346688112739811261e-02,3.480959449936627675e-02
1.077984257083660635e-01,3.480959449936627675e-02
1.392228921009446008e-01,3.480959449936627675e-02
1.798079476354262352e-01,3.480959449936627675e-02
2.322240081711735571e-01,3.480959449936627675e-02
2.999199461440281711e-01,3.480959449936627675e-02
3.873500195067373086e-01,3.480959449936627675e-02
5.002669530349181937e-01,3.480959449936627675e-02
6.461004561650423028e-01,3.480959449936627675e-02
8.344460830846414101e-01,3.480959449936627675e-02
1.077696601095472939e+00,3.480959449936627675e-02
1.391857410031039022e+00,3.480959449936627675e-02
1.797599665702842797e+00,3.480959449936627675e-02
2.321620400801625017e+00,3.480959449936627675e-02
2.998399136501226359e+00,3.480959449936627675e-02
3.872466566311632441e+00,3.480959449936627675e-02
5.001334587062326698e+00,3.480959449936627675e-02
6.459280467221720556e+00,3.480959449936627675e-02
8.342234143294701809e+00,3.480959449936627675e-02
1.077409021867188166e+01,3.480959449936627675e-02
1.391485998188919204e+01,3.480959449936627675e-02
1.797119983087065620e+01,3.480959449936627675e-02
2.321000885251001122e+01,3.480959449936627675e-02
2.997599025125830607e+01,3.480959449936627675e-02
3.871433213375783566e+01,3.480959449936627675e-02
4.999999999999999289e+01,3.480959449936627675e-02
2.999999999999999542e-02,5.055130977909784440e-02
3.874534099716626934e-02,5.055130977909784440e-02
5.004004829955644579e-02,5.055130977909784440e-02
6.462729116269952390e-02,5.055130977909784440e-02
8.346688112739811261e-02,5.055130977909784440e-02
1.077984257083660635e-01,5.055130977909784440e-02
1.392228921009446008e-01,5.055130977909784440e-02
1.798079476354262352e-01,5.055130977909784440e-02
2.322240081711735571e-01,5.055130977909784440e-02
2.999199461440281711e-01,5.055130977909784440e-02
3.873500195067373086e-01,5.055130977909784440e-02
5.002669530349181937e-01,5.055130977909784440e-02
6.461004561650423028e-01,5.055130977909784440e-02
8.344460830846414101e-01,5.055130977909784440e-02
1.077696601095472939e+00,5.055130977909784440e-02
1.391857410031039022e+00,5.055130977909784440e-02
1.797599665702842797e+00,5.055130977909784440e-02
2.321620400801625017e+00,5.055130977909784440e-02
2.998399136501226359e+00,5.055130977909784440e-02
3.872466566311632441e+00,5.055130977909784440e-02
5.001334587062326698e+00,5.055130977909784440e-02
6.459280467221720556e+00,5.055130977909784440e-02
8.342234143294701809e+00,5.055130977909784440e-02
1.077409021867188166e+01,5.055130977909784440e-02
1.391485998188919204e+01,5.055130977909784440e-02
1.797119983087065620e+01,5.055130977909784440e-02
2.321000885251001122e+01,5.055130977909784440e-02
2.997599025125830607e+01,5.055130977909784440e-02
3.871433213375783566e+01,5.055130977909784440e-02
4.999999999999999289e+01,5.055130977909784440e-02
2.999999999999999542e-02,7.341179801530972604e-02
3.874534099716626934e-02,7.341179801530972604e-02
5.004004829955644579e-02,7.341179801530972604e-02
6.462729116269952390e-02,7.341179801530972604e-02
8.346688112739811261e-02,7.341179801530972604e-02
1.077984257083660635e-01,7.341179801530972604e-02
1.392228921009446008e-01,7.341179801530972604e-02
1.798079476354262352e-01,7.341179801530972604e-02
2.322240081711735571e-01,7.341179801530972604e-02
2.999199461440281711e-01,7.341179801530972604e-02
3.873500195067373086e-01,7.341179801530972604e-02
5.002669530349181937e-01,7.341179801530972604e-02
6.461004561650423028e-01,7.341179801530972604e-02
8.344460830846414101e-01,7.341179801530972604e-02
1.077696601095472939e+00,7.341179801530972604e-02
1.391857410031039022e+00,7.341179801530972604e-02
1.797599665702842797e+00,7.341179801530972604e-02
2.321620400801625017e+00,7.341179801530972604e-02
2.998399136501226359e+00,7.341179801530972604e-02
3.872466566311632441e+00,7.341179801530972604e-02
5.001334587062326698e+00,7.341179801530972604e-02
6.459280467221720556e+00,7.341179801530972604e-02
8.342234143294701809e+00,7.341179801530972604e-02
1.077409021867188166e+01,7.341179801530972604e-02
1.391485998188919204e+01,7.341179801530972604e-02
1.797119983087065620e+01,7.341179801530972604e-02
2.321000885251001122e+01,7.341179801530972604e-02
2.997599025125830607e+01,7.341179801530972604e-02
3.871433213375783566e+01,7.341179801530972604e-02
4.999999999999999289e+01,7.341179801530972604e-02
2.999999999999999542e-02,1.066103353482053401e-01
3.874534099716626934e-02,1.066103353482053401e-01
5.004004829955644579e-02,1.066103353482053401e-01
6.462729116269952390e-02,1.066103353482053401e-01
8.346688112739811261e-02,1.066103353482053401e-01
1.077984257083660635e-01,1.066103353482053401e-01
1.392228921009446008e-01,1.066103353482053401e-01
1.798079476354262352e-01,1.066103353482053401e-01
2.322240081711735571e-01,1.066103353482053401e-01
2.999199461440281711e-01,1.066103353482053401e-01
3.873500195067373086e-01,1.066103353482053401e-01
5.002669530349181937e-01,1.066103353482053401e-01
6.461004561650423028e-01,1.066103353482053401e-01
8.344460830846414101e-01,1.066103353482053401e-01
1.077696601095472939e+00,1.066103353482053401e-01
1.391857410031039022e+00,1.066103353482053401e-01
1.797599665702842797e+00,1.066103353482053401e-01
2.321620400801625017e+00,1.066103353482053401e-01
2.998399136501226359e+00,1.066103353482053401e-01
3.872466566311632441e+00,1.066103353482053401e-01
5.001334587062326698e+00,1.066103353482053401e-01
6.459280467221720556e+00,1.066103353482053401e-01
8.342234143294701809e+00,1.066103353482053401e-01
1.077409021867188166e+01,1.066103353482053401e-01
1.391485998188919204e+01,1.066103353482053401e-01
1.797119983087065620e+01,1.066103353482053401e-01
2.321000885251001122e+01,1.066103353482053401e-01
2.997599025125830607e+01,1.066103353482053401e-01
3.871433213375783566e+01,1.066103353482053401e-01
4.999999999999999289e+01,1.066103353482053401e-01
2.999999999999999542e-02,1.548220301141039756e-01
3.874534099716626934e-02,1.548220301141039756e-01
5.004004829955644579e-02,1.548220301141039756e-01
6.462729116269952390e-02,1.548220301141039756e-01
8.346688112739811261e-02,1.548220301141039756e-01
1.077984257083660635e-01,1.548220301141039756e-01
1.392228921009446008e-01,1.548220301141039756e-01
1.798079476354262352e-01,1.548220301141039756e-01
2.322240081711735571e-01,1.548220301141039756e-01
2.999199461440281711e-01,1.548220301141039756e-01
3.873500195067373086e-01,1.548220301141039756e-01
5.002669530349181937e-01,1.548220301141039756e-01
6.461004561650423028e-01,1.548220301141039756e-01
8.344460830846414101e-01,1.548220301141039756e-01
1.077696601095472939e+00,1.548220301141039756e-01
1.391857410031039022e+00,1.548220301141039756e-01
1.797599665702842797e+00,1.548220301141039756e-01
2.321620400801625017e+00,1.548220301141039756e-01
2.998399136501226359e+00,1.548220301141039756e-01
3.872466566311632441e+00,1.548220301141039756e-01
5.001334587062326698e+00,1.548220301141039756e-01
6.459280467221720556e+00,1.548220301141039756e-01
8.342234143294701809e+00,1.548220301141039756e-01
1.077409021867188166e+01,1.548220301141039756e-01
1.391485998188919204e+01,1.548220301141039756e-01
1.797119983087065620e+01,1.548220301141039756e-01
2.321000885251001122e+01,1.548220301141039756e-01
2.997599025125830607e+01,1.548220301141039756e-01
3.871433213375783566e+01,1.548220301141039756e-01
4.999999999999999289e+01,1.548220301141039756e-01
2.999999999999999542e-02,2.248361843189342901e-01
3.874534099716626934e-02,2.248361843189342901e-01
5.004004829955644579e-02,2.248361843189342901e-01
6.462729116269952390e-02,2.248361843189342901e-01
8.346688112739811261e-02,2.248361843189342901e-01
1.077984257083660635e-01,2.248361843189342901e-01
1.392228921009446008e-01,2.248361843189342901e-01
1.798079476354262352e-01,2.248361843189342901e-01
2.322240081711735571e-01,2.248361843189342901e-01
2.999199461440281711e-01,2.248361843189342901e-01
3.873500195067373086e-01,2.248361843189342901e-01
5.002669530349181937e-01,2.248361843189342901e-01
6.461004561650423028e-01,2.248361843189342901e-01
8.344460830846414101e-01,2.248361843189342901e-01
1.077696601095472939e+00,2.248361843189342901e-01
1.391857410031039022e+00,2.248361843189342901e-01
1.797599665702842797e+00,2.248361843189342901e-01
2.321620400801625017e+00,2.248361843189342901e-01
2.998399136501226359e+00,2.248361843189342901e-01
3.872466566311632441e+00,2.248361843189342901e-01
5.001334587062326698e+00,2.248361843189342901e-01
6.459280467221720556e+00,2.248361843189342901e-01
8.342234143294701809e+00,2.248361843189342901e-01
1.077409021867188166e+01,2.248361843189342901e-01
1.391485998188919204e+01,2.248361843189342901e-01
1.797119983087065620e+01,2.248361843189342901e-01
2.321000885251001122e+01,2.248361843189342901e-01
2.997599025125830607e+01,2.248361843189342901e-01
3.871433213375783566e+01,2.248361843189342901e-01
4.999999999999999289e+01,2.248361843189342901e-01
2.999999999999999542e-02,3.265123816154686942e-01
3.874534099716626934e-02,3.265123816154686942e-01
5.004004829955644579e-02,3.265123816154686942e-01
6.462729116269952390e-02,3.265123816154686942e-01
8.346688112739811261e-02,3.265123816154686942e-01
1.077984257083660635e-01,3.265123816154686942e-01
1.392228921009446008e-01,3.265123816154686942e-01
1.798079476354262352e-01,3.265123816154686942e-01
2.322240081711735571e-01,3.265123816154686942e-01
2.999199461440281711e-01,3.265123816154686942e-01
3.873500195067373086e-01,3.265123816154686942e-01
5.002669530349181937e-01,3.265123816154686942e-01
6.461004561650423028e-01,3.265123816154686942e-01
8.344460830846414101e-01,3.265123816154686942e-01
1.077696601095472939e+00,3.265123816154686942e-01
1.391857410031039022e+00,3.265123816154686942e-01
1.797599665702842797e+00,3.265123816154686942e-01
2.321620400801625017e+00,3.265123816154686942e-01
2.998399136501226359e+00,3.265123816154686942e-01
3.872466566311632441e+00,3.265123816154686942e-01
5.001334587062326698e+00,3.265123816154686942e-01
6.459280467221720556e+00,3.265123816154686942e-01
8.342234143294701809e+00,3.265123816154686942e-01
1.077409021867188166e+01,3.265123816154686942e-01
1.391485998188919204e+01,3.265123816154686942e-01
1.797119983087065620e+01,3.265123816154686942e-01
2.321000885251001122e+01,3.265123816154686942e-01
2.997599025125830607e+01,3.265123816154686942e-01
3.871433213375783566e+01,3.265123816154686942e-01
4.999999999999999289e+01,3.265123816154686942e-01
2.999999999999999542e-02,4.741689406940676754e-01
3.874534099716626934e-02,4.741689406940676754e-01
5.004004829955644579e-02,4.741689406940676754e-01
6.462729116269952390e-02,4.741689406940676754e-01
8.346688112739811261e-02,4.741689406940676754e-01
1.077984257083660635e-01,4.741689406940676754e-01
1.392228921009446008e-01,4.741689406940676754e-01
1.798079476354262352e-01,4.741689406940676754e-01
2.322240081711735571e-01,4.741689406940676754e-01
2.999199461440281711e-01,4.741689406940676754e-01
3.873500195067373086e-01,4.741689406940676754e-01
5.002669530349181937e-01,4.741689406940676754e-01
6.461004561650423028e-01,4.741689406940676754e-01
8.344460830846414101e-01,4.741689406940676754e-01
1.077696601095472939e+00,4.741689406940676754e-01
1.391857410031039022e+00,4.741689406940676754e-01
1.797599665702842797e+00,4.741689406940676754e-01
2.321620400801625017e+00,4.741689406940676754e-01
2.998399136501226359e+00,4.741689406940676754e-01
3.872466566311632441e+00,4.741689406940676754e-01
5.001334587062326698e+00,4.741689406940676754e-01
6.459280467221720556e+00,4.741689406940676754e-01
8.342234143294701809e+00,4.741689406940676754e-01
1.077409021867188166e+01,4.741689406940676754e-01
1.391485998188919204e+01,4.741689406940676754e-01
1.797119983087065620e+01,4.741689406940676754e-01
2.321000885251001122e+01,4.741689406940676754e-01
2.997599025125830607e+01,4.741689406940676754e-01
3.871433213375783566e+01,4.741689406940676754e-01
4.999999999999999289e+01,4.741689406940676754e-01
2.999999999999999542e-02,6.885992598704029355e-01
3.874534099716626934e-02,6.885992598704029355e-01
5.004004829955644579e-02,6.885992598704029355e-01
6.462729116269952390e-02,6.885992598704029355e-01
8.346688112739811261e-02,6.885992598704029355e-01
1.077984257083660635e-01,6.885992598704029355e-01
1.392228921009446008e-01,6.885992598704029355e-01
1.798079476354262352e-01,6.885992598704029355e-01
2.322240081711735571e-01,6.885992598704029355e-01
2.999199461440281711e-01,6.885992598704029355e-01
3.873500195067373086e-01,6.885992598704029355e-01
5.002669530349181937e-01,6.885992598704029355e-01
6.461004561650423028e-01,6.885992598704029355e-01
8.344460830846414101e-01,6.885992598704029355e-01
1.077696601095472939e+00,6.885992598704029355e-01
1.391857410031039022e+00,6.885992598704029355e-01
1.797599665702842797e+00,6.885992598704029355e-01
2.321620400801625017e+00,6.885992598704029355e-01
2.998399136501226359e+00,6.885992598704029355e-01
3.872466566311632441e+00,6.885992598704029355e-01
5.001334587062326698e+00,6.885992598704029355e-01
6.459280467221720556e+00,6.885992598704029355e-01
8.342234143294701809e+00,6.885992598704029355e-01
1.077409021867188166e+01,6.885992598704029355e-01
1.391485998188919204e+01,6.885992598704029355e-01
1.797119983087065620e+01,6.885992598704029355e-01
2.321000885251001122e+01,6.885992598704029355e-01
2.997599025125830607e+01,6.885992598704029355e-01
3.871433213375783566e+01,6.885992598704029355e-01
4.999999999999999289e+01,6.885992598704029355e-01
2.999999999999999542e-02,1.000000000000000000e+00
3.874534099716626934e-02,1.000000000000000000e+00
5.004004829955644579e-02,1.000000000000000000e+00
6.462729116269952390e-02,1.000000000000000000e+00
8.346688112739811261e-02,1.000000000000000000e+00
1.077984257083660635e-01,1.000000000000000000e+00
1.392228921009446008e-01,1.000000000000000000e+00
1.798079476354262352e-01,1.000000000000000000e+00
2.322240081711735571e-01,1.000000000000000000e+00
2.999199461440281711e-01,1.000000000000000000e+00
3.873500195067373086e-01,1.000000000000000000e+00
5.002669530349181937e-01,1.000000000000000000e+00
6.461004561650423028e-01,1.000000000000000000e+00
8.344460830846414101e-01,1.000000000000000000e+00
1.077696601095472939e+00,1.000000000000000000e+00
1.391857410031039022e+00,1.000000000000000000e+00
1.797599665702842797e+00,1.000000000000000000e+00
2.321620400801625017e+00,1.000000000000000000e+00
2.998399136501226359e+00,1.000000000000000000e+00
3.872466566311632441e+00,1.000000000000000000e+00
5.001334587062326698e+00,1.000000000000000000e+00
6.459280467221720556e+00,1.000000000000000000e+00
8.342234143294701809e+00,1.000000000000000000e+00
1.077409021867188166e+01,1.000000000000000000e+00
1.391485998188919204e+01,1.000000000000000000e+00
1.797119983087065620e+01,1.000000000000000000e+00
2.321000885251001122e+01,1.000000000000000000e+00
2.997599025125830607e+01,1.000000000000000000e+00
3.871433213375783566e+01,1.000000000000000000e+00
4.999999999999999289e+01,1.000000000000000000e+00
